@0 341ddffffd
@1 241deffffd
@2 34253ffffd
@3 2485cffffd
@4 2485fffffd
@5 3416b00005
@6 241710100d
@7 ff811
@8 2ffd
@9 37fd
@a ff81d
@b 4025
@c ff829
@d 5831
@e 2428f06839
@f 7ffd
@10 8045
@11 97fd
@12 24b9f09851
@13 affd
@14 ff859
@15 b861
@16 c869
@17 d871
@18 24bb20e879
@19 24bb8ff87d
@1a 10085
@1b 1108d
@1c 241c1ffffd
@1d ff891
@1e ff895
@1f 1309d
@20 ff8a1
@21 148a9
@22 158b1
@23 24bd8168b9
@24 ff8bd
@25 24bdd180c5
@26 190cd
@27 1a7fd
@28 ff8d5
@29 1b0dd
@2a 1c7fd
@2b 1c8e9
@2c ff8ed
@2d 1e0f5
@2e 1f0fd
@2f 207fd
@30 20ffd
@31 217fd
@32 21911
@33 ff915
@34 24104ffffd
@35 d044743152311d
@36 9045e431824125
@37 d04cb43382512d
@38 904ea433b26135
@39 d053b43552713d
@3a 9055e435828145
@3b d05b743722914d
@3c 905d243752a155
@3d 248ecffffd
@3e 248eeffffd
@3f 248f0ffffd
@40 248f8ffffd
@41 248faffffd
@42 248fcffffd
@43 24802ffffd
@44 22130ffffd
@45 2219bffffd
@46 3219effffd
@47 2219fffffd
@48 321a1ffffd
@49 321a3ffffd
@4a 221a4ffffd
@4b 321a7ffffd
@4c 221a8ffffd
@4d 321abffffd
@4e 221acffffd
@4f 221aeffffd
@50 221b1ffffd
@51 321b3ffffd
@52 321b5ffffd
@53 321b6ffffd
@54 221b7ffffd
@55 321b9ffffd
@56 321beffffd
@57 221bfffffd
@58 221c1ffffd
@59 221c2ffffd
@5a 321c4ff959
@5b 321cbffffd
@5c 321cdffffd
@5d 221ceffffd
@5e 321cfffffd
@5f 221d1ffffd
@60 322d82b961
@61 222d92c969
@62 322e02d971
@63 222e12e979
@64 322eb2f981
@65 222ec30989
@66 322f331991
@67 222f432999
@68 322fb339a1
@69 222fc349a9
@6a 32203359b1
@6b ff9b5
@6c c8423220a371bd
@6d 2220bff9c1
@6e 32211389c9
@6f 22212399d1
@70 322183a9d9
@71 ff9dd
@72 3221e3c1e5
@73 32221ff9e9
@74 222223d9f1
@75 322293e9f9
@76 2222a3fa01
@77 3223140a09
@78 2223241a11
@79 3223842ffd
@7a 222394321d
@7b 3224044225
@7c 22241ffa29
@7d 3224745a31
@7e 2224846a39
@7f 47ffd
@80 2499fffffd
@81 249a0ffffd
@82 248afffffd
@83 48245
@84 ffa49
@85 49a51
@86 24ac74aa59
@87 241d7ffffd
@88 ffa5d
@89 505bd43734c265
@8a 105d443764d26d
@8b 5061543894e275
@8c 1062c438c4f27d
@8d 5066d439f50285
@8e 1068443a25128d
@8f 506c543b552295
@90 106dc43b85329d
@91 142c8542a5
@92 42ca552ad
@93 142d3562b5
@94 42d5572bd
@95 141dbffffd
@96 41dcffffd
@97 141e0ffffd
@98 41e1ffffd
@99 141e5ffffd
@9a 41e6ffffd
@9b 141eaffffd
@9c 41ebffffd
@9d 141efffffd
@9e 41f0ffffd
@9f 141f4ffffd
@a0 41f5ffffd
@a1 141f9ffffd
@a2 41faffffd
@a3 141feffffd
@a4 41ffffffd
@a5 14103ffffd
@a6 4104ffffd
@a7 14108ffffd
@a8 4109ffffd
@a9 1410dffffd
@aa 410effffd
@ab 14112ffffd
@ac 4113ffffd
@ad 14139ffffd
@ae 582c5
@af 597fd
@b0 1425359ad1
@b1 4254ffffd
@b2 142585aad9
@b3 42595bae1
@b4 142625cae9
@b5 42635daf1
@b6 142705eaf9
@b7 42715fb01
@b8 1427760b09
@b9 4278ffffd
@ba ffb0d
@bb ffb11
@bc 62ffd
@bd 637fd
@be ffb1d
@bf ffb21
@c0 1410fffffd
@c1 4110ffffd
@c2 14113ffffd
@c3 4114ffffd
@c4 14118ffffd
@c5 4119ffffd
@c6 1411cffffd
@c7 411dffffd
@c8 14120ffffd
@c9 4121ffffd
@ca 14124ffffd
@cb 4125ffffd
@cc 14135ffffd
@cd 4136ffffd
@ce 14139ffffd
@cf 413affffd
@d0 14140ffffd
@d1 4145ffffd
@d2 1414cffffd
@d3 414dffffd
@d4 14150ffffd
@d5 4151ffffd
@d6 14154ffffd
@d7 14158ffffd
@d8 64ffd
@d9 142e3ffb29
@da ffb2d
@db ffb31
@dc 66b39
@dd 67b41
@de 14207ffb45
@df 14209ffffd
@e0 420a6934d
@e1 6a7fd
@e2 420fffffd
@e3 ffb55
@e4 4213ffffd
@e5 14214ffffd
@e6 6b7fd
@e7 6bffd
@e8 14219ffffd
@e9 1411bffffd
@ea 1421cffffd
@eb 411fffffd
@ec ffb61
@ed 142256cffd
@ee 42266d7fd
@ef 6db71
@f0 6eb79
@f1 6fb81
@f2 1413fffffd
@f3 4245ffffd
@f4 1424970b89
@f5 424a71ffd
@f6 1424dffffd
@f7 72395
@f8 737fd
@f9 73ffd
@fa 743a5
@fb 425cffba9
@fc 1425fffffd
@fd 75bb1
@fe 76bb9
@ff ffbbd
@100 ffbc1
@101 1427178bc9
@102 427279bd1
@103 12114ffffd
@104 2115ffffd
@105 2117ffffd
@106 7affd
@107 7b7fd
