@0 92227ffd
@1 9223bffd
@2 92243ffd
@3 92247ffd
@4 92257ffd
@5 9225bffd
@6 92263ffd
@7 92267ffd
@8 9226fffd
@9 3f01
@a 3f05
@b 3f09
@c 3f0d
@d 3f11
@e 3f15
@f 924bbf19
@10 3f1d
@11 924dbffd
@12 3f21
@13 3f25
@14 3f29
@15 3f2d
@16 3f31
@17 3f35
@18 925aff39
@19 3f3d
@1a 925fff41
@1b 3f45
@1c 3f49
@1d 13fd
@1e 10d0fffd
@1f 506e3ffd
@20 1071bffd
@21 1071fffd
@22 5041fffd
