@0 3fd
@1 7fd
@2 3fc09
@3 ffd
@4 13fd
@5 17fd
@6 1bfd
@7 1ffd
@8 3fc21
@9 27fd
@a 282d
@b 33fd
@c 3fc35
@d 3fc39
@e 3fc3d
@f 34462d1de44045
@10 90de84bfd
@11 3fc4d
@12 53fd
@13 57fd
@14 585d
@15 3fc61
@16 67fd
@17 6bfd
@18 6ffd
@19 73fd
@1a 3fc75
@1b 3fc79
@1c 7c81
@1d 3fc85
@1e 8bfd
@1f 8ffd
@20 2223489cd49095
@21 2217f896009bfd
@22 9ffd
@23 3fca1
@24 a7fd
@25 3fca9
@26 affd
@27 3fcb1
@28 b7fd
@29 3fcb9
@2a bffd
@2b 3fcc1
@2c c7fd
@2d cbfd
@2e cffd
@2f 3fcd1
@30 d7fd
@31 dbfd
@32 dffd
@33 3fce1
@34 3fce5
@35 ebfd
@36 effd
@37 3fcf1
@38 3fcf5
@39 fbfd
@3a fd01
@3b 41001140507fd
@3c 1090d
@3d 3fd11
@3e 117fd
@3f 11bfd
@40 3fd1d
@41 11e1123ff
@42 12529
@43 12d31
@44 1444451dd937ff
@45 13bfd
@46 13ffd
@47 143fd
@48 505ebfffd
@49 147fd
@4a 105effffd
@4b 92d94bfd
@4c 123ee49febfd4d
@4d 153fd
@4e 157fd
@4f 15bfd
@50 15ffd
@51 163fd
@52 16569
@53 16ffd
