@0 1
@1 0
@2 0
@3 0
@4 0
@5 0
@6 0
@7 0
@8 0
@9 0
@a 0
@b 1
@c 0
@d 0
@e 0
@f 1
@10 0
@11 0
@12 0
@13 1
@14 0
@15 0
@16 0
@17 0
@18 0
@19 0
@1a 0
@1b 0
@1c 0
@1d 0
@1e 0
@1f 0
@20 0
@21 0
@22 0
@23 0
@24 0
@25 0
@26 0
@27 0
@28 0
@29 0
@2a 0
@2b 0
@2c 0
@2d 0
@2e 0
@2f 1
@30 0
@31 0
@32 1
@33 0
@34 0
@35 0
@36 0
@37 0
@38 0
@39 0
@3a 0
@3b 0
@3c 0
@3d 0
@3e 0
@3f 0
@40 0
@41 0
@42 0
@43 0
@44 0
@45 0
@46 0
@47 0
@48 0
@49 0
@4a 0
@4b 0
@4c 0
@4d 0
@4e 0
@4f 0
@50 0
@51 0
@52 1
@53 0
@54 0
@55 0
@56 0
@57 0
@58 0
@59 0
@5a 0
@5b 0
@5c 0
@5d 0
@5e 0
@5f 0
@60 0
@61 0
@62 0
@63 1
@64 0
@65 0
@66 0
@67 0
@68 0
@69 0
@6a 0
@6b 0
@6c 0
@6d 0
@6e 0
@6f 0
@70 0
@71 0
@72 0
@73 0
@74 0
@75 0
@76 0
@77 0
@78 1
@79 0
@7a 0
@7b 0
@7c 0
@7d 0
@7e 0
@7f 0
@80 0
@81 0
@82 0
@83 0
@84 1
@85 0
@86 0
@87 0
@88 0
@89 0
@8a 0
@8b 0
@8c 0
@8d 0
@8e 0
@8f 0
@90 0
@91 0
@92 0
@93 0
@94 0
@95 0
@96 0
@97 0
@98 0
@99 0
@9a 0
@9b 0
@9c 1
@9d 1
@9e 0
@9f 0
@a0 0
@a1 0
@a2 0
@a3 0
@a4 0
@a5 0
@a6 0
@a7 0
@a8 0
@a9 1
@aa 0
@ab 0
@ac 0
@ad 0
@ae 0
@af 0
@b0 0
@b1 0
@b2 0
@b3 0
@b4 0
@b5 0
@b6 0
@b7 1
@b8 0
@b9 0
@ba 1
@bb 0
@bc 0
@bd 0
@be 0
@bf 1
@c0 1
@c1 1
@c2 0
@c3 0
@c4 0
@c5 0
@c6 0
@c7 0
@c8 0
@c9 0
@ca 0
@cb 0
@cc 0
@cd 0
@ce 0
@cf 0
@d0 0
@d1 0
@d2 0
@d3 0
@d4 1
@d5 0
@d6 1
@d7 0
@d8 0
@d9 0
@da 1
@db 0
@dc 0
@dd 0
@de 0
@df 0
@e0 0
@e1 0
@e2 0
@e3 0
@e4 0
@e5 0
@e6 0
@e7 0
@e8 0
@e9 0
@ea 1
@eb 0
@ec 0
@ed 0
@ee 0
@ef 0
@f0 0
@f1 0
@f2 0
@f3 0
@f4 0
@f5 1
@f6 0
@f7 0
@f8 0
@f9 0
@fa 0
@fb 0
@fc 0
@fd 0
@fe 0
@ff 0
@100 0
@101 0
@102 0
@103 0
@104 0
@105 0
@106 0
@107 0
@108 0
@109 1
@10a 0
@10b 0
@10c 0
@10d 0
@10e 0
@10f 0
@110 0
@111 0
@112 0
@113 0
@114 0
@115 0
@116 0
@117 0
@118 0
@119 0
@11a 0
@11b 0
@11c 0
@11d 0
@11e 1
@11f 0
@120 0
@121 0
@122 0
@123 0
@124 0
@125 1
@126 0
@127 0
@128 0
@129 0
@12a 0
@12b 0
@12c 0
@12d 0
@12e 0
@12f 0
@130 1
@131 1
@132 0
@133 0
@134 0
@135 0
@136 0
@137 0
@138 0
@139 0
@13a 0
@13b 0
@13c 0
@13d 0
@13e 0
@13f 0
@140 0
@141 1
@142 0
@143 0
@144 0
@145 0
@146 0
@147 0
@148 1
@149 1
@14a 0
@14b 0
@14c 0
@14d 0
@14e 0
@14f 0
@150 0
@151 0
@152 0
@153 0
@154 0
@155 0
@156 0
@157 0
@158 0
@159 0
@15a 0
@15b 0
@15c 0
@15d 0
@15e 0
@15f 0
@160 0
@161 1
@162 0
@163 0
@164 0
@165 0
@166 0
@167 0
@168 0
@169 0
@16a 0
@16b 0
@16c 0
@16d 0
@16e 0
@16f 0
@170 0
@171 0
@172 1
@173 1
@174 0
@175 0
@176 0
@177 0
@178 0
@179 0
@17a 0
@17b 0
@17c 0
@17d 0
@17e 0
@17f 0
@180 0
@181 0
@182 1
@183 0
@184 0
@185 0
@186 0
@187 0
@188 0
@189 1
@18a 0
@18b 0
@18c 0
@18d 0
@18e 0
@18f 0
@190 1
@191 0
@192 0
@193 0
@194 0
@195 0
@196 1
@197 0
@198 0
@199 0
@19a 0
@19b 0
@19c 0
@19d 0
@19e 0
@19f 0
@1a0 0
@1a1 0
@1a2 0
@1a3 0
@1a4 0
@1a5 0
@1a6 1
@1a7 0
@1a8 0
@1a9 0
@1aa 0
@1ab 0
@1ac 0
@1ad 0
@1ae 0
@1af 0
@1b0 0
@1b1 0
@1b2 0
@1b3 0
@1b4 0
@1b5 1
@1b6 0
@1b7 0
@1b8 0
@1b9 0
@1ba 0
@1bb 0
@1bc 0
@1bd 0
@1be 0
@1bf 0
@1c0 0
@1c1 0
@1c2 0
@1c3 0
@1c4 0
@1c5 0
@1c6 0
@1c7 0
@1c8 0
@1c9 1
@1ca 0
@1cb 0
@1cc 0
@1cd 0
@1ce 0
@1cf 0
@1d0 0
@1d1 0
@1d2 0
@1d3 0
@1d4 0
@1d5 0
@1d6 0
@1d7 0
@1d8 0
@1d9 0
@1da 0
@1db 0
@1dc 1
@1dd 0
@1de 0
@1df 0
@1e0 0
@1e1 0
@1e2 0
@1e3 0
@1e4 0
@1e5 0
@1e6 0
@1e7 0
@1e8 0
@1e9 0
@1ea 0
@1eb 0
@1ec 0
@1ed 0
@1ee 0
@1ef 0
@1f0 0
@1f1 1
@1f2 0
@1f3 1
@1f4 0
@1f5 0
@1f6 0
@1f7 0
@1f8 0
@1f9 0
@1fa 0
@1fb 0
@1fc 1
@1fd 0
@1fe 0
@1ff 1
@200 0
@201 0
@202 0
@203 1
@204 0
@205 0
@206 0
@207 0
@208 0
@209 0
@20a 0
@20b 1
@20c 0
@20d 0
@20e 1
@20f 0
@210 0
@211 0
@212 0
@213 0
@214 0
@215 0
@216 0
@217 0
@218 0
@219 0
@21a 0
@21b 0
@21c 0
@21d 0
@21e 0
@21f 0
@220 0
@221 0
@222 1
@223 0
@224 0
@225 0
@226 0
@227 0
@228 0
@229 1
@22a 0
@22b 0
@22c 0
@22d 0
@22e 0
@22f 0
@230 1
@231 0
@232 1
@233 0
@234 0
@235 0
@236 0
@237 0
@238 1
@239 0
@23a 0
@23b 0
@23c 0
@23d 1
@23e 0
@23f 0
@240 0
@241 1
@242 0
@243 0
@244 0
@245 0
@246 0
@247 0
@248 0
@249 0
@24a 0
@24b 0
@24c 0
@24d 0
@24e 0
@24f 0
@250 0
@251 0
@252 0
@253 0
@254 0
@255 0
@256 0
@257 0
@258 0
@259 0
@25a 1
@25b 0
@25c 0
@25d 0
@25e 0
@25f 0
@260 0
@261 1
@262 0
@263 0
@264 1
@265 0
@266 1
@267 0
@268 0
@269 0
@26a 0
@26b 0
@26c 0
@26d 0
@26e 0
@26f 1
@270 0
@271 0
@272 0
@273 0
@274 0
@275 0
@276 0
@277 1
@278 0
@279 0
@27a 0
@27b 0
@27c 0
@27d 0
@27e 0
@27f 0
@280 0
@281 0
@282 0
@283 0
@284 0
@285 0
@286 0
@287 0
@288 0
@289 0
@28a 0
@28b 0
@28c 0
@28d 0
@28e 0
@28f 0
@290 0
@291 0
@292 0
@293 0
@294 0
@295 1
@296 0
@297 0
@298 0
@299 0
@29a 0
@29b 0
@29c 0
@29d 0
@29e 0
@29f 0
@2a0 1
@2a1 1
@2a2 0
@2a3 0
@2a4 0
@2a5 0
@2a6 0
@2a7 0
@2a8 0
@2a9 1
@2aa 0
@2ab 0
@2ac 1
@2ad 1
@2ae 0
@2af 0
@2b0 0
@2b1 0
@2b2 0
@2b3 0
@2b4 0
@2b5 0
@2b6 0
@2b7 0
@2b8 0
@2b9 0
@2ba 0
@2bb 0
@2bc 0
@2bd 0
@2be 0
@2bf 0
@2c0 0
@2c1 0
@2c2 0
@2c3 1
@2c4 0
@2c5 0
@2c6 1
@2c7 0
@2c8 0
@2c9 0
@2ca 0
@2cb 0
@2cc 0
@2cd 0
@2ce 0
@2cf 0
@2d0 0
@2d1 0
@2d2 0
@2d3 0
@2d4 0
@2d5 0
@2d6 0
@2d7 1
@2d8 1
@2d9 0
@2da 1
@2db 0
@2dc 0
@2dd 0
@2de 0
@2df 0
@2e0 0
@2e1 0
@2e2 0
@2e3 0
@2e4 1
@2e5 0
@2e6 1
@2e7 0
@2e8 0
@2e9 0
@2ea 0
@2eb 0
@2ec 0
@2ed 0
@2ee 0
@2ef 0
@2f0 0
@2f1 0
@2f2 0
@2f3 1
@2f4 0
@2f5 0
@2f6 0
@2f7 0
@2f8 0
@2f9 0
@2fa 0
@2fb 0
@2fc 0
@2fd 0
@2fe 0
@2ff 1
@300 0
@301 0
@302 0
@303 0
@304 0
@305 0
@306 0
@307 1
@308 0
@309 0
@30a 0
@30b 0
@30c 1
@30d 0
@30e 0
@30f 0
@310 0
@311 0
@312 0
@313 0
@314 0
@315 0
@316 0
@317 0
@318 0
@319 0
@31a 0
@31b 0
@31c 0
@31d 1
@31e 0
@31f 0
@320 1
@321 0
@322 0
@323 0
@324 1
@325 0
@326 1
@327 0
@328 0
@329 0
@32a 0
@32b 0
@32c 0
@32d 1
@32e 0
@32f 0
@330 0
@331 0
@332 0
@333 0
@334 0
@335 0
@336 0
@337 1
@338 0
@339 0
@33a 0
@33b 1
@33c 0
@33d 0
@33e 0
@33f 0
@340 0
@341 0
@342 0
@343 0
@344 0
@345 0
@346 0
@347 0
@348 0
@349 0
@34a 0
@34b 0
@34c 0
@34d 0
@34e 0
@34f 0
@350 0
@351 0
@352 0
@353 0
@354 0
@355 0
@356 0
@357 0
@358 0
@359 0
@35a 0
@35b 0
@35c 1
@35d 0
@35e 0
@35f 1
@360 0
@361 0
@362 0
@363 0
@364 0
@365 0
@366 1
@367 0
@368 0
@369 0
@36a 0
@36b 0
@36c 0
@36d 0
@36e 0
@36f 0
@370 0
@371 0
@372 1
@373 0
@374 0
@375 0
@376 0
@377 0
@378 0
@379 0
@37a 1
@37b 0
@37c 0
@37d 0
@37e 0
@37f 0
@380 0
@381 0
@382 0
@383 1
@384 0
@385 0
@386 0
@387 0
@388 0
@389 0
@38a 0
@38b 0
@38c 0
@38d 0
@38e 0
@38f 0
@390 0
@391 0
@392 0
@393 0
@394 0
@395 1
@396 0
@397 1
@398 0
@399 0
@39a 0
@39b 0
@39c 1
@39d 0
@39e 0
@39f 0
@3a0 1
@3a1 0
@3a2 0
@3a3 0
@3a4 0
@3a5 1
@3a6 0
@3a7 0
@3a8 0
@3a9 0
@3aa 0
@3ab 0
@3ac 0
@3ad 0
@3ae 0
@3af 0
@3b0 0
@3b1 0
@3b2 1
@3b3 0
@3b4 0
@3b5 0
@3b6 0
@3b7 0
@3b8 0
@3b9 0
@3ba 1
@3bb 0
@3bc 0
@3bd 0
@3be 0
@3bf 0
@3c0 0
@3c1 0
@3c2 0
@3c3 0
@3c4 0
@3c5 0
@3c6 0
@3c7 0
@3c8 0
@3c9 0
@3ca 0
@3cb 1
@3cc 1
@3cd 0
@3ce 0
@3cf 0
@3d0 0
@3d1 0
@3d2 0
@3d3 0
@3d4 1
@3d5 0
@3d6 0
@3d7 0
@3d8 0
@3d9 0
@3da 0
@3db 0
@3dc 0
@3dd 0
@3de 0
@3df 0
@3e0 0
@3e1 0
@3e2 0
@3e3 1
@3e4 0
@3e5 1
@3e6 0
@3e7 1
@3e8 0
@3e9 0
@3ea 0
@3eb 0
@3ec 0
@3ed 0
@3ee 1
@3ef 0
@3f0 0
@3f1 0
@3f2 0
@3f3 0
@3f4 0
@3f5 0
@3f6 0
@3f7 0
@3f8 0
@3f9 0
@3fa 0
@3fb 0
@3fc 0
@3fd 0
@3fe 0
@3ff 0
@400 0
@401 0
@402 0
@403 0
@404 0
@405 0
@406 0
@407 0
@408 0
@409 0
@40a 0
@40b 0
@40c 0
@40d 0
@40e 0
@40f 0
@410 0
@411 0
@412 0
@413 0
@414 0
@415 0
@416 0
@417 0
@418 0
@419 0
@41a 0
@41b 1
@41c 0
@41d 1
@41e 0
@41f 1
@420 0
@421 0
@422 0
@423 0
@424 0
@425 1
@426 0
@427 0
@428 0
@429 0
@42a 0
@42b 0
@42c 0
@42d 0
@42e 0
@42f 0
@430 0
@431 1
@432 0
@433 0
@434 1
@435 0
@436 0
@437 0
@438 0
@439 0
@43a 0
@43b 0
@43c 0
@43d 0
@43e 1
@43f 0
@440 0
@441 0
@442 0
@443 0
@444 0
@445 0
@446 0
@447 0
@448 1
@449 0
@44a 0
@44b 0
@44c 0
@44d 0
@44e 0
@44f 0
@450 0
@451 0
@452 0
@453 0
@454 0
@455 0
@456 0
@457 0
@458 0
@459 0
@45a 0
@45b 0
@45c 0
@45d 0
@45e 0
@45f 0
@460 0
@461 0
@462 0
@463 0
@464 0
@465 0
@466 0
@467 0
@468 0
@469 0
@46a 0
@46b 0
@46c 0
@46d 0
@46e 0
@46f 0
@470 0
@471 0
@472 0
@473 0
@474 0
@475 0
@476 0
@477 0
@478 0
@479 0
@47a 0
@47b 1
@47c 0
@47d 0
@47e 0
@47f 0
@480 0
@481 0
@482 0
@483 0
@484 0
@485 0
@486 0
@487 0
@488 0
@489 0
@48a 0
@48b 0
@48c 0
@48d 0
@48e 0
@48f 0
@490 0
@491 0
@492 0
@493 0
@494 0
@495 0
@496 0
@497 0
@498 0
@499 0
@49a 0
@49b 0
@49c 0
@49d 0
@49e 0
@49f 0
@4a0 0
@4a1 0
@4a2 0
@4a3 0
@4a4 0
@4a5 0
@4a6 1
@4a7 0
@4a8 0
@4a9 0
@4aa 1
@4ab 0
@4ac 1
@4ad 0
@4ae 0
@4af 0
@4b0 0
@4b1 1
@4b2 0
@4b3 0
@4b4 0
@4b5 0
@4b6 0
@4b7 0
@4b8 0
@4b9 0
@4ba 0
@4bb 0
@4bc 0
@4bd 0
@4be 0
@4bf 0
@4c0 0
@4c1 0
@4c2 0
@4c3 0
@4c4 0
@4c5 0
@4c6 0
@4c7 0
@4c8 1
@4c9 0
@4ca 1
@4cb 0
@4cc 0
@4cd 0
@4ce 0
@4cf 0
@4d0 0
@4d1 0
@4d2 0
@4d3 0
@4d4 1
@4d5 0
@4d6 0
@4d7 0
@4d8 0
@4d9 0
@4da 0
@4db 0
@4dc 0
@4dd 0
@4de 0
@4df 0
@4e0 0
@4e1 0
@4e2 0
@4e3 0
@4e4 1
@4e5 0
@4e6 1
@4e7 0
@4e8 0
@4e9 0
@4ea 0
@4eb 0
@4ec 1
@4ed 0
@4ee 0
@4ef 0
@4f0 0
@4f1 0
@4f2 0
@4f3 1
@4f4 0
@4f5 0
@4f6 0
@4f7 0
@4f8 0
@4f9 0
@4fa 0
@4fb 1
@4fc 0
@4fd 0
@4fe 1
@4ff 0
@500 0
@501 0
@502 0
@503 0
@504 0
@505 0
@506 0
@507 1
@508 0
@509 0
@50a 0
@50b 0
@50c 0
@50d 0
@50e 0
@50f 0
@510 0
@511 0
@512 0
@513 0
@514 0
@515 0
@516 1
@517 0
@518 0
@519 0
@51a 0
@51b 0
@51c 0
@51d 0
@51e 0
@51f 0
@520 0
@521 0
@522 0
@523 0
@524 0
@525 0
@526 0
@527 0
@528 0
@529 0
@52a 0
@52b 0
@52c 0
@52d 0
@52e 0
@52f 0
@530 0
@531 0
@532 0
@533 1
@534 0
@535 0
@536 0
@537 0
@538 0
@539 0
@53a 0
@53b 1
@53c 0
@53d 0
@53e 0
@53f 0
@540 0
@541 0
@542 0
@543 0
@544 0
@545 0
@546 0
@547 0
@548 0
@549 0
@54a 0
@54b 0
@54c 0
@54d 0
@54e 0
@54f 0
@550 0
@551 0
@552 0
@553 0
@554 0
@555 0
@556 0
@557 0
@558 0
@559 0
@55a 0
@55b 0
@55c 0
@55d 0
@55e 0
@55f 0
@560 0
@561 0
@562 0
@563 0
@564 0
@565 0
@566 0
@567 0
@568 0
@569 0
@56a 0
@56b 0
@56c 0
@56d 0
@56e 0
@56f 0
@570 0
@571 1
@572 0
@573 0
@574 0
@575 0
@576 0
@577 0
@578 0
@579 0
@57a 1
@57b 1
@57c 0
@57d 0
@57e 0
@57f 0
@580 1
@581 0
@582 0
@583 0
@584 0
@585 0
@586 0
@587 0
@588 0
@589 0
@58a 0
@58b 0
@58c 0
@58d 0
@58e 0
@58f 0
@590 0
@591 0
@592 0
@593 0
@594 0
@595 0
@596 0
@597 0
@598 0
@599 0
@59a 0
@59b 1
@59c 0
@59d 0
@59e 0
@59f 0
@5a0 0
@5a1 0
@5a2 1
@5a3 0
@5a4 0
@5a5 0
@5a6 1
@5a7 0
@5a8 1
@5a9 0
@5aa 0
@5ab 0
@5ac 0
@5ad 0
@5ae 0
@5af 0
@5b0 0
@5b1 0
@5b2 0
@5b3 0
@5b4 0
@5b5 0
@5b6 0
@5b7 0
@5b8 0
@5b9 0
@5ba 0
@5bb 0
@5bc 0
@5bd 0
@5be 0
@5bf 0
@5c0 0
@5c1 0
@5c2 0
@5c3 0
@5c4 0
@5c5 0
@5c6 0
@5c7 0
@5c8 0
@5c9 0
@5ca 0
@5cb 0
@5cc 0
@5cd 0
@5ce 0
@5cf 0
@5d0 1
@5d1 0
@5d2 0
@5d3 0
@5d4 1
@5d5 0
@5d6 0
@5d7 0
@5d8 0
@5d9 0
@5da 0
@5db 0
@5dc 0
@5dd 0
@5de 1
@5df 0
@5e0 0
@5e1 0
@5e2 1
@5e3 0
@5e4 0
@5e5 0
@5e6 0
@5e7 0
@5e8 0
@5e9 0
@5ea 0
@5eb 0
@5ec 0
@5ed 0
@5ee 0
@5ef 1
@5f0 0
@5f1 1
@5f2 0
@5f3 0
@5f4 0
@5f5 0
@5f6 0
@5f7 1
@5f8 0
@5f9 0
@5fa 0
@5fb 1
@5fc 0
@5fd 0
@5fe 0
@5ff 0
@600 0
@601 0
@602 0
@603 0
@604 0
@605 0
@606 0
@607 0
@608 0
@609 0
@60a 0
@60b 0
@60c 0
@60d 0
@60e 0
@60f 1
@610 0
@611 0
@612 0
@613 0
@614 0
@615 1
@616 0
@617 0
@618 0
@619 0
@61a 0
@61b 0
@61c 0
@61d 0
@61e 0
@61f 0
@620 0
@621 0
@622 0
@623 0
@624 1
@625 0
@626 0
@627 0
@628 0
@629 0
@62a 0
@62b 1
@62c 0
@62d 0
@62e 0
@62f 0
@630 0
@631 0
@632 1
@633 0
@634 0
@635 0
@636 0
@637 1
@638 0
@639 0
@63a 0
@63b 1
@63c 0
@63d 0
@63e 0
@63f 0
@640 0
@641 0
@642 1
@643 0
@644 0
@645 1
@646 1
@647 0
@648 1
@649 0
@64a 0
@64b 0
@64c 0
@64d 0
@64e 0
@64f 0
@650 0
@651 0
@652 0
@653 0
@654 0
@655 0
@656 0
@657 0
@658 0
@659 0
@65a 0
@65b 0
@65c 0
@65d 1
@65e 0
@65f 0
@660 0
@661 0
@662 0
@663 0
@664 0
@665 0
@666 0
@667 0
@668 0
@669 0
@66a 0
@66b 0
@66c 1
@66d 0
@66e 0
@66f 0
@670 0
@671 0
@672 0
@673 0
@674 0
@675 0
@676 0
@677 1
@678 1
@679 0
@67a 1
@67b 0
@67c 0
@67d 0
@67e 0
@67f 0
@680 0
@681 0
@682 1
@683 0
@684 0
@685 0
@686 0
@687 0
@688 0
@689 0
@68a 0
@68b 0
@68c 0
@68d 0
@68e 0
@68f 0
@690 0
@691 0
@692 0
@693 0
@694 0
@695 0
@696 0
@697 0
@698 0
@699 0
@69a 0
@69b 0
@69c 0
@69d 0
@69e 0
@69f 0
@6a0 0
@6a1 0
@6a2 0
@6a3 0
@6a4 0
@6a5 0
@6a6 1
@6a7 0
@6a8 0
@6a9 0
@6aa 0
@6ab 1
@6ac 0
@6ad 0
@6ae 1
@6af 0
@6b0 0
@6b1 1
@6b2 0
@6b3 0
@6b4 0
@6b5 0
@6b6 0
@6b7 0
@6b8 0
@6b9 1
@6ba 0
@6bb 0
@6bc 0
@6bd 0
@6be 0
@6bf 1
@6c0 1
@6c1 0
@6c2 0
@6c3 0
@6c4 0
@6c5 0
@6c6 0
@6c7 0
@6c8 1
@6c9 1
@6ca 0
@6cb 1
@6cc 0
@6cd 0
@6ce 0
@6cf 0
@6d0 0
@6d1 0
@6d2 0
@6d3 0
@6d4 0
@6d5 0
@6d6 0
@6d7 1
@6d8 0
@6d9 0
@6da 0
@6db 0
@6dc 0
@6dd 0
@6de 0
@6df 0
@6e0 0
@6e1 0
@6e2 0
@6e3 0
@6e4 0
@6e5 0
@6e6 0
@6e7 0
@6e8 0
@6e9 0
@6ea 0
@6eb 0
@6ec 0
@6ed 1
@6ee 0
@6ef 0
@6f0 0
@6f1 0
@6f2 0
@6f3 0
@6f4 0
@6f5 0
@6f6 0
@6f7 0
@6f8 0
@6f9 0
@6fa 0
@6fb 0
@6fc 0
@6fd 0
@6fe 0
@6ff 0
@700 0
@701 0
@702 0
@703 0
@704 0
@705 0
@706 0
@707 0
@708 0
@709 0
@70a 0
@70b 0
@70c 0
@70d 0
@70e 0
@70f 0
@710 0
@711 0
@712 0
@713 0
@714 0
@715 0
@716 0
@717 1
@718 0
@719 0
@71a 0
@71b 0
@71c 0
@71d 0
@71e 0
@71f 0
@720 0
@721 0
@722 0
@723 0
@724 0
@725 0
@726 0
@727 0
@728 0
@729 0
@72a 0
@72b 0
@72c 0
@72d 0
@72e 0
@72f 0
@730 0
@731 0
@732 0
@733 0
@734 0
@735 0
@736 0
@737 0
@738 0
@739 1
@73a 0
@73b 0
@73c 0
@73d 0
@73e 0
@73f 0
@740 0
@741 0
@742 0
@743 0
@744 0
@745 0
@746 0
@747 0
@748 0
@749 0
@74a 0
@74b 1
@74c 1
@74d 0
@74e 0
@74f 0
@750 0
@751 0
@752 0
@753 0
@754 0
@755 0
@756 0
@757 0
@758 0
@759 0
@75a 0
@75b 0
@75c 0
@75d 0
@75e 1
@75f 1
@760 0
@761 0
@762 0
@763 0
@764 0
@765 0
@766 0
@767 0
@768 0
@769 0
@76a 0
@76b 0
@76c 1
@76d 0
@76e 0
@76f 0
@770 0
@771 0
@772 0
@773 0
@774 0
@775 0
@776 1
@777 0
@778 0
@779 0
@77a 0
@77b 0
@77c 0
@77d 0
@77e 0
@77f 0
@780 1
@781 0
@782 1
@783 0
@784 0
@785 0
@786 0
@787 0
@788 0
@789 0
@78a 1
@78b 0
@78c 0
@78d 0
@78e 0
@78f 0
@790 0
@791 1
@792 0
@793 0
@794 0
@795 1
@796 0
@797 1
@798 0
@799 0
@79a 0
@79b 0
@79c 0
@79d 0
@79e 0
@79f 1
@7a0 0
@7a1 1
@7a2 0
@7a3 0
@7a4 0
@7a5 0
@7a6 0
@7a7 0
@7a8 0
@7a9 0
@7aa 0
@7ab 0
@7ac 0
@7ad 0
@7ae 0
@7af 0
@7b0 0
@7b1 0
@7b2 0
@7b3 0
@7b4 0
@7b5 0
@7b6 0
@7b7 0
@7b8 0
@7b9 1
@7ba 0
@7bb 0
@7bc 0
@7bd 1
@7be 0
@7bf 0
@7c0 1
@7c1 0
@7c2 1
@7c3 0
@7c4 0
@7c5 0
@7c6 0
@7c7 0
@7c8 0
@7c9 0
@7ca 1
@7cb 0
@7cc 0
@7cd 0
@7ce 0
@7cf 0
@7d0 0
@7d1 0
@7d2 0
@7d3 1
@7d4 0
@7d5 1
@7d6 0
@7d7 1
@7d8 1
@7d9 0
@7da 0
@7db 0
@7dc 0
@7dd 1
@7de 0
@7df 0
@7e0 0
@7e1 0
@7e2 0
@7e3 0
@7e4 0
@7e5 0
@7e6 0
@7e7 0
@7e8 0
@7e9 0
@7ea 0
@7eb 0
@7ec 1
@7ed 0
@7ee 0
@7ef 0
@7f0 0
@7f1 0
@7f2 0
@7f3 0
@7f4 0
@7f5 0
@7f6 0
@7f7 0
@7f8 0
@7f9 0
@7fa 0
@7fb 0
@7fc 0
@7fd 1
@7fe 0
@7ff 1
