@0 fe01
@1 fe05
@2 fe09
@3 fe0d
@4 fe11
@5 fe15
@6 fffd
@7 fffd
@8 fffd
@9 fffd
@a fffd
@b fffd
@c fffd
@d fffd
@e dff
@f fff
@10 11ff
@11 13ff
@12 fffd
@13 fffd
@14 fffd
@15 fffd
@16 fffd
@17 fffd
@18 fffd
@19 fffd
@1a fffd
@1b fffd
@1c fffd
@1d fffd
@1e fffd
@1f fffd
@20 fffd
@21 fffd
@22 fffd
@23 fffd
@24 fffd
@25 fffd
@26 fffd
@27 fffd
@28 fffd
@29 fffd
@2a fffd
@2b fffd
@2c fffd
@2d fffd
@2e fffd
@2f fffd
@30 fffd
@31 fffd
@32 fffd
@33 fffd
@34 fffd
@35 fffd
@36 fffd
@37 fffd
@38 fffd
@39 fffd
@3a fffd
@3b fffd
@3c fffd
@3d fffd
@3e fffd
@3f fffd
@40 fffd
@41 fffd
@42 fffd
@43 fe29
@44 1631
@45 1a39
@46 fe3d
@47 2045
@48 244d
@49 2855
@4a fffd
@4b fffd
@4c fffd
@4d fffd
@4e fffd
@4f fffd
@50 fffd
@51 fffd
@52 fffd
@53 fffd
@54 fffd
@55 fffd
@56 fffd
@57 fffd
@58 fffd
@59 fffd
@5a fffd
@5b fffd
@5c fffd
@5d fffd
@5e fffd
@5f fffd
@60 fffd
@61 fffd
@62 fffd
@63 fffd
@64 fffd
@65 fffd
@66 fffd
@67 fffd
@68 fffd
@69 fffd
@6a fffd
@6b fffd
@6c fffd
@6d fffd
@6e fffd
@6f fffd
@70 fffd
@71 fffd
@72 fffd
@73 fffd
@74 2c5d
@75 31fd
@76 fe65
@77 fe69
@78 fffd
@79 fffd
@7a fffd
@7b fffd
@7c fffd
@7d fffd
@7e fffd
@7f fffd
@80 fffd
@81 fffd
@82 fffd
@83 fffd
@84 fffd
@85 fffd
@86 fffd
@87 fffd
@88 fffd
@89 fffd
@8a fffd
@8b fffd
@8c fffd
@8d fffd
@8e fffd
@8f fffd
@90 3671
@91 3a79
@92 3e81
@93 fe85
@94 448d
@95 fe91
@96 4bfd
@97 fffd
@98 fffd
@99 fffd
@9a fffd
@9b fffd
@9c fffd
@9d fffd
@9e fffd
@9f fffd
@a0 fffd
@a1 fffd
@a2 fffd
@a3 fffd
@a4 fffd
@a5 fffd
@a6 fffd
@a7 fffd
@a8 fffd
@a9 fffd
@aa fffd
@ab fffd
@ac fffd
@ad fffd
@ae fffd
@af fffd
@b0 fffd
@b1 fffd
@b2 fffd
@b3 fe99
@b4 fffd
@b5 fffd
@b6 fffd
@b7 fffd
@b8 fffd
@b9 fffd
@ba fffd
@bb fffd
@bc fffd
@bd fffd
@be fffd
@bf fffd
@c0 fffd
@c1 fffd
@c2 fffd
@c3 fffd
@c4 fffd
@c5 fffd
@c6 fffd
@c7 fffd
@c8 fffd
@c9 fffd
@ca fffd
@cb fffd
@cc fffd
@cd fffd
@ce fffd
@cf fffd
@d0 fffd
@d1 fffd
@d2 fffd
@d3 fffd
@d4 fffd
@d5 fffd
@d6 fffd
@d7 fffd
@d8 fffd
@d9 fffd
@da fffd
@db fffd
@dc fffd
@dd fffd
@de fffd
@df fffd
@e0 fffd
@e1 fffd
@e2 fffd
@e3 fffd
@e4 fffd
@e5 fffd
@e6 fffd
@e7 fffd
@e8 fffd
@e9 fffd
@ea fffd
@eb fffd
@ec fffd
@ed fffd
@ee fffd
@ef fffd
@f0 fffd
@f1 fffd
@f2 fffd
@f3 fffd
@f4 fffd
@f5 fffd
@f6 fffd
@f7 fffd
@f8 fffd
@f9 fffd
@fa fffd
@fb fffd
@fc fffd
@fd fffd
@fe fffd
@ff fffd
@100 4ffd
@101 51fd
@102 52a9
