@0 5
@1 1000d
@2 20015
@3 3001d
@4 47ffd
@5 48029
@6 58031
@7 68039
@8 78041
@9 88049
@a 98051
@b a8059
@c b8061
@d c8069
@e d8071
@f e8079
@10 f8081
@11 108089
@12 118091
@13 128099
@14 1380a1
@15 1480a9
@16 1580b1
@17 1680b9
@18 1780c1
@19 1880c9
@1a 1980d1
@1b 1a80d9
@1c 1b80e1
@1d 1c80e9
@1e 1d80f1
@1f 1e80f9
@20 1f8101
@21 20fffd
@22 21010d
@23 220115
@24 23011d
@25 240125
@26 25012d
@27 260135
@28 27013d
@29 280145
@2a fff8149
@2b 298151
@2c 2a8159
@2d 2b8161
@2e 2c8169
@2f 2d8171
@30 2e8179
@31 fff817d
@32 300185
@33 31018d
@34 320195
@35 33019d
@36 347ffd
@37 34fffd
@38 357ffd
@39 3581b1
@3a 3681b9
@3b 3781c1
@3c 3881c9
@3d 3981d1
@3e 3a81d9
@3f 3b81e1
@40 3c81e9
@41 3d81f1
@42 3e81f9
@43 3f8201
@44 408209
@45 418211
@46 428219
@47 438221
@48 448229
@49 45fffd
@4a 460235
@4b 47023d
@4c fff8241
@4d fff8245
@4e 49024d
@4f 4a0255
@50 4b025d
@51 4c0265
@52 4d026d
@53 4e0275
@54 4f027d
@55 507ffd
@56 508289
@57 fff828d
@58 520295
@59 537ffd
@5a fff829d
@5b 5402a5
@5c fff82a9
@5d 5582b1
@5e 5682b9
@5f 5782c1
@60 5882c9
@61 5982d1
@62 5a82d9
@63 5b82e1
@64 5c82e9
@65 5d82f1
@66 5e82f9
@67 5f8301
@68 608309
@69 618311
@6a 628319
@6b 638321
@6c 648329
@6d 658331
@6e 668339
@6f 678341
@70 fff8345
@71 69034d
@72 6a7ffd
@73 6a8359
@74 6b8361
@75 6cfffd
@76 6d036d
@77 6e0375
@78 6f037d
@79 700385
@7a 71038d
@7b 720395
@7c 73039d
@7d 7403a5
@7e 7503ad
@7f fff83b1
@80 76fffd
@81 777ffd
@82 7783c1
@83 7883c9
@84 fff83cd
@85 7a7ffd
@86 ffffffd
@87 7afffd
@88 fff83d9
@89 fff83dd
@8a 7c03e5
@8b 7d03ed
@8c fff83f1
@8d fff83f5
@8e 7f03fd
@8f 800405
@90 fff8409
@91 818411
@92 828419
@93 838421
@94 848429
@95 858431
@96 868439
@97 87fffd
@98 887ffd
@99 fff8445
@9a 89044d
@9b 8a0455
@9c fff8459
@9d 8b8461
@9e 8c8469
@9f 8d8471
@a0 8efffd
@a1 fff8479
@a2 8f8481
@a3 908489
@a4 918491
@a5 fff8495
@a6 93049d
@a7 fff84a1
@a8 9484a9
@a9 9584b1
@aa 96fffd
@ab ffffffd
@ac 9704bd
@ad 9804c5
@ae 997fff
@af 9984d1
@b0 9afffd
@b1 9b04dd
@b2 9c7ffd
@b3 fff84e5
@b4 9d04ed
@b5 9e04f5
@b6 9f04fd
@b7 a00505
@b8 a1050d
@b9 a20515
@ba a3051d
@bb a40525
@bc a5052d
@bd a60535
@be a7053d
@bf a80545
@c0 a9054d
@c1 aa0555
@c2 ab055d
@c3 ac0565
@c4 ad056d
@c5 ae0575
@c6 af057d
@c7 b07ffd
@c8 b08589
@c9 b18591
@ca b28599
@cb b385a1
@cc fff85a5
@cd b505ad
@ce b605b5
@cf b705bd
@d0 b805c5
@d1 b905cd
@d2 ba05d5
@d3 bb05dd
@d4 bc05e5
@d5 bd05ed
@d6 be05f5
@d7 bf05fd
@d8 c00605
@d9 c1060d
@da c20615
@db c3061d
@dc c40625
@dd c5062d
@de c60635
@df c77ffd
@e0 c78641
@e1 c88649
@e2 c98651
@e3 ca8659
@e4 cbfffd
@e5 fff8661
@e6 ccfffd
@e7 fff8669
@e8 cd8671
@e9 ce8679
@ea cf8681
@eb d08689
@ec d18691
@ed fff8695
@ee d3069d
@ef d406a5
@f0 d506ad
@f1 d606b5
@f2 d706bd
@f3 d806c5
@f4 d906cd
@f5 da06d5
@f6 db06dd
@f7 dc06e5
@f8 fff86e9
@f9 fff86ed
@fa fff86f1
@fb de86f9
@fc df8701
@fd e08709
@fe e18711
@ff fff8715
@100 e3071d
@101 fff8721
@102 ffffffd
@103 e48729
@104 e58731
@105 e68739
@106 e7fffd
@107 e87ffd
@108 e88749
@109 e98751
@10a eafffd
@10b eb075d
@10c ec0765
@10d ed076d
@10e fff8771
@10f ee8779
@110 effffd
@111 f07ffd
@112 fff8785
@113 f1078d
@114 f20795
@115 f3079d
@116 f407a5
@117 f507ad
@118 f607b5
@119 f707bd
@11a f807c5
@11b f907cd
@11c fa07d5
@11d fb07dd
@11e fc07e5
@11f fd07ed
@120 fe07f5
@121 ff07fd
@122 1000805
@123 101080d
@124 1020815
@125 fff8819
@126 1038821
@127 104fffd
@128 fff8829
@129 105fffd
@12a 1060835
@12b fff8839
@12c 107fffd
@12d 1080845
@12e 1097ffd
@12f 1098851
@130 10a8859
@131 10b8861
@132 10c8869
@133 10d8871
@134 10effff
@135 10f087d
@136 1100885
@137 111088d
@138 1120895
@139 113089d
@13a 11408a5
@13b fff88a9
@13c 11588b1
@13d 11688b9
@13e 11788c1
@13f 11888c9
@140 11988d1
@141 11a88d9
@142 11b88e1
@143 11c88e9
@144 fff88ed
@145 11e08f5
@146 fff88f9
@147 11f8901
@148 1208909
@149 1218911
@14a 1228919
@14b 1238921
@14c 1248929
@14d 1258931
@14e 1268939
@14f 1278941
@150 1288949
@151 129fffd
@152 fff8951
@153 fff8955
@154 12b095d
@155 12c7ffd
@156 12c8969
@157 12d8971
@158 12e8979
@159 12f8981
@15a 1308989
@15b 1318991
@15c 1328999
@15d 13389a1
@15e 13489a9
@15f 13589b1
@160 13689b9
@161 13789c1
@162 13889c9
@163 13989d1
@164 13a89d9
@165 13b89e1
@166 13c89e9
@167 13d89f1
@168 13e89f9
@169 13f8a01
@16a 1408a09
@16b 1418a11
@16c 1428a19
@16d 143fffd
@16e 1440a25
@16f 1450a2d
@170 1460a35
@171 fff8a39
@172 1478a41
@173 1488a49
@174 1498a51
@175 fff8a55
@176 14b0a5d
@177 14c0a65
@178 14d0a6d
@179 14e0a75
@17a 14f0a7d
@17b 1500a85
@17c 1510a8d
@17d 1520a95
@17e 1530a9d
@17f 1540aa5
@180 1550aad
@181 fff8ab1
@182 1568ab9
@183 1578ac1
@184 1588ac9
@185 1598ad1
@186 15afffd
@187 15b0add
@188 fff8ae1
@189 15c8ae9
@18a 15d8af1
@18b fff8af5
@18c 15f0afd
@18d fff8b01
@18e 160fffd
@18f 1610b0d
@190 1620b15
@191 1630b1d
@192 fff8b21
@193 1648b29
@194 fff8b2d
@195 1660b35
@196 1670b3d
@197 1680b45
@198 1690b4d
@199 16a0b55
@19a 16b0b5d
@19b 16c0b65
@19c 16d0b6d
@19d 16e0b75
@19e 16f0b7d
@19f fff8b81
@1a0 fff8b85
@1a1 1710b8d
@1a2 1720b95
@1a3 1730b9d
@1a4 1747ffd
@1a5 1748ba9
@1a6 1758bb1
@1a7 1768bb9
@1a8 177fffd
@1a9 1780bc5
@1aa 1790bcd
@1ab 17a0bd5
@1ac 17b0bdd
@1ad 17c7ffd
@1ae 17cfffd
@1af fff8be9
@1b0 17d8bf1
@1b1 17e8bf9
@1b2 17f8c01
@1b3 1808c09
@1b4 181fffd
@1b5 1827ffd
@1b6 1828c19
@1b7 1838c21
@1b8 1848c29
@1b9 1858c31
@1ba 1868c39
@1bb 1878c41
@1bc 1888c49
@1bd 1898c51
@1be 18a8c59
@1bf 18b8c61
@1c0 18cfffd
@1c1 fff8c69
@1c2 18d8c71
@1c3 18e8c79
@1c4 fff8c7d
@1c5 1900c85
@1c6 fff8c89
@1c7 1918c91
@1c8 1928c99
@1c9 1938ca1
@1ca 1948ca9
@1cb 1958cb1
@1cc 1968cb9
@1cd 1978cc1
@1ce 198fffd
@1cf 1990ccd
@1d0 19a0cd5
@1d1 19b7ffd
@1d2 19b8ce1
@1d3 fff8ce5
@1d4 19d0ced
@1d5 19e0cf5
@1d6 19f0cfd
@1d7 1a00d05
@1d8 1a10d0d
@1d9 1a20d15
@1da 1a30d1d
@1db 1a40d25
@1dc 1a50d2d
@1dd fff8d31
@1de 1a68d39
@1df 1a78d41
@1e0 fff8d45
@1e1 1a90d4d
@1e2 1aa0d55
@1e3 1ab0d5d
@1e4 1ac0d65
@1e5 1ad0d6d
@1e6 1ae0d75
@1e7 1af0d7d
@1e8 1b00d85
@1e9 1b10d8d
@1ea 1b20d95
@1eb 1b30d9d
@1ec 1b40da5
@1ed 1b50dad
@1ee 1b60db5
@1ef 1b70dbd
@1f0 1b80dc5
@1f1 1b90dcd
@1f2 1ba7ffd
@1f3 1ba8dd9
@1f4 fff8ddd
@1f5 1bc0de5
@1f6 1bd0ded
@1f7 fff8df1
@1f8 1be8df9
@1f9 1bf8e01
@1fa 1c08e09
@1fb 1c18e11
@1fc 1c28e19
@1fd 1c38e21
@1fe 1c48e29
@1ff 1c5fffd
@200 1c67ffd
@201 1c68e39
@202 fff8e3d
@203 1c80e45
@204 1c90e4d
@205 1ca0e55
@206 1cb0e5d
@207 1cc0e65
@208 1cd0e6d
@209 1ce0e75
@20a 1cf7ffd
@20b 1cf8e81
@20c 1d08e89
@20d 1d18e91
@20e 1d28e99
@20f 1d38ea1
@210 1d48ea9
@211 1d58eb1
@212 1d68eb9
@213 1d78ec1
@214 1d88ec9
@215 1d98ed1
@216 1da8ed9
@217 1db8ee1
@218 1dc8ee9
@219 fff8eed
@21a 1de0ef5
@21b 1df0efd
@21c 1e00f05
@21d 1e10f0d
@21e 1e27ffd
@21f 1e28f19
@220 1e38f21
@221 1e48f29
@222 1e58f31
@223 1e68f39
@224 1e78f41
@225 1e88f49
@226 fff8f4d
@227 1ea0f55
@228 1eb0f5d
@229 1ec0f65
@22a 1ed0f6d
@22b fff8f71
@22c 1ee8f79
@22d 1ef8f81
@22e 1f08f89
@22f 1f18f91
@230 1f28f99
@231 1f38fa1
@232 1f48fa9
@233 fff8fad
@234 1f60fb5
@235 1f70fbd
@236 1f80fc5
@237 1f90fcd
@238 1fa0fd5
@239 1fb0fdd
@23a 1fc0fe5
@23b 1fd0fed
@23c 1fe0ff5
@23d 1ff0ffd
@23e fff9001
@23f 2009009
@240 2019011
@241 2029019
@242 2039021
@243 2049029
@244 205fffd
@245 2061035
@246 207103d
@247 2081045
@248 209104d
@249 20a1055
@24a fff9059
@24b 20b9061
@24c 20c9069
@24d 20d9071
@24e 20e9079
@24f fff907d
@250 2101085
@251 211108d
@252 2121095
@253 fff9099
@254 21390a1
@255 21490a9
@256 21590b1
@257 21690b9
@258 21790c1
@259 21890c9
@25a 21990d1
@25b 21a90d9
@25c 21b90e1
@25d 21c90e9
@25e 21d90f1
@25f 21e90f9
@260 21f9101
@261 2209109
@262 2219111
@263 2229119
@264 2239121
@265 2249129
@266 2259131
@267 2269139
@268 2279141
@269 2289149
@26a 2299151
@26b 22a9159
@26c 22b9161
@26d 22c9169
@26e fff916d
@26f 22e7ffd
@270 22efffd
@271 22f117d
@272 2307ffd
@273 fff9185
@274 2317ffd
@275 2319191
@276 2329199
@277 23391a1
@278 23491a9
@279 23591b1
@27a 236fffd
@27b 23711bd
@27c 23811c5
@27d 2397ffd
@27e fff91cd
@27f 23a11d5
@280 23b7ffd
@281 23b91e1
@282 23c91e9
@283 23dfffd
@284 fff91f1
@285 23e91f9
@286 23f9201
@287 2409209
@288 2419211
@289 2429219
@28a 2439221
@28b 2449229
@28c 2459231
@28d 2469239
@28e 2479241
@28f 248fffd
@290 2497ffd
@291 fff924d
@292 24a1255
@293 24b125d
@294 24c1265
@295 24d126d
@296 24e7ffd
@297 24e9279
@298 24f9281
@299 fff9285
@29a 251128d
@29b 2527ffd
@29c 2529299
@29d 25392a1
@29e 254fffd
@29f 2557ffd
@2a0 25592b1
@2a1 25692b9
@2a2 25792c1
@2a3 25892c9
@2a4 25992d1
@2a5 fff92d5
@2a6 fff92d9
@2a7 fff92dd
@2a8 fff92e1
@2a9 25c92e9
@2aa 25d92f1
@2ab fff92f5
@2ac 25f12fd
@2ad 2601305
@2ae 2617ffd
@2af 2619311
@2b0 2629319
@2b1 2639321
@2b2 264ffff
@2b3 265132d
@2b4 2661335
@2b5 267133d
@2b6 2681345
@2b7 269134d
@2b8 26a1355
@2b9 26b135d
@2ba 26c1365
@2bb 26d136d
@2bc 26e1375
@2bd 26f137d
@2be 2701385
@2bf 271138d
@2c0 2721395
@2c1 273139d
@2c2 27413a5
@2c3 27513ad
@2c4 27613b5
@2c5 27713bd
@2c6 27813c5
@2c7 27913cd
@2c8 27a13d5
@2c9 27b13dd
@2ca 27c13e5
@2cb 27d13ed
@2cc 27e13f5
@2cd 27f13fd
@2ce 2801405
@2cf 281140d
@2d0 2821415
@2d1 283141d
@2d2 2841425
@2d3 fff9429
@2d4 fff942d
@2d5 2861435
@2d6 287143d
@2d7 2881445
@2d8 fff9449
@2d9 fff944d
@2da 28a1455
@2db 28b145d
@2dc fff9461
@2dd 28cfffd
@2de 28d7ffd
@2df 28d9471
@2e0 28e9479
@2e1 28f9481
@2e2 2909489
@2e3 fff948d
@2e4 2921495
@2e5 293149d
@2e6 fff94a1
@2e7 29494a9
@2e8 29594b1
@2e9 fff94b5
@2ea 2977ffd
@2eb 297fffd
@2ec 2987ffd
@2ed 29894c9
@2ee 29994d1
@2ef 29a94d9
@2f0 29b94e1
@2f1 29c94e9
@2f2 29d94f1
@2f3 29e94f9
@2f4 29f9501
@2f5 2a09509
@2f6 2a1fffd
@2f7 2a21515
@2f8 2a3151d
@2f9 fff9521
@2fa 2a49529
@2fb fff952d
@2fc 2a61535
@2fd 2a7153d
@2fe 2a87ffd
@2ff 2a89549
@300 2a99551
@301 2aa9559
@302 2ab9561
@303 2ac9569
@304 2ad9571
@305 2ae9579
@306 2af9581
@307 2b0fffd
@308 2b1158d
@309 2b21595
@30a 2b3159d
@30b 2b415a5
@30c 2b515ad
@30d 2b615b5
@30e 2b715bd
@30f fff95c1
@310 2b895c9
@311 2b995d1
@312 2ba95d9
@313 2bb95e1
@314 2bc95e9
@315 2bdfffd
@316 2be7ffd
@317 2befffd
@318 2bf7ffd
@319 2bf9601
@31a 2c09609
@31b 2c19611
@31c 2c29619
@31d 2c39621
@31e 2c49629
@31f 2c59631
@320 2c69639
@321 2c79641
@322 2c89649
@323 2c99651
@324 fff9655
@325 fff9659
@326 2cb9661
@327 2cc9669
@328 2cd9671
@329 2ce9679
@32a 2cf9681
@32b 2d09689
@32c 2d19691
@32d 2d29699
@32e 2d396a1
@32f 2d496a9
@330 2d596b1
@331 2d696b9
@332 2d796c1
@333 2d896c9
@334 2d9fffd
@335 2da16d5
@336 2db16dd
@337 fff96e1
@338 2dc96e9
@339 2dd96f1
@33a 2de96f9
@33b 2df9701
@33c 2e09709
@33d 2e19711
@33e 2e29719
@33f 2e39721
@340 2e49729
@341 2e59731
@342 2e69739
@343 2e79741
@344 2e89749
@345 2e99751
@346 2ea9759
@347 2eb9761
@348 2ec9769
@349 2ed9771
@34a 2ee9779
@34b 2ef9781
@34c 2f09789
@34d fff978d
@34e 2f21795
@34f 2f3179d
@350 fff97a1
@351 2f497a9
@352 2f5fffd
@353 2f617b5
@354 fff97b9
@355 2f7fffd
@356 2f87ffd
@357 2f897c9
@358 2f997d1
@359 2fa97d9
@35a 2fb97e1
@35b 2fc97e9
@35c 2fd97f1
@35d 2fe97f9
@35e fff97fd
@35f 3001805
@360 301180d
@361 3021815
@362 303181d
@363 3041825
@364 fff9829
@365 3059831
@366 306fffd
@367 fff9839
@368 3079841
@369 3089849
@36a 3099851
@36b 30a9859
@36c 30b9861
@36d 30c9869
@36e 30d9871
@36f 30e9879
@370 30f9881
@371 3109889
@372 3119891
@373 fff9895
@374 3137ffd
@375 31398a1
@376 fff98a5
@377 fff98a9
@378 31598b1
@379 31698b9
@37a fff98bd
@37b fff98c1
@37c 31898c9
@37d 319fffd
@37e 31a7ffd
@37f 31afffd
@380 31b7ffd
@381 fff98dd
@382 31c7ffd
@383 31cfffd
@384 fff98e9
@385 31d98f1
@386 31e98f9
@387 31f9901
@388 3209909
@389 3219911
@38a 3229919
@38b 3239921
@38c 3249929
@38d 3259931
@38e 3269939
@38f 3279941
@390 328fffd
@391 329194d
@392 32a1955
@393 32b195d
@394 32c1965
@395 32d196d
@396 32e1975
@397 32f197d
@398 3301985
@399 331198d
@39a 3321995
@39b 333199d
@39c 33419a5
@39d 3357ffd
@39e 33599b1
@39f 33699b9
@3a0 33799c1
@3a1 33899c9
@3a2 33999d1
@3a3 33a99d9
@3a4 33b99e1
@3a5 33c99e9
@3a6 33d99f1
@3a7 33e99f9
@3a8 33ffffd
@3a9 3401a05
@3aa 3411a0d
@3ab 3421a15
@3ac 3431a1d
@3ad 3441a25
@3ae 3451a2d
@3af 3461a35
@3b0 3471a3d
@3b1 fff9a41
@3b2 348fffd
@3b3 fff9a49
@3b4 3499a51
@3b5 34afffd
@3b6 fff9a59
@3b7 34b9a61
@3b8 34cfffd
@3b9 34d1a6d
@3ba 34e1a75
@3bb 34f1a7d
@3bc 3501a85
@3bd 3511a8d
@3be 3521a95
@3bf 3531a9d
@3c0 fff9aa1
@3c1 3549aa9
@3c2 355fffd
@3c3 fff9ab1
@3c4 fff9ab5
@3c5 3571abd
@3c6 3581ac5
@3c7 3591acd
@3c8 fff9ad1
@3c9 35a9ad9
@3ca 35b9ae1
@3cb 35c9ae9
@3cc 35d9af1
@3cd 35e9af9
@3ce 35f9b01
@3cf 360fffd
@3d0 3611b0d
@3d1 3621b15
@3d2 3631b1d
@3d3 3647ffd
@3d4 364fffd
@3d5 3651b2d
@3d6 fff9b31
@3d7 3669b39
@3d8 3679b41
@3d9 368fffd
@3da 3691b4d
@3db 36a1b55
@3dc 36b1b5d
@3dd 36c1b65
@3de 36d7ffd
@3df 36d9b71
@3e0 36e9b79
@3e1 36f9b81
@3e2 3709b89
@3e3 3719b91
@3e4 3729b99
@3e5 3739ba1
@3e6 3749ba9
@3e7 375fffd
@3e8 fff9bb1
@3e9 3769bb9
@3ea 3779bc1
@3eb 3789bc9
@3ec fff9bcd
@3ed 37a1bd5
@3ee 37b7ffd
@3ef fff9bdd
@3f0 37c1be5
@3f1 37d7ffd
@3f2 37dffff
@3f3 37e1bf5
@3f4 37f7ffd
@3f5 37f9c01
@3f6 380fffd
@3f7 3811c0d
@3f8 3821c15
@3f9 3831c1d
@3fa 3841c25
@3fb 3857ffd
@3fc 3859c31
@3fd 386fffd
@3fe 3871c3d
@3ff fff9c41
@400 fff9c45
@401 fff9c49
@402 389fffd
@403 38a1c55
@404 38b1c5d
@405 38c1c65
@406 38d7ffd
@407 38d9c71
@408 fff9c75
@409 38f7ffd
@40a fff9c7d
@40b fff9c81
@40c 3909c89
@40d fff9c8d
@40e 3921c95
@40f 3931c9d
@410 3941ca5
@411 3951cad
@412 3961cb5
@413 3971cbd
@414 3981cc5
@415 3991ccd
@416 39a1cd5
@417 fff9cd9
@418 39b9ce1
@419 39cfffd
@41a 39d1ced
@41b 39e1cf5
@41c fff9cf9
@41d fff9cfd
@41e fff9d01
@41f 3a09d09
@420 3a19d11
@421 3a2fffd
@422 fff9d19
@423 3a39d21
@424 3a4fffd
@425 fff9d29
@426 3a59d31
@427 fff9d35
@428 fff9d39
@429 3a79d41
@42a fff9d45
@42b 3a91d4d
@42c fff9d51
@42d 3aa9d59
@42e 3ab9d61
@42f 3acfffd
@430 fff9d69
@431 3ad9d71
@432 3ae9d79
@433 3affffd
@434 3b01d85
@435 3b11d8d
@436 3b21d95
@437 3b31d9d
@438 3b41da5
@439 fff9da9
@43a 3b5fffd
@43b 3b61db5
@43c 3b71dbd
@43d 3b87ffd
@43e 3b89dc9
@43f 3b99dd1
@440 3ba9dd9
@441 3bb9de1
@442 3bc9de9
@443 3bd9df1
@444 fff9df5
@445 3bf1dfd
@446 3c01e05
@447 3c11e0d
@448 3c27fff
@449 fff9e15
@44a 3c31e1d
@44b 3c41e25
@44c 3c51e2d
@44d 3c67ffd
@44e 3c6fffd
@44f 3c71e3d
@450 3c81e45
@451 3c91e4d
@452 3ca1e55
@453 fff9e59
@454 fff9e5d
@455 3cc1e65
@456 3cd1e6d
@457 3ce1e75
@458 3cf1e7d
@459 fff9e81
@45a 3d09e89
@45b 3d19e91
@45c 3d2fffd
@45d fff9e99
@45e 3d3fffd
@45f 3d47ffd
@460 3d4fffd
@461 3d51ead
@462 3d61eb5
@463 3d77ffd
@464 3d79ec1
@465 3d89ec9
@466 fff9ecd
@467 fff9ed1
@468 3dafffd
@469 3db1edd
@46a 3dc7ffd
@46b 3dc9ee9
@46c 3ddfffd
@46d 3de1ef5
@46e 3df1efd
@46f 3e07ffd
@470 3e09f09
@471 3e19f11
@472 3e29f19
@473 3e39f21
@474 3e49f29
@475 3e59f31
@476 3e69f39
@477 3e79f41
@478 3e89f49
@479 fff9f4d
@47a 3ea1f55
@47b fff9f59
@47c 3eb9f61
@47d 3ecfffd
@47e fff9f69
@47f fff9f6d
@480 fff9f71
@481 3ee9f79
@482 3ef9f81
@483 3f09f89
@484 3f1fffd
@485 3f27ffd
@486 3f29f99
@487 3f39fa1
@488 3f49fa9
@489 fff9fad
@48a 3f61fb5
@48b 3f71fbd
@48c fff9fc1
@48d 3f89fc9
@48e fff9fcd
@48f 3fa1fd5
@490 3fb7ffd
@491 3fb9fe1
@492 3fc9fe9
@493 3fd9ff1
@494 3fe9ff9
@495 3ffa001
@496 400a009
@497 401a011
@498 402a019
@499 403fffd
@49a 4042025
@49b 405202d
@49c 4062035
@49d 407203d
@49e fffa041
@49f 408ffff
@4a0 409204d
@4a1 fffa051
@4a2 40aa059
@4a3 40ba061
@4a4 fffa065
@4a5 40d206d
@4a6 40e2075
@4a7 fffa079
@4a8 40fa081
@4a9 410a089
@4aa 411a091
@4ab 412a099
@4ac 413a0a1
@4ad 414a0a9
@4ae 415a0b1
@4af 416a0b9
@4b0 417a0c1
@4b1 418a0c9
@4b2 419a0d1
@4b3 41aa0d9
@4b4 fffa0dd
@4b5 fffa0e1
@4b6 41ca0e9
@4b7 41dfffd
@4b8 41e20f5
@4b9 41f20fd
@4ba ffffffd
@4bb 4202105
@4bc 421210d
@4bd fffa111
@4be fffa115
@4bf 423211d
@4c0 4242125
@4c1 425212d
@4c2 4262135
@4c3 427213d
@4c4 fffa141
@4c5 428a149
@4c6 429fffd
@4c7 42a2155
@4c8 42b7ffd
@4c9 42ba161
@4ca 42ca169
@4cb 42dfffd
@4cc fffa171
@4cd 42ea179
@4ce 42fa181
@4cf 430a189
@4d0 431fffd
@4d1 fffa191
@4d2 432fffd
@4d3 433219d
@4d4 4347ffd
@4d5 434a1a9
@4d6 435fffd
@4d7 43621b5
@4d8 43721bd
@4d9 43821c5
@4da 43921cd
@4db 43a21d5
@4dc 43b21dd
@4dd 43c21e5
@4de 43d21ed
@4df fffa1f1
@4e0 43ea1f9
@4e1 fffa1fd
@4e2 4402205
@4e3 441220d
@4e4 4422215
@4e5 443221d
@4e6 4442225
@4e7 445222d
@4e8 fffa231
@4e9 fffa235
@4ea fffa239
@4eb fffa23d
@4ec 4487ffd
@4ed fffa245
@4ee 4497ffd
@4ef 449fffd
@4f0 fffa251
@4f1 44aa259
@4f2 fffa25d
@4f3 44c2265
@4f4 44d7ffd
@4f5 44da271
@4f6 fffa275
@4f7 44f227d
@4f8 fffa281
@4f9 450fffd
@4fa 451228d
@4fb 4522295
@4fc fffa299
@4fd 453a2a1
@4fe 454fffd
@4ff 45522ad
@500 45622b5
@501 45722bd
@502 45822c5
@503 45922cd
@504 45a22d5
@505 fffa2d9
@506 45bfffd
@507 fffa2e1
@508 45ca2e9
@509 45da2f1
@50a 45efffd
@50b 45f7ffd
@50c 45ffffd
@50d fffa301
@50e fffa305
@50f 461230d
@510 4622315
@511 463231d
@512 4642325
@513 465232d
@514 4662335
@515 467233d
@516 4682345
@517 469234d
@518 46a2355
@519 46b235d
@51a 46c2365
@51b 46d236d
@51c 46e7ffd
@51d fffa375
@51e 46f237d
@51f 4702385
@520 471238d
@521 4722395
@522 473239d
@523 47423a5
@524 47523ad
@525 47623b5
@526 fffa3b9
@527 477a3c1
@528 478a3c9
@529 479fffd
@52a 47a7ffd
@52b 47afffd
@52c 47b23dd
@52d 47c23e5
@52e fffa3e9
@52f 47dfffd
@530 47e7ffd
@531 47ea3f9
@532 47fa401
@533 480a409
@534 481fffd
@535 fffa411
@536 482a419
@537 483a421
@538 484a429
@539 fffa42d
@53a fffa431
@53b fffa435
@53c fffa439
@53d 487a441
@53e 488a449
@53f fffa44d
@540 fffa451
@541 48aa459
@542 48bfffd
@543 48c2465
@544 48d246d
@545 48e2475
@546 48f247d
@547 4902485
@548 491248d
@549 4922495
@54a 4937ffd
@54b 493a4a1
@54c 494a4a9
@54d 495a4b1
@54e fffa4b5
@54f 4977ffd
@550 497a4c1
@551 fffa4c5
@552 4997ffd
@553 fffa4cd
@554 49a24d5
@555 fffa4d9
@556 fffa4dd
@557 fffa4e1
@558 49ca4e9
@559 49da4f1
@55a 49ea4f9
@55b fffa4fd
@55c fffa501
@55d 4a0a509
@55e fffa50d
@55f 4a27ffd
@560 4a2a519
@561 fffa51d
@562 4a42525
@563 4a57ffd
@564 4a5a531
@565 4a6a539
@566 4a7fffd
@567 4a82545
@568 4a9254d
@569 4aa2555
@56a 4ab255d
@56b fffa561
@56c 4aca569
@56d 4adfffd
@56e fffa571
@56f 4aea579
@570 4affffd
@571 4b07ffd
@572 4b0a589
@573 4b1fffd
@574 4b22595
@575 4b3259d
@576 4b47ffd
@577 fffa5a5
@578 4b525ad
@579 4b625b5
@57a 4b77ffd
@57b 4b7fffd
@57c 4b825c5
@57d fffa5c9
@57e 4b9a5d1
@57f 4baa5d9
@580 4bba5e1
@581 4bca5e9
@582 4bdffff
@583 ffffffd
@584 4be25f5
@585 4bf25fd
@586 4c02605
@587 4c1260d
@588 4c22615
@589 fffa619
@58a 4c3a621
@58b 4c4a629
@58c 4c5a631
@58d 4c6ffff
@58e 4c7263d
@58f 4c82645
@590 fffa649
@591 4c9a651
@592 4caa659
@593 fffa65d
@594 fffa661
@595 4cca669
@596 fffa66d
@597 4ce2675
@598 4cf267d
@599 4d02685
@59a 4d1268d
@59b 4d22695
@59c 4d3269d
@59d 4d47ffd
@59e 4d4a6a9
@59f 4d5a6b1
@5a0 4d6a6b9
@5a1 4d7a6c1
@5a2 fffa6c5
@5a3 4d926cd
@5a4 4da26d5
@5a5 fffa6d9
@5a6 fffa6dd
@5a7 4dc7ffd
@5a8 fffa6e5
@5a9 4dd26ed
@5aa fffa6f1
@5ab 4dea6f9
@5ac 4dfa701
@5ad 4e0a709
@5ae 4e1a711
@5af 4e2a719
@5b0 4e3a721
@5b1 4e4a729
@5b2 4e5a731
@5b3 4e6a739
@5b4 4e7a741
@5b5 4e8a749
@5b6 4e9a751
@5b7 4eaa759
@5b8 4ebffff
@5b9 4ec2765
@5ba 4ed276d
@5bb 4ee2775
@5bc 4ef7fff
@5bd 4efa781
@5be 4f0a789
@5bf 4f1a791
@5c0 4f2fffd
@5c1 4f37ffd
@5c2 4f3a7a1
@5c3 4f4a7a9
@5c4 4f5a7b1
@5c5 4f6a7b9
@5c6 4f7ffff
@5c7 4f827c5
@5c8 4f927cd
@5c9 4fa27d5
@5ca 4fb7ffd
@5cb 4fbfffd
@5cc 4fc27e5
@5cd 4fd27ed
@5ce 4fe27f5
@5cf fffa7f9
@5d0 4ffa801
@5d1 500a809
@5d2 501a811
@5d3 502fffd
@5d4 fffa819
@5d5 503fffd
@5d6 5042825
@5d7 505282d
@5d8 5062835
@5d9 507283d
@5da 5082845
@5db 509284d
@5dc 50a2855
@5dd 50b285d
@5de 50c2865
@5df 50d286d
@5e0 50e2875
@5e1 50f287d
@5e2 5102885
@5e3 511288d
@5e4 5127ffd
@5e5 512a899
@5e6 513a8a1
@5e7 514a8a9
@5e8 515a8b1
@5e9 fffa8b5
@5ea fffa8b9
@5eb 517a8c1
@5ec 518a8c9
@5ed fffa8cd
@5ee 51a28d5
@5ef 51b28dd
@5f0 51c28e5
@5f1 51d28ed
@5f2 51e28f5
@5f3 51f28fd
@5f4 5202905
@5f5 5217ffd
@5f6 521ffff
@5f7 5222915
@5f8 523291d
@5f9 5242925
@5fa 525292d
@5fb 5262935
@5fc 527293d
@5fd 5282945
@5fe 529294d
@5ff 52a2955
@600 52b295d
@601 52c2965
@602 52d296d
@603 52e2975
@604 52f7ffd
@605 52ffffd
@606 5302985
@607 fffa989
@608 531a991
@609 532a999
@60a 533a9a1
@60b 534a9a9
@60c 535a9b1
@60d 536a9b9
