@0 5
@1 80d
@2 1015
@3 181d
@4 2025
@5 282d
@6 3035
@7 383d
@8 4045
@9 484d
@a 5055
@b 585d
@c 6065
@d 686d
@e 7075
@f 787d
@10 8085
@11 888d
@12 9095
@13 989d
@14 a0a5
@15 a8ad
@16 b0b5
@17 b8bd
@18 c0c5
@19 c8cd
@1a d0d5
@1b d8dd
@1c e0e5
@1d e8ed
@1e f0f5
@1f f8fd
@20 10105
@21 1090d
@22 11115
@23 1191d
@24 12125
@25 1292d
@26 13135
@27 1393d
@28 14145
@29 1494d
@2a 15155
@2b 1595d
@2c 16165
@2d 1696d
@2e 17175
@2f 1797d
@30 18185
@31 1898d
@32 19195
@33 1999d
@34 1a1a5
@35 1a9ad
@36 1b1b5
@37 1b9bd
@38 1c3ff
@39 1c5c9
@3a 1cdd1
@3b 1d5d9
@3c 1dde1
