@0 5
@1 40d
@2 815
@3 c1d
@4 1025
@5 24e1e142d
@6 1835
@7 1c3d
@8 2045
@9 244d
@a 2855
@b 2c5d
@c 3065
@d 346d
@e 3875
@f 2301e3c7d
@10 4085
@11 261e448d
@12 4895
@13 4c9d
@14 70879c61e50a5
@15 54ad
@16 38878e31e58b5
@17 1491e5dff
@18 5ec1
@19 62c9
@1a 66d1
@1b 6ad9
@1c 6ee1
@1d 1321e72e9
@1e ec1e76f1
