@0 fffd
@1 8cc780010009
@2 30011
@3 5fffd
@4 6001d
@5 3fff0021
@6 90029
@7 3fff002d
@8 c0035
@9 e003d
@a 100045
@b 12004d
@c 8cc780140055
@d 16005d
@e 3fff0061
@f 190069
@10 1b0071
@11 1d0079
@12 1f0081
@13 210089
@14 230091
@15 250099
@16 2700a1
@17 29fffd
@18 2a00ad
@19 2c00b5
@1a 2e00bd
@1b d207803000c5
@1c 3200cd
@1d 3400d5
@1e 2331e9487803600dd
@1f 3800e5
@20 3a00ed
@21 3c00f5
@22 3efffd
@23 3f0101
@24 410109
@25 430111
@26 450119
@27 c90780470121
@28 490129
@29 4b0131
@2a 4d0139
@2b 4f0141
@2c 510149
@2d 530151
@2e 8cc780550159
@2f 570161
@30 948780590169
@31 5b0171
@32 3fff0175
@33 5e017d
@34 600185
@35 62018d
@36 640195
@37 66fffd
@38 6701a1
@39 6901a9
@3a 9487806b01b1
@3b 6d01b9
@3c 8907806f01c1
@3d d187807101c9
@3e 7301d1
@3f 75fffd
@40 3fff01d9
@41 7701e1
@42 7901e9
@43 3fff01ed
@44 7c01f5
@45 8cc7807e01fd
@46 800205
@47 82020d
@48 840215
@49 3fff0219
@4a 3fff021d
@4b 880225
@4c 8a022d
@4d 8c0235
@4e 8efffd
@4f 9147808ffffd
@50 90fffd
@51 8cc78091fffd
@52 92fffd
@53 930251
@54 950259
@55 970261
@56 990269
@57 9b0271
@58 9d0279
@59 3fff027d
@5a a00285
@5b a2fffd
@5c 3fff028d
@5d 3fff0291
@5e 3fff0295
@5f a6029d
@60 a8fffd
@61 a9fffd
@62 aafffd
@63 3fff02ad
@64 ac02b5
@65 ae02bd
@66 3fff02c1
@67 b1fffd
@68 b202cd
@69 b402d5
@6a b602dd
@6b 3fff02e1
@6c b902e9
@6d bb02f1
@6e bd02f9
@6f bf0301
@70 c10309
@71 d14780c30311
@72 c50319
@73 c70321
@74 3fff0325
@75 cafffd
@76 3fff032d
@77 cc0335
@78 ce033d
@79 d0fffd
@7a d10349
@7b d3fffd
@7c d40355
@7d d6035d
@7e 2421e948780d80365
@7f da036d
@80 3fff0371
@81 3fff0375
@82 de037d
@83 3fff0381
@84 e1fffd
@85 e2fffd
@86 3fff038d
@87 e4fffd
@88 e50399
@89 e7fffd
@8a e8fffd
@8b 3fff03a5
@8c ea03ad
@8d ec03b5
@8e ee03bd
@8f f003c5
@90 f203cd
@91 f403d5
@92 f603dd
@93 f803e5
@94 fa03ed
@95 fc03f5
@96 fefffd
@97 3fff03fd
@98 3fff0401
@99 1010409
@9a 103fffd
@9b 8cc7bfff0411
@9c 105fffd
@9d 106041d
@9e 3fff0421
@9f 1090429
@a0 10bfffd
@a1 3fff0431
@a2 8947810d0439
@a3 10ffffd
@a4 3fff0441
@a5 111fffd
@a6 112044d
@a7 114fffd
@a8 1150459
@a9 8987bfff045d
@aa 118fffd
@ab d20781190469
@ac 11bfffd
@ad 11c0475
@ae 11e047d
@af 1200485
@b0 122048d
@b1 1240495
@b2 126fffd
@b3 3fff049d
@b4 12804a5
@b5 3fff04a9
@b6 12b04b1
@b7 12d04b9
@b8 3fff04bd
@b9 130fffd
@ba 13104c9
@bb 13304d1
@bc 13504d9
@bd 13704e1
@be 3fff04e5
@bf 13a04ed
@c0 13c04f5
@c1 13e04fd
@c2 1400505
@c3 142050d
@c4 3fff0511
@c5 145fffd
@c6 3fff0519
@c7 1470521
@c8 3fff0525
@c9 3fff0529
@ca 3fff052d
@cb 14c0535
@cc 14e053d
@cd 1500545
@ce 152054d
@cf 1540555
@d0 156fffd
@d1 3fff055d
@d2 1580565
@d3 3fff0569
@d4 3fff056d
@d5 15c0575
@d6 15e057d
@d7 160fffd
@d8 1610589
@d9 163fffd
@da 164fffd
@db 3fff0595
@dc d2078166059d
@dd 3fff05a1
@de 16905a9
@df 3fff05ad
@e0 16c05b5
@e1 3fff05b9
@e2 3fff05bd
@e3 3fff05c1
@e4 3fff05c5
@e5 17205cd
@e6 17405d5
@e7 3fff05d9
@e8 17705e1
@e9 17905e9
@ea 17b05f1
@eb 8cc7817d05f9
@ec 17f0601
@ed 3fff0605
@ee 182fffd
@ef 1830611
@f0 1850619
@f1 d08781870621
@f2 1890629
@f3 18bfffd
@f4 3fff0631
@f5 3fff0635
@f6 3fff0639
@f7 18ffffd
@f8 1900645
@f9 8cc7bffffffd
@fa 3fff0649
@fb 3fff064d
@fc 3fff0651
@fd 195fffd
@fe 3fff0659
@ff 1970661
@100 1990669
@101 8cc7819b0671
@102 8cc7819dfffd
@103 c907819e067d
@104 3fff0681
@105 1a10689
@106 1a30691
@107 1a50699
@108 1a7fffd
@109 3fff06a1
@10a 1a906a9
@10b 1abfffd
@10c 3fff06b1
@10d 3fff06b5
@10e 1aefffd
@10f 3fff06bd
@110 1b006c5
@111 8cc781b206cd
@112 1b406d5
@113 3fff06d9
@114 1b7fffd
@115 1b8fffd
@116 1b9fffd
@117 1ba06ed
@118 3fff06f1
@119 1bd06f9
@11a 3fff06fd
@11b 3fff0701
@11c 1c1fffd
@11d 1c2fffd
@11e 1c3fffd
@11f 1c4fffd
@120 3fff0715
@121 3fff0719
@122 1c7fffd
@123 3fff0721
@124 1c90729
@125 3fff072d
@126 3fff0731
@127 3fff0735
@128 1cefffd
@129 3fff073d
@12a 910781d00745
@12b 1d2074d
@12c 3fff0751
@12d 3fff0755
@12e 1d6fffd
@12f 3fff075d
@130 1d80765
@131 3fff0769
@132 3471ed20781db0771
@133 3fff0775
@134 1defffd
@135 1df0781
@136 3fff0785
@137 2261e8a0781e2078d
@138 3431ed10781e40795
@139 3fff0799
@13a 1e707a1
@13b 1e907a9
@13c 1eb07b1
@13d 1ed07b9
@13e 1effffd
@13f 1f007c5
@140 1f207cd
@141 1f407d5
@142 1f607dd
@143 1f807e5
@144 1fafffd
@145 8cc781fb07f1
@146 1fd07f9
@147 2331e920781ff0801
@148 2010809
@149 2030811
@14a 205fffd
@14b 206081d
@14c 2080825
@14d 20a082d
@14e 20cfffd
@14f 20dfffd
@150 20e083d
@151 2100845
@152 212084d
@153 2140855
@154 216fffd
@155 3fff085d
@156 2180865
@157 8cc7821afffd
@158 21bfffd
@159 3fff0871
@15a 21dfffd
@15b 21e087d
@15c 2200885
@15d 222088d
@15e 2240895
@15f 226089d
@160 22808a5
@161 22a08ad
@162 3fff08b1
@163 22dfffd
@164 22e08bd
@165 23008c5
@166 23208cd
@167 23408d5
@168 3fff08d9
@169 8a07823708e1
@16a 23908e9
@16b 23b08f1
@16c 23d08f9
@16d 23ffffd
@16e 240fffd
@16f 3fff0905
@170 242090d
@171 3fff0911
@172 2450919
@173 8cc782470921
@174 2490929
@175 24b0931
@176 24d0939
@177 24f0941
@178 2510949
@179 2530951
@17a 2550959
@17b 3fff095d
@17c 2580965
@17d 25a096d
@17e d1c7bfff0971
@17f 25d0979
@180 25f0981
@181 2610989
@182 2630991
@183 2650999
@184 26709a1
@185 8cc7826909a9
@186 3fff09ad
@187 9187826c09b5
@188 26e09bd
@189 27009c5
@18a 27209cd
@18b 8cc7827409d5
@18c d1c7827609dd
@18d 27809e5
@18e d207827a09ed
@18f 27c09f5
@190 27e09fd
@191 2800a05
@192 2820a0d
@193 3fff0a11
@194 8cc782850a19
@195 2870a21
@196 2890a29
@197 28bfffd
@198 28c0a35
@199 28efffd
@19a 28f0a41
@19b 2910a49
@19c 2930a51
@19d 295fffd
@19e 2960a5d
@19f 2980a65
@1a0 29a0a6d
@1a1 29c0a75
@1a2 29e0a7d
@1a3 2a00a85
@1a4 2a2fffd
@1a5 2a30a91
@1a6 2a50a99
@1a7 2a70aa1
@1a8 2a90aa9
@1a9 8cc782ab0ab1
@1aa 2adfffd
@1ab 2ae0abd
@1ac 2b00ac5
@1ad 2b20acd
@1ae 2b40ad5
@1af 8cc782b60add
@1b0 2b80ae5
@1b1 2ba0aed
@1b2 2bc0af5
@1b3 2be0afd
@1b4 2c00b05
@1b5 3fff0b09
@1b6 2c30b11
@1b7 3fff0b15
@1b8 2c60b1d
@1b9 2c80b25
@1ba 2ca0b2d
@1bb 2cc0b35
@1bc 8cc782cefffd
@1bd d10782cf0b41
@1be 3fff0b45
@1bf 3fff0b49
@1c0 3fff0b4d
@1c1 2d40b55
@1c2 914782d60b5d
@1c3 3fff0b61
@1c4 2d90b69
@1c5 2db0b71
@1c6 2dd0b79
@1c7 8cc782dffffd
@1c8 2e0fffd
@1c9 3fff0b85
@1ca 3fff0b89
@1cb 3fff0b8d
@1cc 3fff0b91
@1cd 2e50b99
@1ce 3fff0b9d
@1cf 2e80ba5
@1d0 2ea0bad
@1d1 3fff0bb1
@1d2 2edfffd
@1d3 2ee0bbd
@1d4 2f0fffd
@1d5 2f10bc9
@1d6 3fff0bcd
@1d7 2f4fffd
@1d8 2f5fffd
@1d9 2f6fffd
@1da 2f70be1
@1db 2f90be9
@1dc 2fb0bf1
@1dd 2fd0bf9
@1de 3fff0bfd
@1df 3fff0c01
@1e0 301fffd
@1e1 89c783020c0d
@1e2 3040c15
@1e3 3fff0c19
@1e4 3070c21
@1e5 3090c29
@1e6 30bfffd
@1e7 3fff0c31
@1e8 3fff0c35
@1e9 30e0c3d
@1ea 3fff0c41
@1eb 3110c49
@1ec 3fff0c4d
@1ed 314fffd
@1ee 3150c59
@1ef 3fff0c5d
@1f0 318fffd
@1f1 8ac78319fffd
@1f2 d087831a0c6d
@1f3 3fff0c71
@1f4 31d0c79
@1f5 31f0c81
@1f6 3210c89
@1f7 3fff0c8d
@1f8 3240c95
@1f9 914783260c9d
@1fa 3280ca5
@1fb 32afffd
@1fc 32b0cb1
@1fd 32d0cb9
@1fe 32ffffd
@1ff 3300cc5
@200 d14783320ccd
@201 3fff0cd1
@202 3350cd9
@203 3370ce1
@204 d0c7bfff0ce5
@205 3fff0ce9
@206 3fff0ced
@207 3fff0cf1
@208 8cc7833d0cf9
@209 3fff0cfd
@20a 340fffd
@20b d14783410d09
@20c 3430d11
@20d 3fff0d15
@20e 8ac78346ffff
@20f 3470d21
@210 d14783490d29
@211 34b0d31
@212 34dfffd
@213 d147834e0d3d
@214 2331e91c783500d45
@215 3520d4d
@216 948783540d55
@217 3560d5d
@218 91c783580d65
@219 35a0d6d
@21a 35c0d75
@21b 35e0d7d
@21c 3600d85
@21d 22b1e924783620d8d
@21e 3640d95
@21f 3660d9d
@220 3680da5
@221 36a0dad
@222 36c0db5
@223 36e0dbd
@224 3700dc5
@225 3720dcd
@226 ca4783740dd5
@227 3760ddd
@228 3780de5
@229 37a0ded
@22a 37c0df5
@22b 37efffd
@22c 9087837f0e01
@22d 3810e09
@22e 3830e11
@22f d14783850e19
@230 918783870e21
@231 3890e29
@232 38b0e31
@233 38d0e39
@234 38f0e41
@235 3910e49
@236 3930e51
@237 3950e59
@238 3970e61
@239 d18783990e69
@23a 39b0e71
@23b 39d0e79
@23c d047839ffffd
@23d 9047bfff0e81
@23e 3a10e89
@23f d0c783a30e91
@240 3a50e99
@241 3a70ea1
@242 3a90ea9
@243 3ab0eb1
@244 3ad0eb9
@245 3af0ec1
@246 3b10ec9
@247 3b30ed1
@248 3b50ed9
@249 3fff0edd
@24a 910783b80ee5
@24b 3ba0eed
@24c 3bc0ef5
@24d 3be0efd
@24e 3c00f05
@24f 3c20f0d
@250 3c40f15
@251 3c60f1d
@252 3c80f25
@253 3ca0f2d
@254 3cc0f35
@255 3ce0f3d
@256 3d00f45
@257 90c7bfff0f49
@258 3d30f51
@259 3fff0f55
@25a 910783d60f5d
@25b 3d80f65
@25c 3da0f6d
@25d 3dc0f75
@25e 3de0f7d
@25f 3e00f85
@260 2331e918783e20f8d
@261 3e40f95
@262 3e60f9d
@263 3e80fa5
@264 3fff0fa9
@265 3eb0fb1
@266 3ed0fb9
@267 3ef0fc1
@268 3f10fc9
@269 3f30fd1
@26a 914783f50fd9
@26b d0c783f70fe1
@26c 3f90fe9
@26d 3fb0ff1
@26e 3fd0ff9
@26f 3fffffd
@270 4001005
@271 402100d
@272 4041015
@273 3251ed1878406101d
@274 3fff1021
@275 4091029
@276 40b1031
@277 40d1039
@278 40f1041
@279 4111049
@27a 890784131051
@27b 4151059
@27c 4171061
@27d d08784191069
@27e 9047841b1071
@27f d087841d1079
@280 90c7841f1081
@281 4211089
@282 90c784231091
@283 d0c784251099
@284 9147842710a1
@285 d1478429ffff
@286 42a10ad
@287 3fff10b1
@288 42d10b9
@289 42f10c1
@28a 43110c9
@28b 433fffd
@28c 3fff10d1
@28d 435fffd
@28e 436fffd
@28f d0c7843710e1
@290 439fffd
@291 43a10ed
@292 43cfffd
@293 43d10f9
@294 43f1101
@295 441fffd
@296 442110d
@297 91c784441115
@298 d0878446111d
@299 3fff1121
@29a 4491129
@29b 44b1131
@29c 44d1139
@29d 44ffffd
@29e 3fff1141
@29f 4511149
@2a0 4531151
@2a1 908784551159
@2a2 4571161
@2a3 4591169
@2a4 45b1171
@2a5 45d1179
@2a6 45f1181
@2a7 461fffd
@2a8 462118d
@2a9 4641195
@2aa 466119d
@2ab 468fffd
@2ac 3fff11a5
@2ad 46afffd
@2ae 46b11b1
@2af 46d11b9
@2b0 46f11c1
@2b1 47111c9
@2b2 47311d1
@2b3 3fff11d5
@2b4 476fffd
@2b5 3fff11dd
@2b6 478fffd
@2b7 479fffd
@2b8 47afffd
@2b9 47bfffd
@2ba 47cfffd
@2bb 47d11f9
@2bc 47f1201
@2bd 908784811209
@2be 4831211
@2bf 4851219
@2c0 487fffd
@2c1 488fffd
@2c2 489fffd
@2c3 3fff1229
@2c4 48bfffd
@2c5 48cfffd
@2c6 3fff1235
@2c7 48e123d
@2c8 3fff1241
@2c9 3fff1245
@2ca 492124d
@2cb 4941255
@2cc 496125d
@2cd 4981265
@2ce 49a126d
@2cf 49c1275
@2d0 49efffd
@2d1 49f1281
@2d2 4a11289
@2d3 4a31291
@2d4 4a5fffd
@2d5 920784a6129d
@2d6 4a812a5
@2d7 3fff12a9
@2d8 4ab12b1
@2d9 4ad12b9
@2da 4af12c1
@2db 4b1fffd
@2dc 4b212cd
@2dd 4b412d5
@2de 4b612dd
@2df 4b812e5
@2e0 4ba12ed
@2e1 4bc12f5
@2e2 4be12fd
@2e3 4c01305
@2e4 d20784c2130d
@2e5 4c41315
@2e6 3fff1319
@2e7 3fff131d
@2e8 3fff1321
@2e9 4c91329
@2ea 908784cb1331
@2eb 3fff1335
@2ec 4cefffd
@2ed 3fff133d
@2ee 8cc7bfff1341
@2ef 3fff1345
@2f0 3fff1349
@2f1 8cc784d31351
@2f2 4d51359
@2f3 4d71361
@2f4 4d9fffd
@2f5 4da136d
@2f6 4dc1375
@2f7 4de137d
@2f8 4e01385
@2f9 d18784e2138d
@2fa 3fff1391
@2fb 4e51399
@2fc 948784e7fffd
@2fd 3fff13a1
@2fe 4e9fffd
@2ff 3fff13a9
@300 4eb13b1
@301 c90784ed13b9
@302 4ef13c1
@303 3fff13c5
@304 4f213cd
@305 3fff13d1
@306 3fff13d5
@307 d14784f6fffd
@308 4f713e1
@309 4f913e9
@30a 4fb13f1
@30b 4fd13f9
@30c 4ff1401
@30d 5011409
@30e 5031411
@30f 5051419
@310 5071421
@311 5091429
@312 50b1431
@313 50d1439
@314 9107850f1441
@315 5111449
@316 5131451
@317 5151459
@318 5171461
@319 519fffd
@31a 51a146d
@31b 51c1475
@31c 8987851e147d
@31d 5201485
@31e 522148d
@31f 5241495
@320 d207bffffffd
@321 8cc7bfff1499
@322 9087852714a1
@323 52914a9
@324 3fff14ad
@325 d247852c14b5
@326 52e14bd
@327 530fffd
@328 3fff14c5
@329 3fff14c9
@32a 533fffd
@32b 53414d5
@32c 53614dd
@32d 538fffd
@32e 3fff14e5
@32f 53a14ed
@330 3fff14f1
@331 d107853dfffd
@332 53e14fd
@333 5401505
@334 3fff1509
@335 5431511
@336 3fff1515
@337 546151d
@338 3fff1521
@339 3fff1525
@33a 54a152d
@33b 54c1535
@33c 54e153d
@33d 5501545
@33e 552154d
@33f 554fffd
@340 5551559
@341 5571561
@342 5591569
@343 55b1571
@344 55d1579
@345 9107855f1581
@346 3fff1585
@347 562158d
@348 5641595
@349 566159d
@34a 56815a5
@34b 56a15ad
@34c 56c15b5
@34d 56efffd
@34e 3fff15bd
@34f 57015c5
@350 57215cd
@351 57415d5
@352 57615dd
@353 57815e5
@354 57a15ed
@355 57c15f5
@356 3fff15f9
@357 57f1601
@358 5811609
@359 8cc785831611
@35a 5851619
@35b 5871621
@35c 5891629
@35d 58b1631
@35e 58d1639
@35f 58f1641
@360 5911649
@361 5931651
@362 5951659
@363 597fffd
@364 5981665
@365 59a166d
@366 59c1675
@367 59e167d
@368 5a01685
@369 5a2168d
@36a 5a41695
@36b 5a6169d
@36c 5a816a5
@36d 5aa16ad
@36e 5acfffd
@36f 908785ad16b9
@370 3fff16bd
@371 5b016c5
@372 5b216cd
@373 5b416d5
@374 c90785b616dd
@375 3fff16e1
@376 3fff16e5
@377 3fff16e9
@378 5bbfffd
@379 5bc16f5
@37a 5be16fd
@37b 3fff1701
@37c 3fff1705
@37d 5c2fffd
@37e 5c3fffd
@37f 5c41715
@380 5c6171d
@381 5c81725
@382 5ca172d
@383 5ccfffd
@384 8cc7bffffffd
@385 5cd1739
@386 8cc785cf1741
@387 5d1fffd
@388 3fff1749
@389 5d31751
@38a 3fff1755
@38b 5d6175d
@38c 5d8fffd
@38d 3fff1765
@38e 5dafffd
@38f 5dbfffd
@390 d18785dc1775
@391 5de177d
@392 5e01785
@393 5e2178d
@394 5e4fffd
@395 5e51799
@396 5e717a1
@397 5e9fffd
@398 5ea17ad
@399 5ecfffd
@39a 3fff17b5
@39b 5ee17bd
@39c 5f0fffd
@39d 3fff17c5
@39e 5f217cd
@39f 5f417d5
@3a0 5f617dd
@3a1 5f817e5
@3a2 3fff17e9
@3a3 3fff17ed
@3a4 5fc17f5
@3a5 5fe17fd
@3a6 3fff1801
@3a7 32b1ed14786011809
@3a8 6031811
@3a9 6051819
@3aa 6071821
@3ab 6091829
@3ac 2291e8ac7860b1831
@3ad 3fff1835
@3ae 60e183d
@3af 610fffd
@3b0 6111849
@3b1 613fffd
@3b2 8cc786141855
@3b3 616185d
@3b4 6181865
@3b5 61a186d
@3b6 61cfffd
@3b7 61dfffd
@3b8 9187861efffd
@3b9 61ffffd
@3ba 6201885
@3bb 8cc78622188d
@3bc 6241895
@3bd 626189d
@3be 62818a5
@3bf 8cc7862a18ad
@3c0 d247862c18b5
@3c1 62efffd
@3c2 62f18c1
@3c3 63118c9
@3c4 633fffd
@3c5 63418d5
@3c6 63618dd
@3c7 63818e5
@3c8 8cc7863afffd
@3c9 63b18f1
@3ca 63d18f9
@3cb 63f1901
@3cc 2471e92078641fffd
@3cd 642190d
@3ce 3fff1911
@3cf 6451919
@3d0 2421e90c786471921
@3d1 d04786491929
@3d2 64bfffd
@3d3 64c1935
@3d4 64efffd
@3d5 8cc7864ffffd
@3d6 6501945
@3d7 652194d
@3d8 6541955
@3d9 3fff1959
@3da 3fff195d
@3db 658fffd
@3dc 3fff1965
@3dd 65a196d
@3de 8a87bfff1971
@3df d087865d1979
@3e0 2441e9487865f1981
@3e1 d08786611989
@3e2 6631991
@3e3 d1c786651999
@3e4 66719a1
@3e5 66919a9
@3e6 9107866b19b1
@3e7 3421ed247866d19b9
@3e8 66f19c1
@3e9 d0c7867119c9
@3ea 67319d1
@3eb 2331e9087867519d9
@3ec 3fff19dd
@3ed 3fff19e1
@3ee d187867919e9
@3ef 67b19f1
@3f0 3fff19f5
@3f1 67e19fd
@3f2 d18786801a05
@3f3 2331e8ac786821a0d
@3f4 d087bfff1a11
@3f5 6851a19
@3f6 6871a21
@3f7 90c786891a29
@3f8 68b1a31
@3f9 68d1a39
@3fa d107bffffffd
@3fb 9087868f1a41
@3fc 6911a49
@3fd 3fff1a4d
@3fe 6941a55
@3ff 6961a5d
@400 22b1e918786981a65
@401 69a1a6d
@402 9147869c1a75
@403 69e1a7d
@404 6a01a85
@405 6a21a8d
@406 910786a41a95
@407 d08786a61a9d
@408 3fff1aa1
@409 6a91aa9
@40a 6ab1ab1
@40b d147bfff1ab5
@40c d1c786aeffff
@40d 3fff1abd
@40e d0c786b01ac5
@40f 6b21acd
@410 6b41ad5
@411 8cc786b61add
@412 d08786b81ae5
@413 2441e948786ba1aed
@414 6bc1af5
@415 6be1afd
@416 3fff1b01
@417 6c11b09
@418 6c31b11
@419 6c51b19
@41a 6c71b21
@41b 6c9fffd
@41c 2421e914786cafffd
@41d d08786cb1b31
@41e 6cd1b39
@41f 3fff1b3d
@420 3fff1b41
@421 6d1fffd
@422 6d2fffd
@423 6d3fffd
@424 6d41b55
@425 2271e914786d61b5d
@426 6d81b65
@427 6da1b6d
@428 90c786dc1b75
@429 6de1b7d
@42a 6e01b85
@42b 6e2fffd
@42c 6e31b91
@42d 6e51b99
@42e 6e71ba1
@42f 6e91ba9
@430 6eb1bb1
@431 6ed1bb9
@432 6ef1bc1
@433 d14786f11bc9
@434 6f31bd1
@435 6f51bd9
@436 6f71be1
@437 d04786f91be9
@438 904786fb1bf1
@439 6fd1bf9
@43a 6ff1c01
@43b 701fffd
@43c 914787021c0d
@43d 7041c15
@43e 2441e948787061c1d
@43f 7081c25
@440 70afffd
@441 70b1c31
@442 70d1c39
@443 70f1c41
@444 7111c49
@445 7131c51
@446 3fff1c55
@447 7161c5d
@448 7181c65
@449 71a1c6d
@44a 71c1c75
@44b d147871e1c7d
@44c 7201c85
@44d 7221c8d
@44e 7241c95
@44f 3fff1c99
@450 7271ca1
@451 7291ca9
@452 3fff1cad
@453 72c1cb5
@454 2331e8907872e1cbd
@455 7301cc5
@456 8a4787321ccd
@457 7341cd5
@458 2221e920787361cdd
@459 3fff1ce1
@45a 3fff1ce5
@45b 9487873affff
@45c 73b1cf1
@45d 3fff1cf5
@45e 73efffd
@45f 73f1d01
@460 741fffd
@461 2451e91878742fffd
@462 3fff1d0d
@463 744fffd
@464 7451d19
@465 747fffd
@466 3fff1d21
@467 7491d29
@468 3fff1d2d
@469 74cfffd
@46a 74dfffd
@46b 74efffd
@46c 3fff1d3d
@46d 750fffd
@46e 7511d49
@46f 7531d51
@470 7551d59
@471 2331e898787571d61
@472 7591d69
@473 75bfffd
@474 3441ed207bfff1d71
@475 3fff1d75
@476 3fff1d79
@477 3fff1d7d
@478 3fff1d81
@479 761fffd
@47a 908787621d8d
@47b 7641d95
@47c 766fffd
@47d 767fffd
@47e 7681da5
@47f 76a1dad
@480 76c1db5
@481 3fff1db9
@482 76f1dc1
@483 7711dc9
@484 3fff1dcd
@485 3fff1dd1
@486 7751dd9
@487 777fffd
@488 7781de5
@489 3fff1de9
@48a 77b1df1
@48b 77dfffd
@48c 77e1dfd
@48d 7801e05
@48e 7821e0d
@48f 3461ed2478784fffd
@490 7851e19
@491 7871e21
@492 7891e29
@493 78b1e31
@494 d207bfff1e35
@495 78e1e3d
@496 7901e45
@497 792fffd
@498 7931e51
@499 7951e59
@49a d187bfff1e5d
@49b 798fffd
@49c 3fff1e65
@49d 79a1e6d
@49e 3fff1e71
@49f 79d1e79
@4a0 79f1e81
@4a1 8887bffffffd
@4a2 3fff1e85
@4a3 3fff1e89
@4a4 7a3fffd
@4a5 ca0787a41e95
@4a6 89c787a61e9d
@4a7 c907bfff1ea1
@4a8 3fff1ea5
@4a9 7aa1ead
@4aa 7ac1eb5
@4ab 7ae1ebd
@4ac 3fff1ec1
@4ad 7b11ec9
@4ae 7b31ed1
@4af 3261eca0787b51ed9
@4b0 894787b71ee1
@4b1 7b9fffd
@4b2 3fff1ee9
@4b3 c94787bb1ef1
@4b4 7bd1ef9
@4b5 3fff1efd
@4b6 7c01f05
@4b7 3fff1f09
@4b8 7c31f11
@4b9 3fff1f15
@4ba 7c61f1d
@4bb 7c81f25
@4bc 7ca1f2d
@4bd 3fff1f31
@4be 7cdfffd
@4bf 7cefffd
@4c0 7cf1f41
@4c1 7d11f49
@4c2 7d31f51
@4c3 3fff1f55
@4c4 7d61f5d
@4c5 7d81f65
@4c6 7da1f6d
@4c7 c84787dc1f75
@4c8 90c787de1f7d
@4c9 2221e8d0787e01f85
@4ca 7e21f8d
@4cb 7e41f95
@4cc 7e6fffd
@4cd 920787e71fa1
@4ce 3431ed20787e91fa9
@4cf 894787eb1fb1
@4d0 7ed1fb9
@4d1 89c787ef1fc1
@4d2 7f11fc9
@4d3 7f31fd1
@4d4 3fff1fd5
@4d5 7f6fffd
@4d6 7f71fe1
@4d7 7f91fe9
@4d8 7fbfffd
@4d9 7fcfffd
@4da 7fd1ff9
@4db 7fffffd
@4dc 8002005
@4dd 802200d
@4de 8042015
@4df 806201d
@4e0 8082025
@4e1 80a202d
@4e2 80c2035
@4e3 89c7880efffd
@4e4 80f2041
@4e5 3fff2045
@4e6 d1878812204d
@4e7 3fff2051
@4e8 d18788152059
@4e9 8172061
@4ea 8192069
@4eb 81b2071
@4ec 81d2079
@4ed 81f2081
@4ee 8212089
@4ef 8232091
@4f0 8252099
@4f1 82720a1
@4f2 82920a9
@4f3 82b20b1
@4f4 82dfffd
@4f5 82e20bd
@4f6 3fff20c1
@4f7 83120c9
@4f8 3fff20cd
@4f9 9147883420d5
@4fa 83620dd
@4fb 9147883820e5
@4fc 3fff20e9
@4fd 83b20f1
@4fe 83d20f9
@4ff 83f2101
@500 8412109
@501 910788432111
@502 d14788452119
@503 8472121
@504 8492129
@505 84b2131
@506 84d2139
@507 84f2141
@508 c88788512149
@509 8532151
@50a 89878855ffff
@50b 856fffd
@50c 8572161
@50d 8ac788592169
@50e 85b2171
@50f 9187885d2179
@510 85f2181
@511 8612189
@512 2331e89478863fffd
@513 3fff2191
@514 d14788652199
@515 867fffd
@516 86821a5
@517 86a21ad
@518 86c21b5
@519 86efffd
@51a 3fff21bd
@51b 87021c5
@51c 87221cd
@51d 874fffd
@51e 3fff21d5
@51f 87621dd
@520 87821e5
@521 87afffd
@522 8cc7887b21f1
@523 3fff21f5
@524 3fff21f9
@525 87f2201
@526 d087bfff2205
@527 3fff2209
@528 3fff220d
@529 8842215
@52a 90c78886221d
@52b 8882225
@52c 88a222d
@52d 88c2235
@52e 88efffd
@52f 3fff223d
@530 3fff2241
@531 8912249
@532 3fff224d
@533 3fff2251
@534 89078895fffd
@535 896225d
@536 3fff2261
@537 d08788992269
@538 9087889b2271
@539 d087889d2279
@53a 9087889f2281
@53b d08788a12289
@53c 908788a32291
@53d d08788a52299
@53e 908788a722a1
@53f 8a922a9
@540 8ab22b1
@541 8ad22b9
@542 8af22c1
@543 8b1fffd
@544 d08788b222cd
@545 908788b422d5
@546 8b6fffd
@547 8b7fffd
@548 3fff22e1
@549 c90788b922e9
@54a 2421e914788bb22f1
@54b 918788bd22f9
@54c 8bf2301
@54d 8c12309
@54e 8c3fffd
@54f 3fff2311
@550 3431ed147bfff2315
@551 d08788c6231d
@552 908788c82325
@553 d08788caffff
@554 908788cb2331
@555 d08788cd2339
@556 908788cf2341
@557 d08788d12349
@558 908788d32351
@559 d08788d52359
@55a 908788d72361
@55b d08788d92369
@55c 908788db2371
@55d d08788dd2379
@55e 908788df2381
@55f d08788e12389
@560 908788e32391
@561 d047bffffffd
@562 d0c7bfff2395
@563 8e6239d
@564 c84788e8fffd
@565 3fff23a5
@566 8ea23ad
@567 8ec23b5
@568 3451ed187bfff23b9
@569 920788ef23c1
@56a 8f123c9
@56b 8f323d1
@56c 3421ed14788f523d9
@56d 8f723e1
@56e 8f923e9
@56f 8fb23f1
@570 3fff23f5
@571 3fff23f9
@572 2341e90c788ff2401
@573 3211ed0c789012409
@574 90c789032411
@575 d08789052419
@576 908789072421
@577 d08789092429
@578 9087890b2431
@579 d087890d2439
@57a 2221e9087890f2441
@57b 9112449
@57c d087bffffffd
@57d 3fff244d
@57e d0478914fffd
@57f 3fff2455
@580 3fff2459
@581 d08789172461
@582 908789192469
@583 d087891b2471
@584 9087891d2479
@585 d087891f2481
@586 908789212489
@587 d08789232491
@588 908789252499
@589 d087892724a1
@58a 9087892924a9
@58b d087892b24b1
@58c 9087892d24b9
@58d d087892f24c1
@58e 90878931ffff
@58f d087893224cd
@590 9087893424d5
@591 d087893624dd
@592 93824e5
@593 93a24ed
@594 9047893c24f5
@595 93efffd
@596 93f2501
@597 9412509
@598 9432511
@599 9452519
@59a 8a4789472521
@59b 9492529
@59c 94b2531
@59d 94d2539
@59e 22b1e9107894f2541
@59f 9512549
@5a0 9532551
@5a1 9552559
@5a2 9572561
@5a3 9592569
@5a4 95b2571
@5a5 ca87895d2579
@5a6 95f2581
@5a7 9612589
@5a8 9632591
@5a9 9652599
@5aa 96725a1
@5ab 96925a9
@5ac 96b25b1
@5ad 96d25b9
@5ae 9087896f25c1
@5af 97125c9
@5b0 97325d1
@5b1 97525d9
@5b2 3fff25dd
@5b3 978fffd
@5b4 97925e9
@5b5 9087897b25f1
@5b6 97dfffd
@5b7 3fff25f9
@5b8 8a47897f2601
@5b9 d08789812609
@5ba 908789832611
@5bb d08789852619
@5bc 908789872621
@5bd d08789892629
@5be 9087898b2631
@5bf d087898d2639
@5c0 2261e9087898f2641
@5c1 d08789912649
@5c2 908789932651
@5c3 d08789952659
@5c4 908789972661
@5c5 d08789992669
@5c6 9087899b2671
@5c7 d087899d2679
@5c8 9087899f2681
@5c9 3251ed08789a12689
@5ca 908789a32691
@5cb d08789a52699
@5cc 908789a726a1
@5cd d08789a926a9
@5ce 908789ab26b1
@5cf d08789ad26b9
@5d0 908789af26c1
@5d1 9b1fffd
@5d2 9b226cd
@5d3 9b4fffd
@5d4 2331e8a8789b5fffd
@5d5 9b6fffd
@5d6 9b726e1
@5d7 9b9fffd
@5d8 9bafffd
@5d9 9bb26f1
@5da 9bd26f9
@5db 9bf2701
@5dc 9c12709
@5dd 9c32711
@5de 2331e948789c5fffd
@5df 3fff2719
@5e0 908789c72721
@5e1 3fff2725
@5e2 3fff2729
@5e3 9cbfffd
@5e4 9cc2735
@5e5 3fff2739
@5e6 c98789cf2741
@5e7 898789d12749
@5e8 9d32751
@5e9 9d52759
@5ea 898789d72761
@5eb 9d92769
@5ec 3fff276d
@5ed 898789dcfffd
@5ee 9ddfffd
@5ef 9defffd
@5f0 9dffffd
@5f1 9e0fffd
@5f2 9e1fffd
@5f3 d08789e2278d
@5f4 908789e42795
@5f5 d08789e6279d
@5f6 9087bfff27a1
@5f7 9e9fffd
@5f8 9087bffffffd
@5f9 d0c789ea27ad
@5fa 2421e90c789ec27b5
@5fb 9ee27bd
@5fc 9f027c5
@5fd 3fff27c9
@5fe 3fff27cd
@5ff 3fff27d1
@600 9f527d9
@601 9f727e1
@602 9f927e9
@603 9fb27f1
@604 cac789fd27f9
@605 9ff2801
@606 a012809
@607 3fff280d
@608 a04fffd
@609 2251e89878a052819
@60a 3fff281d
@60b 3fff2821
@60c a092829
@60d a0bfffd
@60e a0c2835
@60f 3fff2839
@610 a0ffffd
@611 a10fffd
@612 3fff2845
@613 a12284d
@614 89878a142855
@615 a16285d
@616 a182865
@617 a1a286d
@618 a1c2875
@619 c9878a1e287d
@61a a202885
@61b a22fffd
@61c 90878a232891
@61d a252899
@61e a2728a1
@61f c9878a2928a9
@620 89078a2b28b1
@621 a2d28b9
@622 89878a2f28c1
@623 d0478a3128c9
@624 a3328d1
@625 a35fffd
@626 3fff28d9
@627 a3728e1
@628 a3928e9
@629 a3b28f1
@62a 3fff28f5
@62b a3e28fd
@62c a402905
@62d a42fffd
@62e a432911
@62f a45fffd
@630 a46fffd
@631 c987bfff291d
@632 89878a482925
@633 a4afffd
@634 c987bfff292d
@635 3fff2931
@636 c887bfff2935
@637 a4efffd
@638 a4f2941
@639 3fff2945
@63a 3fff2949
@63b a53fffd
@63c 91078a542955
@63d a56295d
@63e a582965
@63f a5a296d
@640 a5c2975
@641 49c78a5e297d
@642 a602985
@643 a62298d
@644 a642995
@645 a66299d
@646 9878a6829a5
@647 a6a29ad
@648 a6c29b5
@649 a6e29bd
@64a a7029c5
@64b a7229cd
@64c 3fff29d1
@64d a7529d9
@64e 9478a7729e1
@64f a7929e9
@650 a7b29f1
@651 a7d29f9
@652 a7f2a01
@653 a812a09
@654 4a878a832a11
@655 a852a19
@656 a872a21
@657 3fff2a25
@658 a8a2a2d
@659 a8c2a35
@65a a8e2a3d
@65b a902a45
@65c a922a4d
@65d a942a55
@65e 1e11e78878a962a5d
@65f 38478a982a65
@660 a9a2a6d
@661 a9c2a75
@662 a9e2a7d
@663 aa02a85
@664 3fff2a89
@665 3fff2a8d
@666 aa42a95
@667 a078aa62a9d
@668 aa82aa5
@669 aaa2aad
@66a 1261e49c7bfff2ab1
@66b aad2ab9
@66c aaf2ac1
@66d ab1fffd
@66e ab22acd
@66f 3fff2ad1
@670 ab52ad9
@671 ab72ae1
@672 ab9fffd
@673 aba2aed
@674 abc2af5
@675 1261e49c78abe2afd
@676 ac02b05
@677 ac22b0d
@678 ac42b15
@679 3fff2b19
@67a 3fff2b1d
@67b 3fff2b21
@67c 3fff2b25
@67d 49878aca2b2d
@67e 3fff2b31
@67f acd2b39
@680 acf2b41
@681 ad1fffd
@682 ad22b4d
@683 ad42b55
@684 1e11e79478ad62b5d
@685 9c78ad8ffff
@686 ad92b69
@687 38478adb2b71
@688 add2b79
@689 adf2b81
@68a 49478ae12b89
@68b ae32b91
@68c ae52b99
@68d ae72ba1
@68e ae92ba9
@68f aeb2bb1
@690 3fff2bb5
@691 aee2bbd
@692 af02bc5
@693 1241e4ac78af22bcd
@694 af42bd5
@695 af6fffd
@696 3fff2bdd
@697 af8fffd
@698 af92be9
@699 3fff2bed
@69a afc2bf5
@69b afe2bfd
@69c 3fff2c01
@69d 3fff2c05
@69e 3fff2c09
@69f b032c11
@6a0 b052c19
@6a1 b072c21
@6a2 49c78b092c29
@6a3 3fff2c2d
@6a4 48878b0c2c35
@6a5 8c78b0e2c3d
@6a6 b102c45
@6a7 b12fffd
@6a8 b132c51
@6a9 48878b152c59
@6aa 9078b172c61
@6ab 49c78b192c69
@6ac 3fff2c6d
@6ad b1c2c75
@6ae b1efffd
@6af b1ffffd
@6b0 b202c85
@6b1 9c78b222c8d
@6b2 49878b242c95
@6b3 b26fffd
@6b4 b272ca1
@6b5 b292ca9
@6b6 b2b2cb1
@6b7 b2d2cb9
@6b8 e31e0a078b2f2cc1
@6b9 4a478b312cc9
@6ba b332cd1
@6bb b352cd9
@6bc b372ce1
@6bd 49878b392ce9
@6be b3b2cf1
@6bf b3d2cf9
@6c0 b3f2d01
@6c1 b41fffd
@6c2 b422d0d
@6c3 b44fffd
@6c4 b452d19
@6c5 9c78b472d21
@6c6 b49fffd
@6c7 3fff2d29
@6c8 b4b2d31
@6c9 b4d2d39
@6ca b4f2d41
@6cb b51fffd
@6cc 3fff2d49
@6cd b532d51
@6ce b552d59
@6cf b57fffd
@6d0 b582d65
@6d1 3fff2d69
@6d2 4ac78b5b2d71
@6d3 9c78b5d2d79
@6d4 b5f2d81
@6d5 281e0ac78b612d89
@6d6 3fff2d8d
@6d7 b64fffd
@6d8 b652d99
@6d9 9c78b672da1
@6da b69fffd
@6db 49c78b6a2dad
@6dc 9c78b6c2db5
@6dd 70c78b6e2dbd
@6de 3fff2dc1
@6df 7047bffffffd
@6e0 30478b71fffd
@6e1 7047bffffffd
@6e2 3047bffffffd
@6e3 7047bffffffd
@6e4 b72fffd
@6e5 50478b732dd1
@6e6 b752dd9
@6e7 b772de1
@6e8 b792de9
@6e9 b7b2df1
@6ea b7d2df9
@6eb 49878b7f2e01
@6ec 3fff2e05
@6ed b822e0d
@6ee b842e15
@6ef 48c78b862e1d
@6f0 9478b882e25
@6f1 4a078b8a2e2d
@6f2 9478b8c2e35
@6f3 3fff2e39
@6f4 3fff2e3d
@6f5 b90fffd
@6f6 5047bffffffd
@6f7 3fff2e45
@6f8 b922e4d
@6f9 b94fffd
@6fa b952e59
@6fb 1411e50c78b972e61
@6fc b992e69
@6fd 3fff2e6d
@6fe 3fff2e71
@6ff b9d2e79
@700 b9f2e81
@701 ba1fffd
@702 ba22e8d
@703 ba42e95
@704 ba62e9d
@705 ba82ea5
@706 3fff2ea9
@707 bab2eb1
@708 bad2eb9
@709 baf2ec1
@70a 3fff2ec5
@70b 3fff2ec9
@70c 3fff2ecd
@70d bb42ed5
@70e 51078bb62edd
@70f 10c78bb82ee5
@710 bba2eed
@711 bbc2ef5
@712 bbe2efd
@713 1261e4ac78bc02f05
@714 4987bfff2f09
@715 1107bfff2f0d
@716 49478bc42f15
@717 9878bc62f1d
@718 bc82f25
@719 10878bcafffd
@71a bcbfffd
@71b 3fff2f31
@71c bcdfffd
@71d bce2f3d
@71e 50c78bd0fffd
@71f bd1fffd
@720 ac78bd2fffd
@721 3fff2f4d
@722 bd4fffd
@723 bd52f59
@724 bd7fffd
@725 bd82f65
@726 bda2f6d
@727 bdc2f75
@728 bde2f7d
@729 3fff2f81
@72a be12f89
@72b be32f91
@72c be52f99
@72d be72fa1
@72e be92fa9
@72f beb2fb1
@730 bed2fb9
@731 bef2fc1
@732 bf12fc9
@733 bf32fd1
@734 bf52fd9
@735 bf72fe1
@736 bf9fffd
@737 bfa2fed
@738 9078bfc2ff5
@739 bfefffd
@73a bff3001
@73b c013009
@73c c033011
@73d c053019
@73e c073021
@73f c09fffd
@740 3fff3029
@741 3fff302d
@742 c0c3035
@743 78478c0e303d
@744 3847bffffffd
@745 50878c103045
@746 c12304d
@747 48c7bfff3051
@748 c15fffd
@749 c16305d
@74a 3fff3061
@74b c193069
@74c c1b3071
@74d c1d3079
@74e c1ffffd
@74f c203085
@750 c22fffd
@751 3fff308d
@752 c24fffd
@753 c253099
@754 c2730a1
@755 49c7bfff30a5
@756 c2a30ad
@757 3fff30b1
@758 c2d30b9
@759 49c78c2f30c1
@75a c31fffd
@75b c32fffd
@75c c33fffd
@75d c3430d5
@75e c3630dd
@75f c38fffd
@760 c3930e9
@761 c3b30f1
@762 1c11e71078c3d30f9
@763 30478c3f3101
@764 71478c413109
@765 c11e30c78c433111
@766 71478c453119
@767 c473121
@768 c493129
@769 c4b3131
@76a 3fff3135
@76b 3fff3139
@76c c4ffffd
@76d 9078c50fffd
@76e c513149
@76f c533151
@770 3fff3155
@771 c56fffd
@772 3fff315d
@773 6847bffffffd
@774 a21e29078c58fffd
@775 c59fffd
@776 c5a316d
@777 3fff3171
@778 c5d3179
@779 51878c5f3181
@77a c613189
@77b c633191
@77c 9878c653199
@77d c67fffd
@77e c6831a5
@77f c6a31ad
@780 c6cfffd
@781 11878c6d31b9
@782 3fff31bd
@783 c7031c5
@784 a11e28c78c7231cd
@785 c7431d5
@786 c7631dd
@787 c7831e5
@788 c7afffd
@789 c7bfffd
@78a c7c31f5
@78b c7efffd
@78c 4a07bfff31fd
@78d c80fffd
@78e 69478c813209
@78f c83fffd
@790 c843215
@791 c86321d
@792 3fff3221
@793 3fff3225
@794 50c78c8a322d
@795 29478c8c3235
@796 3fff3239
@797 c8f3241
@798 c913249
@799 3fff324d
@79a 1241e4a07bfff3251
@79b 3fff3255
@79c c96325d
@79d 3fff3261
@79e 1421e49c7bfff3265
@79f 3fff3269
@7a0 3fff326d
@7a1 c9c3275
@7a2 c9e327d
@7a3 ca03285
@7a4 3fff3289
@7a5 ca33291
@7a6 ca53299
@7a7 ca7fffd
@7a8 ca8fffd
@7a9 3fff32a5
@7aa caa32ad
@7ab cac32b5
@7ac cae32bd
@7ad cb0fffd
@7ae 3fff32c5
@7af cb232cd
@7b0 3fff32d1
@7b1 cb532d9
@7b2 9878cb732e1
@7b3 cb9fffd
@7b4 cbafffd
@7b5 cbbfffd
@7b6 3fff32f1
@7b7 cbdfffd
@7b8 cbe32fd
@7b9 3fff3301
@7ba 3fff3305
@7bb 3fff3309
@7bc 6847bfff330d
@7bd 2847bffffffd
@7be cc43315
@7bf cc6fffd
@7c0 68878cc73321
@7c1 6887bfff3325
@7c2 28878cca332d
@7c3 68c78ccc3335
@7c4 28878cce333d
@7c5 1a41e49878cd03345
@7c6 a478cd2ffff
@7c7 6847bffffffd
@7c8 2847bffffffd
@7c9 6847bffffffd
@7ca 28878cd33351
@7cb 3fff3355
@7cc 3fff3359
@7cd 69078cd73361
@7ce cd93369
@7cf cdb3371
@7d0 cdd3379
@7d1 6907bfff337d
@7d2 3fff3381
@7d3 ce13389
@7d4 ce3fffd
@7d5 ce4fffd
@7d6 ce5fffd
@7d7 3fff3399
@7d8 3fff339d
@7d9 ce8fffd
@7da ce933a9
@7db ceb33b1
@7dc ced33b9
@7dd 6887bffffffd
@7de 9878cef33c1
@7df cf133c9
@7e0 cf333d1
@7e1 3fff33d5
@7e2 cf633dd
@7e3 50c78cf833e5
@7e4 51878cfa33ed
@7e5 cfc33f5
@7e6 cfe33fd
@7e7 d00fffd
@7e8 3fff3405
@7e9 4a878d02340d
@7ea d043415
@7eb 3fff3419
@7ec d073421
@7ed d093429
@7ee d0b3431
@7ef d0d3439
@7f0 d0f3441
@7f1 3fff3445
@7f2 d12344d
@7f3 d14fffd
@7f4 3fff3455
@7f5 3fff3459
@7f6 d173461
@7f7 d193469
@7f8 d1b3471
@7f9 d1d3479
@7fa d1f3481
@7fb d213489
@7fc d233491
@7fd 1291e4a878d253499
@7fe d2734a1
@7ff 4ac78d2934a9
@800 d2b34b1
@801 d2d34b9
@802 d2f34c1
@803 d3134c9
@804 d3334d1
@805 d3534d9
@806 3fff34dd
@807 d38fffd
@808 d3934e9
@809 3fff34ed
@80a d3c34f5
@80b d3e34fd
@80c d403505
@80d 10878d42350d
@80e d443515
@80f d46351d
@810 d48fffd
@811 e61e0ac78d493529
@812 d4b3531
@813 d4d3539
@814 d4f3541
@815 d513549
@816 d533551
@817 d553559
@818 d573561
@819 d593569
@81a d5b3571
@81b d5d3579
@81c d5ffffd
@81d 10c78d603585
@81e d62358d
@81f d64fffd
@820 d653599
@821 52878d6735a1
@822 ac78d6935a9
@823 3fff35ad
@824 11878d6c35b5
@825 52878d6e35bd
@826 d70fffd
@827 3fff35c5
@828 d72fffd
@829 d7335d1
@82a d7535d9
@82b d7735e1
@82c d7935e9
@82d 3fff35ed
@82e 1a478d7c35f5
@82f d7efffd
@830 d7f3601
@831 51478d813609
@832 11078d833611
@833 d853619
@834 12078d873621
@835 1441e4a078d893629
@836 3fff362d
@837 3fff3631
@838 d8d3639
@839 3fff363d
@83a d903645
@83b 3fff3649
@83c d933651
@83d 231e09078d953659
@83e 3fff365d
@83f 3fff3661
@840 3fff3665
@841 a878d9a366d
@842 4a478d9c3675
@843 9478d9e367d
@844 da0fffd
@845 da1fffd
@846 da2368d
@847 da43695
@848 1211e49478da6369d
@849 9c78da8ffff
@84a 49478da936a9
@84b 221e0a078dabfffd
@84c dac36b5
@84d 3fff36b9
@84e daf36c1
@84f db136c9
@850 db3fffd
@851 59078db436d5
@852 db636dd
@853 3fff36e1
@854 db936e9
@855 3fff36ed
@856 dbcfffd
@857 dbd36f9
@858 dbf3701
@859 dc13709
@85a dc33711
@85b 3fff3715
@85c dc6371d
@85d 5a47bfff3721
@85e 3fff3725
@85f dca372d
@860 dccfffd
@861 dcd3739
@862 dcf3741
@863 dd1fffd
@864 dd2374d
@865 dd43755
@866 dd6375d
@867 9c78dd83765
@868 dda376d
@869 ddcfffd
@86a dddfffd
@86b 59878dde377d
@86c de0fffd
@86d 18c33ffffffd
@86e de1fffd
@86f de2fffd
@870 de33791
@871 de53799
@872 de737a1
@873 de937a9
@874 50478debfffd
@875 dec37b5
@876 dee37bd
@877 3fff37c1
@878 4a078df137c9
@879 9078df337d1
@87a 58c78df537d9
@87b 19878df737e1
@87c 1047bffffffd
@87d df937e9
@87e 19878dfb37f1
@87f dfd37f9
@880 3fff37fd
@881 e003805
@882 e02fffd
@883 e033811
@884 e05fffd
@885 3fff3819
@886 e073821
@887 e09fffd
@888 e0a382d
@889 e0c3835
@88a 58878e0e383d
@88b 19078e103845
@88c 420c11830e12384d
@88d e14fffd
@88e e15fffd
@88f 3fff3859
@890 e17fffd
@891 e183865
@892 3fff3869
@893 e1bfffd
@894 e1cfffd
@895 51878e1d3879
@896 e1f3881
@897 e213889
@898 3fff388d
@899 3fff3891
@89a 3fff3895
@89b 5187bfff3899
@89c 461e12878e2738a1
@89d e2938a9
@89e 48478e2b38b1
@89f e2dfffd
@8a0 e2efffd
@8a1 3fff38bd
@8a2 49c78e3038c5
@8a3 3fff38c9
@8a4 3fff38cd
@8a5 3fff38d1
@8a6 e3538d9
@8a7 e3738e1
@8a8 3fff38e5
@8a9 3fff38e9
@8aa e3bfffd
@8ab e3cfffd
@8ac e3d38f9
@8ad e3ffffd
@8ae e403905
@8af 3fff3909
@8b0 e43fffd
@8b1 e44fffd
@8b2 e453919
@8b3 3fff391d
@8b4 48c7bfff3921
@8b5 e493929
@8b6 e4b3931
@8b7 e4d3939
@8b8 e4ffffd
@8b9 3fff3941
@8ba 3fff3945
@8bb 3fff3949
@8bc e53fffd
@8bd 3fff3951
@8be e55fffd
@8bf e56fffd
@8c0 e57fffd
@8c1 3fff3961
@8c2 e593969
@8c3 e5b3971
@8c4 e5d3979
@8c5 a478e5f3981
@8c6 e613989
@8c7 a478e633991
@8c8 e653999
@8c9 e6739a1
@8ca 4ac78e6939a9
@8cb e6b39b1
@8cc e6d39b9
@8cd e6ffffd
@8ce 3fff39c1
@8cf 3fff39c5
@8d0 e7239cd
@8d1 e7439d5
@8d2 4a478e7639dd
@8d3 e7839e5
@8d4 e7a39ed
@8d5 291e0ac78e7c39f5
@8d6 e7e39fd
@8d7 e803a05
@8d8 e823a0d
@8d9 e843a15
@8da e86fffd
@8db 3fff3a1d
@8dc 48878e883a25
@8dd 22078e8a3a2d
@8de e8c3a35
@8df ac78e8e3a3d
@8e0 e903a45
@8e1 3fff3a49
@8e2 e933a51
@8e3 e953a59
@8e4 e973a61
@8e5 3fff3a65
@8e6 e9a3a6d
@8e7 3fff3a71
@8e8 e9d3a79
@8e9 e9f3a81
@8ea ea13a89
@8eb ea3fffd
@8ec ea4fffd
@8ed 271e0a878ea53a99
@8ee 8878ea73aa1
@8ef ea9fffd
@8f0 eaa3aad
@8f1 49878eac3ab5
@8f2 eae3abd
@8f3 eb0fffd
@8f4 eb1fffd
@8f5 eb2fffd
@8f6 3fff3acd
@8f7 9078eb4fffd
@8f8 eb5fffd
@8f9 eb6fffd
@8fa eb7fffd
@8fb eb8fffd
@8fc eb93ae9
@8fd 4947bfff3aed
@8fe ebcfffd
@8ff ebd3af9
@900 ebffffd
@901 4a478ec03b05
@902 ec23b0d
@903 58c78ec43b15
@904 ec63b1d
@905 5a478ec83b25
@906 eca3b2d
@907 ecc3b35
@908 9078ece3b3d
@909 ed0fffd
@90a ed1fffd
@90b ed2fffd
@90c ed33b51
@90d ed53b59
@90e 3fff3b5d
@90f ed83b65
@910 edafffd
@911 3fff3b6d
@912 3fff3b71
@913 edd3b79
@914 edf3b81
@915 ee1fffd
@916 ee2fffd
@917 ee3fffd
@918 49478ee43b95
@919 ee63b9d
@91a ee83ba5
@91b 8c78eea3bad
@91c 3fff3bb1
@91d eed3bb9
@91e eeffffd
@91f 651e19878ef03bc5
@920 58878ef23bcd
@921 ef43bd5
@922 ef63bdd
@923 631e19878ef83be5
@924 3fff3be9
@925 3fff3bed
@926 3fff3bf1
@927 58478efd3bf9
@928 1847bfff3bfd
@929 1611e48c78f003c05
@92a 1847bffffffd
@92b 1631e48478f02ffff
@92c f033c11
@92d 3fff3c15
@92e 1231e49478f063c1d
@92f 3fff3c21
@930 241e09478f093c29
@931 261e09c78f0bfffd
@932 f0c3c35
@933 f0e3c3d
@934 f103c45
@935 3fff3c49
@936 3fff3c4d
@937 3fff3c51
@938 f15fffd
@939 58878f16fffd
@93a 19c78f173c61
@93b f19fffd
@93c f1afffd
@93d 4847bffffffd
@93e f1b3c71
@93f 3fff3c75
@940 f1efffd
@941 3fff3c7d
@942 241e09878f203c85
@943 f223c8d
@944 3fff3c91
@945 3fff3c95
@946 f263c9d
@947 f28fffd
@948 f293ca9
@949 f2b3cb1
@94a f2d3cb9
@94b 48878f2f3cc1
@94c f313cc9
@94d f33fffd
@94e f34fffd
@94f f35fffd
@950 f363cdd
@951 f383ce5
@952 f3afffd
@953 22078f3b3cf1
@954 3fff3cf5
@955 3fff3cf9
@956 f3f3d01
@957 f413d09
@958 3fff3d0d
@959 f443d15
@95a f46fffd
@95b f473d21
@95c f49fffd
@95d 48c7bfff3d29
@95e 3fff3d2d
@95f f4c3d35
@960 3fff3d39
@961 f4ffffd
@962 3fff3d41
@963 f51fffd
@964 f523d4d
@965 f543d55
@966 4a478f563d5d
@967 3fff3d61
@968 3fff3d65
@969 3fff3d69
@96a 3fff3d6d
@96b 847bfff3d71
@96c 48c7bfff3d75
@96d f5efffd
@96e 3fff3d7d
@96f f603d85
@970 1241e4947bfff3d89
@971 f633d91
@972 3fff3d95
@973 f66fffd
@974 f673da1
@975 49078f693da9
@976 f6bfffd
@977 f6cfffd
@978 f6dfffd
@979 50c78f6e3dbd
@97a 9878f703dc5
@97b 431e11478f723dcd
@97c 1481e52478f743dd5
@97d 421e08878f76fffd
@97e f77fffd
@97f 20c78f783de5
@980 f7a3ded
@981 f7c3df5
@982 f7efffd
@983 f7f3e01
@984 f81fffd
@985 f82fffd
@986 f833e11
@987 49c78f853e19
@988 887bfff3e1d
@989 f883e25
@98a 3fff3e29
@98b 49878f8b3e31
@98c f8d3e39
@98d 431e11878f8f3e41
@98e f913e49
@98f f933e51
@990 5047bfff3e55
@991 f96fffd
@992 f97fffd
@993 1421e5187bfff3e61
@994 421e10c78f993e69
@995 50478f9b3e71
@996 f9dfffd
@997 1047bffffffd
@998 3fff3e79
@999 f9f3e81
@99a fa13e89
@99b fa3fffd
@99c 50478fa43e95
@99d 8878fa6ffff
@99e fa73ea1
@99f fa93ea9
@9a0 fab3eb1
@9a1 2047bfff3eb5
@9a2 faefffd
@9a3 faffffd
@9a4 3fff3ec1
@9a5 a478fb13ec9
@9a6 fb33ed1
@9a7 fb53ed9
@9a8 fb73ee1
@9a9 fb93ee9
@9aa fbb3ef1
@9ab 49478fbdffff
@9ac fbe3efd
@9ad 3fff3f01
@9ae 431e11078fc13f09
@9af 3fff3f0d
@9b0 fc43f15
@9b1 fc63f1d
@9b2 1241e49478fc83f25
@9b3 3887bffffffd
@9b4 fca3f2d
@9b5 3fff3f31
@9b6 3fff3f35
@9b7 fce3f3d
@9b8 fd0fffd
@9b9 9c78fd1fffd
@9ba 7947bfff3f49
@9bb ac78fd33f51
@9bc fd5fffd
@9bd 1421e50c78fd63f5d
@9be 421e10c78fd83f65
@9bf 50878fda3f6d
@9c0 10878fdc3f75
@9c1 fde3f7d
@9c2 1087bfff3f81
@9c3 50878fe13f89
@9c4 10878fe33f91
@9c5 50878fe53f99
@9c6 10878fe73fa1
@9c7 50878fe93fa9
@9c8 10878feb3fb1
@9c9 50878fed3fb9
@9ca 10878fef3fc1
@9cb 50878ff13fc9
@9cc 10878ff33fd1
@9cd ff53fd9
@9ce 10878ff73fe1
@9cf 50c78ff93fe9
@9d0 10c78ffb3ff1
@9d1 50c78ffd3ff9
@9d2 431e08c78fff4001
@9d3 10014009
@9d4 3fff400d
@9d5 1004fffd
@9d6 3fff4015
@9d7 1211e48879006401d
@9d8 10084025
@9d9 441e12c7900a402d
@9da 100cfffd
@9db 100d4039
@9dc 100f4041
@9dd 10114049
@9de 1e61e50c790134051
@9df 51079015ffff
@9e0 1016fffd
@9e1 48c790174061
@9e2 10194069
@9e3 101b4071
@9e4 101d4079
@9e5 101f4081
@9e6 1021fffd
@9e7 1022fffd
@9e8 10879023fffd
@9e9 10244095
@9ea 1026409d
@9eb 102840a5
@9ec 1047902a40ad
@9ed 102c40b5
@9ee 3fff40b9
@9ef 1431e5107902f40c1
@9f0 1421e50c7903140c9
@9f1 103340d1
@9f2 5187903540d9
@9f3 10879037fffd
@9f4 5087903840e5
@9f5 103a40ed
@9f6 103cfffd
@9f7 103dfffd
@9f8 48c7903e40fd
@9f9 8c790404105
@9fa 1042fffd
@9fb 10434111
@9fc 10454119
@9fd 3fff411d
@9fe 1048fffd
@9ff 10494129
@a00 1087bfff412d
@a01 4947904cffff
@a02 104d4139
@a03 4907904f4141
@a04 94790514149
@a05 1053fffd
@a06 1054fffd
@a07 3fff4155
@a08 3fff4159
@a09 10574161
@a0a 10594169
@a0b 105b4171
@a0c 105d4179
@a0d 3fff417d
@a0e 1060fffd
@a0f 10614189
@a10 1063fffd
@a11 198790644195
@a12 1066419d
@a13 106841a5
@a14 106afffd
@a15 106bfffd
@a16 106cfffd
@a17 106d41b9
@a18 106f41c1
@a19 3fff41c5
@a1a 1651e49c7907241cd
@a1b 231e0947907441d5
@a1c 1076fffd
@a1d 107741e1
@a1e 107941e9
@a1f 107b41f1
@a20 5987907d41f9
@a21 107f4201
@a22 1081fffd
@a23 3fff4209
@a24 10834211
@a25 10854219
@a26 231e09879087fffd
@a27 10884225
@a28 108a422d
@a29 108c4235
@a2a 108e423d
@a2b 3fff4241
@a2c 9479091ffff
@a2d 261e09c79092ffff
@a2e 10934251
@a2f 1095fffd
@a30 9079096425d
@a31 3fff4261
@a32 10994269
@a33 109bfffd
@a34 109cfffd
@a35 3fff4275
@a36 4847909e427d
@a37 3fff4281
@a38 3fff4285
@a39 118790a2428d
@a3a 5147bfff4291
@a3b 10a54299
@a3c 3fff429d
@a3d a4790a842a5
@a3e 10aa42ad
@a3f 1a4790ac42b5
@a40 10ae42bd
@a41 194790b042c5
@a42 10b2fffd
@a43 1651e59c790b342d1
@a44 48c790b542d9
@a45 8c790b742e1
@a46 48c790b942e9
@a47 8c790bb42f1
@a48 48c790bd42f9
@a49 8c790bf4301
@a4a 48c790c14309
@a4b 8c790c34311
@a4c 1611e48c790c54319
@a4d 8c790c74321
@a4e 10c94329
@a4f 8c790cb4331
@a50 48c790cd4339
@a51 8c790cf4341
@a52 10d14349
@a53 3fff434d
@a54 3fff4351
@a55 10d54359
@a56 10d7fffd
@a57 10d84365
@a58 10dafffd
@a59 3fff436d
@a5a 10dc4375
@a5b 10de437d
@a5c 10e04385
@a5d 10e2438d
@a5e 10e4fffd
@a5f 10e5fffd
@a60 794790e6439d
@a61 394790e8fffd
@a62 3fff43a5
@a63 10ea43ad
@a64 10ec43b5
@a65 10ee43bd
@a66 10f0fffd
@a67 10f143c9
@a68 10f343d1
@a69 10f543d9
@a6a 10f743e1
@a6b 3fff43e5
@a6c 421e10c790fa43ed
@a6d 10fc43f5
@a6e 3fff43f9
