@0 fe01
@1 2491efe05
@2 fe09
@3 2491efe0d
@4 3411efe11
@5 9047a4a1efe15
@6 2481efffd
@7 2481efffd
@8 2481efffd
@9 2481efffd
@a 2481efffd
@b 2481efffd
@c 2481efffd
@d 2481efffd
@e 3231e0dff
@f 2231e0fff
@10 3231e11ff
@11 2231e13ff
@12 2211efffd
@13 3211efffd
@14 2211efffd
@15 3211efffd
@16 2211efffd
@17 3211efffd
@18 2211efffd
@19 3211efffd
@1a 2211efffd
@1b 3211efffd
@1c 2211efffd
@1d 3211efffd
@1e 2211efffd
@1f 3211efffd
@20 2211efffd
@21 3211efffd
@22 2211efffd
@23 3211efffd
@24 2211efffd
@25 3211efffd
@26 2211efffd
@27 3211efffd
@28 2211efffd
@29 3211efffd
@2a 3211efffd
@2b 2211efffd
@2c 3211efffd
@2d 2211efffd
@2e 3211efffd
@2f 2211efffd
@30 3211efffd
@31 2211efffd
@32 3211efffd
@33 2211efffd
@34 211efffd
@35 1211efffd
@36 211efffd
@37 211efffd
@38 1211efffd
@39 1211efffd
@3a 211efffd
@3b 1211efffd
@3c 211efffd
@3d 1211efffd
@3e 211efffd
@3f 1211efffd
@40 1211efffd
@41 211efffd
@42 1211efffd
@43 fe29
@44 50479441e1631
@45 1a39
@46 211efe3d
@47 1221e2045
@48 244d
@49 10878211e2855
@4a 1211efffd
@4b 211efffd
@4c 1211efffd
@4d 1211efffd
@4e 211efffd
@4f 1211efffd
@50 211efffd
@51 1211efffd
@52 1211efffd
@53 211efffd
@54 1211efffd
@55 1211efffd
@56 211efffd
@57 1211efffd
@58 1211efffd
@59 211efffd
@5a 211efffd
@5b 211efffd
@5c 211efffd
@5d 1211efffd
@5e 211efffd
@5f 1211efffd
@60 211efffd
@61 1211efffd
@62 211efffd
@63 1211efffd
@64 211efffd
@65 211efffd
@66 1211efffd
@67 211efffd
@68 1211efffd
@69 1211efffd
@6a 211efffd
@6b 1211efffd
@6c 211efffd
@6d 211efffd
@6e 211efffd
@6f 211efffd
@70 211efffd
@71 1211efffd
@72 1211efffd
@73 211efffd
@74 2c5d
@75 31fd
@76 10478221efe65
@77 fe69
@78 411efffd
@79 411efffd
@7a 1211efffd
@7b 211efffd
@7c 1211efffd
@7d 211efffd
@7e 1211efffd
@7f 211efffd
@80 1211efffd
@81 211efffd
@82 1211efffd
@83 211efffd
@84 1211efffd
@85 211efffd
@86 1211efffd
@87 211efffd
@88 1211efffd
@89 211efffd
@8a 1211efffd
@8b 211efffd
@8c 1211efffd
@8d 1211efffd
@8e 1211efffd
@8f 211efffd
@90 1621e3671
@91 621e3a79
@92 621e3e81
@93 1241efe85
@94 221e448d
@95 fe91
@96 4bfd
@97 211efffd
@98 1211efffd
@99 211efffd
@9a 1211efffd
@9b 211efffd
@9c 211efffd
@9d 1211efffd
@9e 211efffd
@9f 1211efffd
@a0 211efffd
@a1 1211efffd
@a2 211efffd
@a3 1211efffd
@a4 211efffd
@a5 1211efffd
@a6 211efffd
@a7 1211efffd
@a8 211efffd
@a9 1211efffd
@aa 211efffd
@ab 211efffd
@ac 211efffd
@ad 1211efffd
@ae 1211efffd
@af 211efffd
@b0 1211efffd
@b1 1211efffd
@b2 1211efffd
@b3 48479221efe99
@b4 211efffd
@b5 211efffd
@b6 1211efffd
@b7 211efffd
@b8 211efffd
@b9 1211efffd
@ba 1211efffd
@bb 211efffd
@bc 211efffd
@bd 211efffd
@be 1211efffd
@bf 211efffd
@c0 1211efffd
@c1 211efffd
@c2 1211efffd
@c3 211efffd
@c4 1211efffd
@c5 1211efffd
@c6 211efffd
@c7 211efffd
@c8 1211efffd
@c9 211efffd
@ca 1211efffd
@cb 211efffd
@cc 1211efffd
@cd 211efffd
@ce 211efffd
@cf 1211efffd
@d0 211efffd
@d1 1211efffd
@d2 1211efffd
@d3 211efffd
@d4 1211efffd
@d5 211efffd
@d6 211efffd
@d7 1211efffd
@d8 211efffd
@d9 211efffd
@da 211efffd
@db 211efffd
@dc 1211efffd
@dd 211efffd
@de 211efffd
@df 1211efffd
@e0 211efffd
@e1 211efffd
@e2 1211efffd
@e3 211efffd
@e4 1211efffd
@e5 211efffd
@e6 1211efffd
@e7 1211efffd
@e8 211efffd
@e9 211efffd
@ea 211efffd
@eb 1211efffd
@ec 211efffd
@ed 1211efffd
@ee 1211efffd
@ef 211efffd
@f0 1211efffd
@f1 211efffd
@f2 1211efffd
@f3 211efffd
@f4 1211efffd
@f5 211efffd
@f6 1211efffd
@f7 211efffd
@f8 211efffd
@f9 1211efffd
@fa 211efffd
@fb 211efffd
@fc 1211efffd
@fd 211efffd
@fe 211efffd
@ff 1431efffd
@100 4ffd
@101 51fd
@102 52a9
