0  10437     0 10436     0     0 10436
1  10434     0 10434     0     0 10435
2  10432     0  7841  2590     0 10432
3  10430     0  9177  1252     0 10430
4  10427     0  7210  3217     0 10428
5  10425     0  7017  3407     0 10425
6  10422     0  7855  2567     0 10423
7  10421     0  8194  2226     0 10420
8  10420     0  7832  2587   312 10107
9  10107     0  7593  2513   116  9990
10  9989     0  7286  2703   289  9700
11  9700     0  6917  2783   439  9261
12  9260     0  6353  2906   644  8615
13  8613     0  5761  2852   847  7766
14  7763     0  5075  2688   799  6964
15  6947     0  4157  2790   730  6217
16  6195     0  3630  2565   810  5385
17  5351     0  2966  2384   927  4423
18  4371     0  2228  2143   848  3523
19  3476     0  1653  1823   882  2594
20  2536     0  1022  1514   773  1763
21  1712     0   579  1133   827   885
22   850     0   104   746   663   187
23   177     0    15   162   136    41
24    37     0     3    34    21    16
25    13     0     0    13    11     2
26     2     0     0     2     2     0
27     0     0     0     0     0     0
28     0     0     0     0     0     0
29     0     0     0     0     0     0
