@0 5
@1 2fffd
@2 3fffd
@3 40015
@4 3fff0019
@5 3fff001d
@6 8fffd
@7 9fffd
@8 3fff0029
@9 bfffd
@a 3fff0031
@b 3fff0035
@c efffd
@d ffffd
@e 10fffd
@f 3fff0045
@10 890f0012004d
@11 14fffd
@12 150059
@13 17fffd
@14 3fff0061
@15 19fffd
@16 1a006d
@17 1c0075
@18 1e007d
@19 3fff0081
@1a d0bfbffffffd
@1b 210089
@1c 23fffd
@1d 24fffd
@1e 3fff0095
@1f 26fffd
@20 2700a1
@21 3fff00a5
@22 3fff00a9
@23 3fff00ad
@24 2c00b5
@25 2efffd
@26 2ffffd
@27 3fff00c1
@28 3100c9
@29 88ff8033fffd
@2a 917fbffffffd
@2b 34fffd
@2c 3fff00d5
@2d c87f8036fffd
@2e 88ff803700e1
@2f 39fffd
@30 3fff00e9
@31 3fff00ed
@32 3cfffd
@33 3dfffd
@34 3efffd
@35 3ffffd
@36 3fff0101
@37 410109
@38 43fffd
@39 3fff0111
@3a 3fff0115
@3b 3fff0119
@3c 470121
@3d 49fffd
@3e 3fff0129
@3f 4b0131
@40 4d0139
@41 4ffffd
@42 500145
@43 3fff0149
@44 53fffd
@45 540155
@46 3fff0159
@47 57fffd
@48 58fffd
@49 3fff0165
@4a d07fbffffffd
@4b 3fff0169
@4c 3fff016d
@4d 5c0175
@4e 5efffd
@4f 5ffffd
@50 3fff0181
@51 61fffd
@52 3fff0189
@53 63fffd
@54 3fff0191
@55 3fff0195
@56 d0ffbfff0199
@57 6701a1
@58 3fff01a5
@59 6afffd
@5a 6bfffd
@5b 6cfffd
@5c 6dfffd
@5d 6efffd
@5e 3fff01bd
@5f 7001c5
@60 c8ffbfff01c9
@61 7301d1
@62 75fffd
@63 3fff01d9
@64 3fff01dd
@65 88bf807801e5
@66 7afffd
@67 3fff01ed
@68 3fff01f1
@69 7dfffd
@6a 90bf807e01fd
@6b 80fffd
@6c 810209
@6d 83fffd
@6e 3fff0211
@6f 850219
@70 913f80870221
@71 3fff0225
@72 8a022d
@73 3fff0231
@74 d08f3ffffffd
@75 908f3ffffffd
@76 3fff0235
@77 8efffd
@78 3fff023d
@79 90fffd
@7a 3fff0245
@7b 92fffd
@7c d0bfbffffffd
@7d 93fffd
@7e 3fff0251
@7f 95fffd
@80 3fff0259
@81 970261
@82 990269
@83 9bfffd
@84 9cfffd
@85 d17fbfff0275
@86 3fff0279
@87 93bfbffffffd
@88 9ffffd
@89 d0bfbfff0281
@8a a10289
@8b a3fffd
@8c 3fff0291
@8d a5fffd
@8e a6029d
@8f a8fffd
@90 a902a9
@91 3fff02ad
@92 3fff02b1
@93 3fff02b5
@94 3fff02b9
@95 3fff02bd
@96 b0fffd
@97 3fff02c5
@98 d07f80b2fffd
@99 b302d1
@9a 3fff02d5
@9b b602dd
@9c b8fffd
@9d 3fff02e5
@9e bafffd
@9f bbfffd
@a0 bcfffd
@a1 3fff02f5
@a2 3fff02f9
@a3 3fff02fd
@a4 c0fffd
@a5 c10309
@a6 c30311
@a7 c5fffd
@a8 3fff0319
@a9 939f00c70321
@aa c90329
@ab cb0331
@ac 93bf80cdfffd
@ad cefffd
@ae cffffd
@af d00345
@b0 3fff0349
@b1 3fff034d
@b2 3fff0351
@b3 d5fffd
@b4 913fbffffffd
@b5 3fff0359
@b6 3fff035d
@b7 d8fffd
@b8 d9fffd
@b9 3fff0369
@ba dbfffd
@bb dcfffd
@bc 3fff0375
@bd defffd
@be df0381
@bf e10389
@c0 e3fffd
@c1 3fff0391
@c2 e50399
@c3 3fff039d
@c4 3fff03a1
@c5 e9fffd
@c6 3fff03a9
@c7 ebfffd
@c8 3fff03b1
@c9 edfffd
@ca ee03bd
@cb f003c5
@cc d17f80f203cd
@cd f403d5
@ce f603dd
@cf 917f80f803e5
@d0 fafffd
@d1 fbfffd
@d2 fc03f5
@d3 fefffd
@d4 3fff03fd
@d5 3fff0401
@d6 3fff0405
@d7 102fffd
@d8 3fff040d
@d9 1040415
@da 3fff0419
@db 107fffd
@dc 3fff0421
@dd 1090429
@de 10b0431
@df 10d0439
@e0 10ffffd
@e1 110fffd
@e2 111fffd
@e3 112044d
@e4 d0ff41140455
@e5 242fd90ff4116045d
@e6 1180465
@e7 11a046d
@e8 3fff0471
@e9 11d0479
@ea 11ffffd
@eb 1200485
@ec 122fffd
@ed 3fff048d
@ee 124fffd
@ef 125fffd
@f0 126fffd
@f1 127fffd
@f2 12804a5
@f3 3fff04a9
@f4 12b04b1
@f5 12d04b9
@f6 12f04c1
@f7 13104c9
@f8 13304d1
@f9 13504d9
@fa 13704e1
@fb 13904e9
@fc 13b04f1
@fd 13dfffd
@fe 13efffd
@ff 13f0501
@100 1410509
@101 1430511
@102 1450519
@103 147fffd
@104 148fffd
@105 149fffd
@106 14afffd
@107 3fff052d
@108 14cfffd
@109 3fff0535
@10a 14e053d
@10b d17f81500545
@10c 152fffd
@10d 3fff054d
@10e 93bf8154fffd
@10f 1550559
@110 d07fbffffffd
@111 157fffd
@112 1580565
@113 15a056d
@114 15c0575
@115 15e057d
@116 1600585
@117 93bf8162058d
@118 1640595
@119 166059d
@11a 16805a5
@11b 16a05ad
@11c 3fff05b1
@11d 16d05b9
@11e d13fbfff05bd
@11f 17005c5
@120 17205cd
@121 17405d5
@122 176fffd
@123 913f817705e1
@124 17905e9
@125 17bfffd
@126 17c05f5
@127 17e05fd
@128 d0ff8180fffd
@129 1810609
@12a 1830611
@12b 185fffd
@12c 186fffd
@12d 1870621
@12e 189fffd
@12f 18afffd
@130 18bfffd
@131 18c0635
@132 18e063d
@133 d0bfbffffffd
@134 1900645
@135 192064d
@136 194fffd
@137 d0943ffffffd
@138 1950659
@139 93bf81970661
@13a 1990669
@13b 3fff066d
@13c 19cfffd
@13d 19d0679
@13e 3fff067d
@13f 1a00685
@140 907f7ffffffd
@141 3fff0689
@142 1a30691
@143 938f3fff0695
@144 1a6069d
@145 d10f01a8fffd
@146 1a906a9
@147 241fe90ff81ab06b1
@148 1adfffd
@149 3fff06b9
@14a 1affffd
@14b 93bf81b0fffd
@14c 3fff06c5
@14d 1b2fffd
@14e 1b3fffd
@14f d17f81b406d5
@150 d17f81b606dd
@151 914801b806e5
@152 1ba06ed
@153 1bc06f5
@154 1befffd
@155 1bf0701
@156 1c10709
@157 90ff81c30711
@158 1c50719
@159 3fff071d
@15a 3fff0721
@15b 1c90729
@15c 1cb0731
@15d 3fff0735
@15e 1ce073d
@15f 1d0fffd
@160 3fff0745
@161 88ff81d2074d
@162 3fff0751
@163 3fff0755
@164 3fff0759
@165 1d70761
@166 1d9fffd
@167 3fff0769
@168 3fff076d
@169 3fff0771
@16a 1ddfffd
@16b 1de077d
@16c 1e00785
@16d 1e2078d
@16e 1e40795
@16f 1e6079d
@170 1e807a5
@171 1ea07ad
@172 3fff07b1
@173 3fff07b5
@174 d13f81ee07bd
@175 3fff07c1
@176 1f1fffd
@177 1f2fffd
@178 1f307d1
@179 1f5fffd
@17a 1f607dd
@17b 3fff07e1
@17c 3fff07e5
@17d 90bfbffffffd
@17e 3fff07e9
@17f 3fff07ed
@180 1fc07f5
@181 3fff07f9
@182 1fffffd
@183 93bf82000805
@184 907f7fff0809
@185 203fffd
@186 3fff0811
@187 2050819
@188 2070821
@189 2090829
@18a 20bfffd
@18b 20c0835
@18c 20e083d
@18d 2100845
@18e 3fff0849
@18f 2130851
@190 d13fbfff0855
@191 216085d
@192 2180865
@193 3fff0869
@194 21b0871
@195 21d0879
@196 3fff087d
@197 220fffd
@198 221fffd
@199 222088d
@19a 224fffd
@19b 2250899
@19c 22708a1
@19d 917f822908a9
@19e 3fff08ad
@19f 22cfffd
@1a0 3fff08b5
@1a1 22e08bd
@1a2 230fffd
@1a3 23108c9
@1a4 233fffd
@1a5 234fffd
@1a6 3fff08d5
@1a7 23608dd
@1a8 d0ff823808e5
@1a9 23a08ed
@1aa 23c08f5
@1ab 23e08fd
@1ac 2400905
@1ad 242090d
@1ae 2440915
@1af 246091d
@1b0 2480925
@1b1 24afffd
@1b2 3fff092d
@1b3 24c0935
@1b4 24efffd
@1b5 24ffffd
@1b6 2500945
@1b7 252fffd
@1b8 2530951
@1b9 2550959
@1ba 2570961
@1bb 2590969
@1bc 3fff096d
@1bd 3fff0971
@1be 25d0979
@1bf 25ffffd
@1c0 260fffd
@1c1 3fff0985
@1c2 d17f8262098d
@1c3 93bf8264fffd
@1c4 3fff0995
@1c5 3fff0999
@1c6 267fffd
@1c7 3fff09a1
@1c8 3fff09a5
@1c9 26afffd
@1ca 3fff09ad
@1cb 26c09b5
@1cc 26efffd
@1cd 26ffffd
@1ce 3fff09c1
@1cf 3fff09c5
@1d0 272fffd
@1d1 273fffd
@1d2 3fff09d1
@1d3 3fff09d5
@1d4 276fffd
@1d5 277fffd
@1d6 d13f8278fffd
@1d7 279fffd
@1d8 3fff09e9
@1d9 27b09f1
@1da 27d09f9
@1db 27ffffd
@1dc 3fff0a01
@1dd 3fff0a05
@1de 3fff0a09
@1df 283fffd
@1e0 2840a15
@1e1 2860a1d
@1e2 3fff0a21
@1e3 3fff0a25
@1e4 3fff0a29
@1e5 904f3fff0a2d
@1e6 90ff828cfffd
@1e7 d07fbffffffd
@1e8 28dfffd
@1e9 3fff0a39
@1ea 3fff0a3d
@1eb 3fff0a41
@1ec 291fffd
@1ed 3fff0a49
@1ee 293fffd
@1ef 3fff0a51
@1f0 2950a59
@1f1 297fffd
@1f2 3fff0a61
@1f3 2990a69
@1f4 3fff0a6d
@1f5 3fff0a71
@1f6 29d0a79
@1f7 29f0a81
@1f8 2a10a89
@1f9 d17f82a30a91
@1fa 2a5fffd
@1fb 2a6fffd
@1fc 2a7fffd
@1fd 2a8fffd
@1fe 3fff0aa5
@1ff 3fff0aa9
@200 3fff0aad
@201 3fff0ab1
@202 2ad0ab9
@203 d0ffbfff0abd
@204 3fff0ac1
@205 3fff0ac5
@206 910f02b2fffd
@207 3fff0acd
@208 93bfbffffffd
@209 2b4fffd
@20a 917f82b5fffd
@20b 3fff0ad9
@20c 3fff0add
@20d 3fff0ae1
@20e 2b9fffd
@20f 2bafffd
@210 2bb0af1
@211 2bd0af9
@212 3fff0afd
@213 2c00b05
@214 90ff82c20b0d
@215 3fff0b11
@216 913f82c5fffd
@217 917fbfff0b19
@218 3fff0b1d
@219 244fe93bf82c80b25
@21a 2cafffd
@21b 2cbfffd
@21c 2cc0b35
@21d 3fff0b39
@21e 242fd90ff42cffffd
@21f 2d0fffd
@220 3fff0b45
@221 2d2fffd
@222 2d3fffd
@223 d17fbffffffd
@224 2d40b55
@225 2d60b5d
@226 3fff0b61
@227 2d9fffd
@228 3fff0b69
@229 3fff0b6d
@22a 2dc0b75
@22b 3fff0b79
@22c 2dffffd
@22d d07fbffffffd
@22e d10f02e0fffd
@22f 2e10b89
@230 2e30b91
@231 90cf3fff0b95
@232 2e6fffd
@233 2e70ba1
@234 938802e90ba9
@235 3fff0bad
@236 3fff0bb1
@237 2edfffd
@238 2eefffd
@239 913f42effffd
@23a 2f00bc5
@23b 2f20bcd
@23c 3fff0bd1
@23d 907f82f5fffd
@23e 909c02f60bdd
@23f d07fbffffffd
@240 3fff0be1
@241 2f90be9
@242 2fb0bf1
@243 2fdfffd
@244 2fefffd
@245 3fff0bfd
@246 d07f8300fffd
@247 917f8301fffd
@248 3fff0c09
@249 303fffd
@24a 3fff0c11
@24b 3fff0c15
@24c 3060c1d
@24d 3080c25
@24e 3fff0c29
@24f 30b0c31
@250 30dfffd
@251 30efffd
@252 3fff0c3d
@253 90ff8310fffd
@254 3fff0c45
@255 3120c4d
@256 3fff0c51
@257 3150c59
@258 3170c61
@259 3190c69
@25a 3fff0c6d
@25b 3fff0c71
@25c 3fff0c75
@25d 3fff0c79
@25e 31f0c81
@25f 3210c89
@260 907fbffffffd
@261 323fffd
@262 907f8324fffd
@263 325fffd
@264 3260c9d
@265 3fff0ca1
@266 329fffd
@267 3fff0ca9
@268 32b0cb1
@269 3fff0cb5
@26a 3fff0cb9
@26b d07f832ffffd
@26c 241fd90bf4330fffd
@26d 90437ffffffd
@26e 3fff0cc5
@26f 332fffd
@270 333fffd
@271 3fff0cd1
@272 335fffd
@273 3fff0cd9
@274 913f83370ce1
@275 d13f83390ce9
@276 33b0cf1
@277 33d0cf9
@278 33ffffd
@279 3fff0d01
@27a 3fff0d05
@27b 3fff0d09
@27c 343fffd
@27d 3fff0d11
@27e 3450d19
@27f 3470d21
@280 3490d29
@281 34b0d31
@282 34d0d39
@283 34f0d41
@284 3fff0d45
@285 3520d4d
@286 907fbffffffd
@287 d0837ffffffd
@288 3fff0d51
@289 3550d59
@28a d17fbfff0d5d
@28b 3fff0d61
@28c 359fffd
@28d c93fbfff0d69
@28e 3fff0d6d
@28f 3fff0d71
@290 35dfffd
@291 35e0d7d
@292 3600d85
@293 3fff0d89
@294 3630d91
@295 3fff0d95
@296 3fff0d99
@297 3fff0d9d
@298 917f8368fffd
@299 893f83690da9
@29a 36bfffd
@29b 36cfffd
@29c d13fbfff0db5
@29d 3fff0db9
@29e 36ffffd
@29f 904f3fff0dc1
@2a0 3fff0dc5
@2a1 372fffd
@2a2 3fff0dcd
@2a3 374fffd
@2a4 341fed0ffbfff0dd5
@2a5 376fffd
@2a6 377fffd
@2a7 341fed0ff83780de5
@2a8 93bf837afffd
@2a9 37bfffd
@2aa 37cfffd
@2ab 917f837dfffd
@2ac 3fff0df9
@2ad 3fff0dfd
@2ae 380fffd
@2af 3fff0e05
@2b0 90ff8382fffd
@2b1 383fffd
@2b2 3fff0e11
@2b3 385fffd
@2b4 386fffd
@2b5 d07fbfff0e1d
@2b6 904f3ffffffd
@2b7 d0bf8388fffd
@2b8 3fff0e25
@2b9 904d7ffffffd
@2ba d0ff7fff0e29
@2bb 38bfffd
@2bc d0bfbfff0e31
@2bd 907fbfff0e35
@2be d07f838efffd
@2bf 3fff0e3d
@2c0 3fff0e41
@2c1 391fffd
@2c2 93bf83920e4d
@2c3 3fff0e51
@2c4 3fff0e55
@2c5 3960e5d
@2c6 398fffd
@2c7 d07fbffffffd
@2c8 3990e69
@2c9 3fff0e6d
@2ca d07f839cfffd
@2cb 3fff0e75
@2cc 3fff0e79
@2cd 914d839ffffd
@2ce 3a0fffd
@2cf 3a1fffd
@2d0 3fff0e89
@2d1 907fbffffffd
@2d2 93bf83a30e91
@2d3 3a50e99
@2d4 3a7fffd
@2d5 3a8fffd
@2d6 d14f83a90ea9
@2d7 3fff0ead
@2d8 3fff0eb1
@2d9 3adfffd
@2da 3fff0eb9
@2db 3af0ec1
@2dc 3b10ec9
@2dd 3b3fffd
@2de 341fdd0bf7fff0ed1
@2df 907fbffffffd
@2e0 3fff0ed5
@2e1 3b60edd
@2e2 907f83b8fffd
@2e3 3b90ee9
@2e4 3bbfffd
@2e5 3bc0ef5
@2e6 3fff0ef9
@2e7 3bf0f01
@2e8 910f03c10f09
@2e9 3c3fffd
@2ea 3fff0f11
@2eb 3c5fffd
@2ec c87f83c6fffd
@2ed 88ffbfff0f1d
@2ee d17fbffffffd
@2ef 3c8fffd
@2f0 3fff0f25
@2f1 93bf83ca0f2d
@2f2 3ccfffd
@2f3 3fff0f35
@2f4 3cefffd
@2f5 3fff0f3d
@2f6 3d0fffd
@2f7 3d1fffd
@2f8 3d20f4d
@2f9 3d40f55
@2fa 917f83d60f5d
@2fb 3d80f65
@2fc 3da0f6d
@2fd 3dc0f75
@2fe 3de0f7d
@2ff 3fff0f81
@300 3e10f89
@301 3e30f91
@302 3fff0f95
@303 d08343e6ffff
@304 3e70fa1
@305 93bfbffffffd
@306 3e90fa9
@307 3ebfffd
@308 3fff0fb1
@309 3ed0fb9
@30a 3fff0fbd
@30b 3f0fffd
@30c 3fff0fc5
@30d 3fff0fc9
@30e 3fff0fcd
@30f 3fff0fd1
@310 d0ffbffffffd
@311 907f83f50fd9
@312 3f7fffd
@313 3fff0fe1
@314 3f9fffd
@315 3fafffd
@316 3fbfffd
@317 3fc0ff5
@318 3fe0ffd
@319 3fff1001
@31a 4011009
@31b 907fbfff100d
@31c 4041015
@31d 406101d
@31e 3fff1021
@31f 3fff1025
@320 3fff1029
@321 40bfffd
@322 40cfffd
@323 907f840dfffd
@324 d07fbfff1039
@325 907fbffffffd
@326 90437ffffffd
@327 40ffffd
@328 4101045
@329 412fffd
@32a 413fffd
@32b 3fff1051
@32c 3fff1055
@32d 3fff1059
@32e 3fff105d
@32f 418fffd
@330 419fffd
@331 41afffd
@332 d0bfbfff106d
@333 3fff1071
@334 90bfbfff1075
@335 d07fbffffffd
@336 3fff1079
@337 3fff107d
@338 4201085
@339 d07f8422fffd
@33a 3fff108d
@33b 907fbffffffd
@33c 3fff1091
@33d 4251099
@33e 427fffd
@33f 428fffd
@340 429fffd
@341 9111842a10ad
@342 42c10b5
@343 42e10bd
@344 430fffd
@345 431fffd
@346 3fff10c9
@347 43310d1
@348 43510d9
@349 43710e1
@34a 3fff10e5
@34b 43a10ed
@34c 3fff10f1
@34d 43d10f9
@34e 90ff843ffffd
@34f d04f3ffffffd
@350 3fff1101
@351 3fff1105
@352 442110d
@353 3fff1111
@354 3fff1115
@355 90ff8446fffd
@356 447fffd
@357 3fff1121
@358 4491129
@359 907fbffffffd
@35a 44b1131
@35b 907fbffffffd
@35c 44d1139
@35d 44f1141
@35e 245fe91bf84511149
@35f 453fffd
@360 3fff1151
@361 914f04551159
@362 457fffd
@363 d17fbfff1161
@364 459fffd
@365 45a116d
@366 90bf845c1175
@367 3fff1179
@368 3fff117d
@369 4601185
@36a 3fff1189
@36b 463fffd
@36c 464fffd
@36d 3fff1195
@36e d04f3ffffffd
@36f 466119d
@370 46811a5
@371 46a11ad
@372 46c11b5
@373 3fff11b9
@374 93bfbffffffd
@375 46ffffd
@376 47011c5
@377 47211cd
@378 474fffd
@379 475fffd
@37a d07fbffffffd
@37b 476fffd
@37c 47711e1
@37d 3fff11e5
@37e d07fbffffffd
@37f 3fff11e9
@380 47bfffd
@381 3fff11f1
@382 3fff11f5
@383 d14f047e11fd
@384 4801205
@385 3fff1209
@386 483fffd
@387 484fffd
@388 93bf8485fffd
@389 3fff1219
@38a 4871221
@38b 3fff1225
@38c 48afffd
@38d 3fff122d
@38e 3fff1231
@38f 48d1239
@390 48f1241
@391 3fff1245
@392 3fff1249
@393 493fffd
@394 3fff1251
@395 3fff1255
@396 496fffd
@397 4971261
@398 3fff1265
@399 49a126d
@39a 49cfffd
@39b 3fff1275
@39c 49e127d
@39d 4a01285
@39e 3fff1289
@39f 4a3fffd
@3a0 4a4fffd
@3a1 3fff1295
@3a2 3fff1299
@3a3 3fff129d
@3a4 3fff12a1
@3a5 4a9fffd
@3a6 3fff12a9
@3a7 93bf84abfffd
@3a8 3fff12b1
@3a9 4ad12b9
@3aa 3fff12bd
@3ab 3fff12c1
@3ac 3fff12c5
@3ad 4b2fffd
@3ae 3fff12cd
@3af 4b4fffd
@3b0 4b5fffd
@3b1 4b6fffd
@3b2 4b712e1
@3b3 4b912e9
@3b4 4bbfffd
@3b5 4bc12f5
@3b6 917f84befffd
@3b7 3fff12fd
@3b8 4c0fffd
@3b9 221fe88bf84c11309
@3ba 3fff130d
@3bb 3fff1311
@3bc 90ff84c5fffd
@3bd d07fbfff1319
@3be 3fff131d
@3bf 3fff1321
@3c0 3fff1325
@3c1 4cafffd
@3c2 3fff132d
@3c3 4cc1335
@3c4 3fff1339
@3c5 d0bfbffffffd
@3c6 4cf1341
@3c7 4d1fffd
@3c8 907fbffffffd
@3c9 4d2134d
@3ca 4d41355
@3cb 4d6135d
@3cc 3fff1361
@3cd 241fe917fbfff1365
@3ce 3fff1369
@3cf 90bf84db1371
@3d0 4ddfffd
@3d1 907f84de137d
@3d2 3fff1381
@3d3 3fff1385
@3d4 3fff1389
@3d5 4e3fffd
@3d6 4e4fffd
@3d7 4e5fffd
@3d8 242fe90ff84e6139d
@3d9 d0ffbfff13a1
@3da 907f84e9fffd
@3db 90bf84ea13ad
@3dc 3fff13b1
@3dd 93bf84edffff
@3de 4ee13bd
@3df 3fff13c1
@3e0 4f1fffd
@3e1 4f2fffd
@3e2 907fbfff13cd
@3e3 4f4fffd
@3e4 8c3fbffffffd
@3e5 d0bfbfff13d5
@3e6 3fff13d9
@3e7 3fff13dd
@3e8 d0ff84f813e5
@3e9 90ff84fa13ed
@3ea d0ff84fc13f5
@3eb 90ff84fe13fd
@3ec 93bf85001405
@3ed 90bf8502140d
@3ee d07fbfff1411
@3ef c8ffbffffffd
@3f0 d0ff85051419
@3f1 507fffd
@3f2 3fff1421
@3f3 243fe93bf85091429
@3f4 d13f850b1431
@3f5 90bf850d1439
@3f6 d17f850f1441
@3f7 913f85111449
@3f8 5131451
@3f9 90bf8515fffd
@3fa d0ffbffffffd
@3fb 3fff1459
@3fc 3fff145d
@3fd d0bf85181465
@3fe d07fbffffffd
@3ff 907fbfff1469
@400 3fff146d
@401 3fff1471
@402 51dfffd
@403 90bf851e147d
@404 90bf85201485
@405 93bfbffffffd
@406 522fffd
@407 3fff148d
@408 3fff1491
@409 3fff1495
@40a 526fffd
@40b 527fffd
@40c 528fffd
@40d 529fffd
@40e 3fff14a9
@40f 52bfffd
@410 3fff14b1
@411 52d14b9
@412 52f14c1
@413 53114c9
@414 3fff14cd
@415 534fffd
@416 3fff14d5
@417 536fffd
@418 3fff14dd
@419 88ff8538fffd
@41a 3fff14e5
@41b 53a14ed
@41c 53c14f5
@41d 53efffd
@41e 3fff14fd
@41f c93fbfff1501
@420 3fff1505
@421 542fffd
@422 543fffd
@423 3fff1511
@424 5451519
@425 3fff151d
@426 3fff1521
@427 549fffd
@428 3fff1529
@429 54bfffd
@42a 54cfffd
@42b 3fff1535
@42c 54efffd
@42d 54ffffd
@42e 90bfbfff1541
@42f 551fffd
@430 552fffd
@431 553fffd
@432 554fffd
@433 555fffd
@434 556fffd
@435 557fffd
@436 558fffd
@437 5591569
@438 55bfffd
@439 55cfffd
@43a 3fff1575
@43b 55efffd
@43c 55ffffd
@43d 3fff1581
@43e 561fffd
@43f 562fffd
@440 563fffd
@441 3fff1591
@442 565fffd
@443 566fffd
@444 3fff159d
@445 568fffd
@446 3fff15a5
@447 d17fbfff15a9
@448 56bfffd
@449 3fff15b1
@44a 56d15b9
@44b 56ffffd
@44c 3fff15c1
@44d 571fffd
@44e 572fffd
@44f 573fffd
@450 3fff15d1
@451 3fff15d5
@452 3fff15d9
@453 57715e1
@454 3fff15e5
@455 3fff15e9
@456 3fff15ed
@457 3fff15f1
@458 3fff15f5
@459 57efffd
@45a 3fff15fd
@45b 580fffd
@45c 581fffd
@45d 93bf8582fffd
@45e 583fffd
@45f 913f4584fffd
@460 3fff1615
@461 3fff1619
@462 587fffd
@463 3fff1621
@464 589fffd
@465 58afffd
@466 3fff162d
@467 3fff1631
@468 3fff1635
@469 3fff1639
@46a 58ffffd
@46b 3fff1641
@46c 3fff1645
@46d 592164d
@46e 5941655
@46f 596fffd
@470 3fff165d
@471 598fffd
@472 3fff1665
@473 3fff1669
@474 59bfffd
@475 3fff1671
@476 59dfffd
@477 3fff1679
@478 59ffffd
@479 3fff1681
@47a 3fff1685
@47b 5a2fffd
@47c 3fff168d
@47d 3fff1691
@47e c8bfbfff1695
@47f 3fff1699
@480 3fff169d
@481 c87fbffffffd
@482 887fbffffffd
@483 3fff16a1
@484 88bfbffffffd
@485 c87fbffffffd
@486 88bf85a9fffd
@487 3fff16a9
@488 3fff16ad
@489 3fff16b1
@48a 5adfffd
@48b 893f85ae16bd
@48c c8bfbfff16c1
@48d 887fbffffffd
@48e 3fff16c5
@48f 89ff85b216cd
@490 3fff16d1
@491 5b5fffd
@492 5b616dd
@493 3fff16e1
@494 5b9fffd
@495 89ffbffffffd
@496 3fff16e9
@497 3fff16ed
@498 3fff16f1
@499 c8bfbffffffd
@49a 5bdfffd
@49b 3fff16f9
@49c 5bffffd
@49d 3fff1701
@49e 5c1fffd
@49f 5c2170d
@4a0 5c41715
@4a1 5c6fffd
@4a2 88bf85c71721
@4a3 5c91729
@4a4 5cb1731
@4a5 c97f85cd1739
@4a6 897f85cf1741
@4a7 3fff1745
@4a8 5d2fffd
@4a9 5d3fffd
@4aa 5d4fffd
@4ab 5d5fffd
@4ac 5d6fffd
@4ad 5d7fffd
@4ae 3fff1761
@4af 5d9fffd
@4b0 5da176d
@4b1 3fff1771
@4b2 3fff1775
@4b3 5defffd
@4b4 5dffffd
@4b5 5e0fffd
@4b6 5e11789
@4b7 3fff178d
@4b8 3fff1791
@4b9 5e5fffd
@4ba 5e6fffd
@4bb 5e7fffd
@4bc 5e817a5
@4bd 93bf85ea17ad
@4be 5ec17b5
@4bf 5ee17bd
@4c0 5f017c5
@4c1 93bf85f217cd
@4c2 5f417d5
@4c3 5f6fffd
@4c4 d13fbfff17dd
@4c5 3fff17e1
@4c6 5f917e9
@4c7 93bf85fb17f1
@4c8 5fdfffd
@4c9 5fe17fd
@4ca 3fff1801
@4cb 907fbffffffd
@4cc 601fffd
@4cd 3fff1809
@4ce 3fff180d
@4cf 6041815
@4d0 3fff1819
@4d1 3fff181d
@4d2 608fffd
@4d3 3fff1825
@4d4 60afffd
@4d5 3fff182d
@4d6 3fff1831
@4d7 60dfffd
@4d8 3fff1839
@4d9 60ffffd
@4da 3fff1841
@4db 611fffd
@4dc 612fffd
@4dd 89ff8613fffd
@4de 614fffd
@4df 3fff1855
@4e0 3fff1859
@4e1 617fffd
@4e2 618fffd
@4e3 d0bf8619fffd
@4e4 61afffd
@4e5 61bfffd
@4e6 3fff1871
@4e7 61dfffd
@4e8 3fff1879
@4e9 61ffffd
@4ea 620fffd
@4eb 6211889
@4ec 6231891
@4ed 913f86251899
@4ee 627fffd
@4ef 3fff18a1
@4f0 62918a9
@4f1 62bfffd
@4f2 62cfffd
@4f3 3fff18b5
@4f4 3fff18b9
@4f5 62ffffd
@4f6 630fffd
@4f7 913fbffffffd
@4f8 3fff18c5
@4f9 632fffd
@4fa 63318d1
@4fb 93bf863518d9
@4fc 3fff18dd
@4fd 638fffd
@4fe 63918e9
@4ff 3fff18ed
@500 63cfffd
@501 241fe93bf863dfffd
@502 63efffd
@503 63ffffd
@504 3fff1901
@505 641fffd
@506 642fffd
@507 643fffd
@508 3fff1911
@509 645fffd
@50a 3fff1919
@50b 647fffd
@50c 6481925
@50d 64afffd
@50e 64bfffd
@50f 3fff1931
@510 907f864dfffd
@511 3fff1939
@512 64f1941
@513 651fffd
@514 3fff1949
@515 653fffd
@516 6541955
@517 656195d
@518 c8ff86581965
@519 65a196d
@51a 65c1975
@51b 913f865e197d
@51c 660fffd
@51d 3fff1985
@51e 662fffd
@51f 663fffd
@520 3fff1991
@521 665fffd
@522 3fff1999
@523 667fffd
@524 3fff19a1
@525 3fff19a5
@526 66afffd
@527 3fff19ad
@528 66cfffd
@529 3fff19b5
@52a 66efffd
@52b c93fbfff19bd
@52c 670fffd
@52d 671fffd
@52e 672fffd
@52f 67319d1
@530 3fff19d5
@531 d13f7fff19d9
@532 3fff19dd
@533 678fffd
@534 3fff19e5
@535 3fff19e9
@536 67bfffd
@537 3fff19f1
@538 67dfffd
@539 67efffd
@53a 67ffffd
@53b 680fffd
@53c 6811a09
@53d 6831a11
@53e 3fff1a15
@53f 90bf86861a1d
@540 688fffd
@541 689fffd
@542 68afffd
@543 68b1a31
@544 68d1a39
@545 3fff1a3d
@546 230fe90bf86901a45
@547 692fffd
@548 693fffd
@549 3fff1a51
@54a 695fffd
@54b d0bf86961a5d
@54c 242fe93bf86981a65
@54d d17f869a1a6d
@54e 69c1a75
@54f 69e1a7d
@550 6a01a85
@551 6a2fffd
@552 8c3fbffffffd
@553 d17f86a31a91
@554 6a51a99
@555 230fe907fbfff1a9d
@556 6a8fffd
@557 3fff1aa5
@558 6aa1aad
@559 6acfffd
@55a 6adfffd
@55b 3fff1ab9
@55c 6af1ac1
@55d 6b1fffd
@55e 8c3fbffffffd
@55f 230fe90ff86b2fffd
@560 3fff1acd
@561 8c3f86b41ad5
@562 6b6fffd
@563 8c3f86b71ae1
@564 6b91ae9
@565 8c7f86bb1af1
@566 232fe91bf86bd1af9
@567 907f86bffffd
@568 6c01b05
@569 6c2fffd
@56a 6c31b11
@56b 6c51b19
@56c 6c7fffd
@56d 3fff1b21
@56e 3fff1b25
@56f 913fbffffffd
@570 6cafffd
@571 d0ff86cb1b31
@572 6cdfffd
@573 3fff1b39
@574 6cffffd
@575 6d01b45
@576 3fff1b49
@577 6d31b51
@578 3fff1b55
@579 3fff1b59
@57a 6d7fffd
@57b 3fff1b61
@57c 3fff1b65
@57d 88ffbffffffd
@57e 88ffbffffffd
@57f c87fbffffffd
@580 6da1b6d
@581 88ff86dc1b75
@582 6de1b7d
@583 6e0fffd
@584 887fbffffffd
@585 c87fbffffffd
@586 c87fbffffffd
@587 c87fbffffffd
@588 325fec9ffbfff1b85
@589 3fff1b89
@58a 887fbfff1b8d
@58b 6e4fffd
@58c 3fff1b95
@58d 3fff1b99
@58e 6e7fffd
@58f 3fff1ba1
@590 3fff1ba5
@591 3fff1ba9
@592 6ebfffd
@593 3fff1bb1
@594 3fff1bb5
@595 3fff1bb9
@596 c87fbffffffd
@597 887fbffffffd
@598 6effffd
@599 6f0fffd
@59a 6f1fffd
@59b 6f21bcd
@59c 6f41bd5
@59d 6f6fffd
@59e 3fff1bdd
@59f 3fff1be1
@5a0 6f9fffd
@5a1 3fff1be9
@5a2 3fff1bed
@5a3 6fcfffd
@5a4 6fd1bf9
@5a5 6fffffd
@5a6 700fffd
@5a7 3fff1c05
@5a8 702fffd
@5a9 c9ff87031c11
@5aa 3fff1c15
@5ab 3fff1c19
@5ac 707fffd
@5ad 708fffd
@5ae 3fff1c25
@5af 70afffd
@5b0 70bfffd
@5b1 3fff1c31
@5b2 3fff1c35
@5b3 3fff1c39
@5b4 70ffffd
@5b5 223fe89ff8710fffd
@5b6 7111c49
@5b7 7131c51
@5b8 3fff1c55
@5b9 716fffd
@5ba 7171c61
@5bb 3fff1c65
@5bc 89ffbffffffd
@5bd 3fff1c69
@5be 71bfffd
@5bf 71cfffd
@5c0 71d1c79
@5c1 325fec9bf871f1c81
@5c2 c87fbffffffd
@5c3 721fffd
@5c4 722fffd
@5c5 7231c91
@5c6 3fff1c95
@5c7 7261c9d
@5c8 7281ca5
@5c9 3fff1ca9
@5ca 72b1cb1
@5cb 72d1cb9
@5cc c9ffbffffffd
@5cd 72ffffd
@5ce 887f87301cc5
@5cf 3fff1cc9
@5d0 225fe89bf8733ffff
@5d1 3fff1cd1
@5d2 222fe88ff87351cd9
@5d3 3fff1cdd
@5d4 738fffd
@5d5 739fffd
@5d6 73afffd
@5d7 3fff1ced
@5d8 73cfffd
@5d9 3fff1cf5
@5da 88ff873e1cfd
@5db 740fffd
@5dc 3fff1d05
@5dd 93bf8742fffd
@5de 893fbfff1d0d
@5df 744fffd
@5e0 3fff1d15
@5e1 746fffd
@5e2 747fffd
@5e3 748fffd
@5e4 749fffd
@5e5 3fff1d29
@5e6 3fff1d2d
@5e7 74cfffd
@5e8 74dfffd
@5e9 3fff1d39
@5ea 74f1d41
@5eb 751fffd
@5ec 752fffd
@5ed 3fff1d4d
@5ee 3fff1d51
@5ef 3fff1d55
@5f0 756fffd
@5f1 3fff1d5d
@5f2 3fff1d61
@5f3 759fffd
@5f4 3fff1d69
@5f5 75bfffd
@5f6 75cfffd
@5f7 3fff1d75
@5f8 75efffd
@5f9 3fff1d7d
@5fa 7601d85
@5fb 3fff1d89
@5fc 763fffd
@5fd 3fff1d91
@5fe 765fffd
@5ff 766fffd
@600 897fbfff1d9d
@601 768fffd
@602 3fff1da5
@603 76afffd
@604 93bf876bfffd
@605 3fff1db1
@606 3fff1db5
@607 c87fbffffffd
@608 893f876efffd
@609 76ffffd
@60a c87fbffffffd
@60b 88bf87701dc5
@60c d0bf7fff1dc9
@60d 3fff1dcd
@60e 3fff1dd1
@60f 3fff1dd5
@610 7761ddd
@611 3fff1de1
@612 89bfbffffffd
@613 c8bfbfff1de5
@614 77a1ded
@615 77c1df5
@616 77e1dfd
@617 3fff1e01
@618 c88f07811e09
@619 c87fbffffffd
@61a 887fbffffffd
@61b 7831e11
@61c 893f47851e19
@61d 3fff1e1d
@61e 788fffd
@61f 789fffd
@620 78afffd
@621 78b1e31
@622 c87fbffffffd
@623 887fbffffffd
@624 3fff1e35
@625 78efffd
@626 3fff1e3d
@627 3fff1e41
@628 3fff1e45
@629 c93fbffffffd
@62a 3fff1e49
@62b 793fffd
@62c 3fff1e51
@62d 88bfbffffffd
@62e 795fffd
@62f c97f87961e5d
@630 88bf87981e65
@631 c87fbffffffd
@632 893f879a1e6d
@633 79cfffd
@634 907fbffffffd
@635 79dfffd
@636 3fff1e79
@637 79ffffd
@638 3fff1e81
@639 7a1fffd
@63a 7a2fffd
@63b 7a3fffd
@63c 3fff1e91
@63d 7a5fffd
@63e 3fff1e99
@63f 3fff1e9d
@640 7a8fffd
@641 7a9fffd
@642 7aafffd
@643 3fff1ead
@644 3fff1eb1
@645 3fff1eb5
@646 7aefffd
@647 3fff1ebd
@648 d1263ffffffd
@649 7b01ec5
@64a 7b2fffd
@64b 3fff1ecd
@64c 7b4fffd
@64d 3fff1ed5
@64e 3fff1ed9
@64f 3fff1edd
@650 7b8fffd
@651 7b91ee9
@652 7bb1ef1
@653 7bdfffd
@654 7befffd
@655 7bffffd
@656 7c0fffd
@657 7c1fffd
@658 c87f87c2fffd
@659 88bf87c31f11
@65a 7c5fffd
@65b 3fff1f19
@65c 7c7fffd
@65d 3fff1f21
@65e 7c9fffd
@65f 7cafffd
@660 3fff1f2d
@661 d07fbfff1f31
@662 7cdfffd
@663 d17fbfff1f39
@664 7cffffd
@665 3fff1f41
@666 7d1fffd
@667 7d21f4d
@668 7d4fffd
@669 3fff1f55
@66a 3fff1f59
@66b 7d7fffd
@66c 7d8fffd
@66d d0a63fff1f65
@66e 242fe917f87dafffd
@66f 7dbfffd
@670 3fff1f71
@671 7ddfffd
@672 7defffd
@673 7dffffd
@674 3fff1f81
@675 7e1fffd
@676 7e21f8d
@677 7e4fffd
@678 3fff1f95
@679 7e6fffd
@67a 7e7fffd
@67b 7e81fa5
@67c 7eafffd
@67d 3fff1fad
@67e 88bfbffffffd
@67f d07fbffffffd
@680 7ecfffd
@681 7ed1fb9
@682 c9bfbfff1fbd
@683 89bfbffffffd
@684 7f0fffd
@685 7f1fffd
@686 3fff1fc9
@687 7f3fffd
@688 7f4fffd
@689 d13f87f5fffd
@68a 3fff1fd9
@68b 907f7ffffffd
@68c 7f71fe1
@68d 7f9fffd
@68e 3fff1fe9
@68f 3fff1fed
@690 7fc1ff5
@691 93bf87fe1ffd
@692 3fff2001
@693 3fff2005
@694 3fff2009
@695 8032011
@696 3fff2015
@697 806201d
@698 8082025
@699 88bf880a202d
@69a 3fff2031
@69b 80dfffd
@69c c97f880e203d
@69d 8102045
@69e 812204d
@69f 89ff8814fffd
@6a0 8152059
@6a1 907f88172061
@6a2 819fffd
@6a3 81afffd
@6a4 3fff206d
@6a5 c8ff881c2075
@6a6 222fe88ff881e207d
@6a7 3fff2081
@6a8 3fff2085
@6a9 907fbffffffd
@6aa 822208d
@6ab 93bf88242095
@6ac c8ff8826209d
@6ad 88ff882820a5
@6ae d13fbffffffd
@6af 82a20ad
@6b0 93bf882c20b5
@6b1 82e20bd
@6b2 83020c5
@6b3 3fff20c9
@6b4 3fff20cd
@6b5 3fff20d1
@6b6 d0ff883520d9
@6b7 90ff883720e1
@6b8 839fffd
@6b9 3fff20e9
@6ba 3fff20ed
@6bb 3fff20f1
@6bc 3fff20f5
@6bd 3fff20f9
@6be 83ffffd
@6bf 3fff2101
@6c0 8412109
@6c1 8432111
@6c2 c87fbffffffd
@6c3 221fe913f8845fffd
@6c4 d07fbffffffd
@6c5 243fe913f8846fffd
@6c6 3fff211d
@6c7 3fff2121
@6c8 d17f7fff2125
@6c9 907fbffffffd
@6ca 3fff2129
@6cb d13f884b2131
@6cc 90ff884dfffd
@6cd 3fff2139
@6ce 913fbffffffd
@6cf 90bfbffffffd
@6d0 d07fbffffffd
@6d1 3fff213d
@6d2 241fe93bf8850fffd
@6d3 913f8851ffff
@6d4 3fff2149
@6d5 853fffd
@6d6 854fffd
@6d7 907fbfff2155
@6d8 856fffd
@6d9 93bf8857fffd
@6da 3fff2161
@6db 3fff2165
@6dc 3fff2169
@6dd 907fbffffffd
@6de d07fbfff216d
@6df 907fbffffffd
@6e0 907f885cfffd
@6e1 3fff2175
@6e2 904f3ffffffd
@6e3 3fff2179
@6e4 d04f085ffffd
@6e5 242fe90ff8860fffd
@6e6 861fffd
@6e7 3fff2189
@6e8 907fbffffffd
@6e9 907fbfff218d
@6ea 904f3ffffffd
@6eb 864fffd
@6ec d07fbffffffd
@6ed 3fff2195
@6ee d07fbffffffd
@6ef 3fff2199
@6f0 226fe89ff8867fffd
@6f1 868fffd
@6f2 869fffd
@6f3 d07fbffffffd
@6f4 3fff21a9
@6f5 913f886bfffd
@6f6 3fff21b1
@6f7 d07f886dfffd
@6f8 907fbffffffd
@6f9 904f3ffffffd
@6fa 907fbffffffd
@6fb 3fff21b9
@6fc d07fbffffffd
@6fd 3fff21bd
@6fe 907f8870fffd
@6ff 3fff21c5
@700 907f8872fffd
@701 3fff21cd
@702 d07fbffffffd
@703 3fff21d1
@704 d04f3ffffffd
@705 907fbffffffd
@706 875fffd
@707 3fff21d9
@708 877fffd
@709 878fffd
@70a 3fff21e5
@70b 87afffd
@70c 87bfffd
@70d d07fbffffffd
@70e 87cfffd
@70f 907fbffffffd
@710 d07f887dfffd
@711 87efffd
@712 907fbffffffd
@713 87ffffd
@714 3fff2201
@715 90bfbffffffd
@716 881fffd
@717 90bf8882fffd
@718 8832211
@719 885fffd
@71a 2423e90ff8886221d
@71b d17fbfff2221
@71c 3fff2225
@71d 88afffd
@71e 3fff222d
@71f 88cfffd
@720 3fff2235
@721 88efffd
@722 88f2241
@723 90ff8891fffd
@724 93bf8892fffd
@725 893fffd
@726 3fff2251
@727 895fffd
@728 896fffd
@729 907fbffffffd
@72a d07fbffffffd
@72b 3fff225d
@72c d04f3ffffffd
@72d 90bf88982265
@72e 907fbffffffd
@72f d0bfbffffffd
@730 913f889afffd
@731 3fff226d
@732 d0bfbfff2271
@733 89d2279
@734 907fbfff227d
@735 8a0fffd
@736 3fff2285
@737 3fff2289
@738 8a3fffd
@739 3fff2291
@73a d07fbffffffd
@73b 907fbffffffd
@73c 3fff2295
@73d 907fbffffffd
@73e d07fbffffffd
@73f 3fff2299
@740 907f7ffffffd
@741 8a7fffd
@742 d07f7ffffffd
@743 341fed13fbffffffd
@744 3fff22a1
@745 3fff22a5
@746 3fff22a9
@747 907fbffffffd
@748 c87fbffffffd
@749 c87f88abfffd
@74a 887fbffffffd
@74b c87fbffffffd
@74c 887fbffffffd
@74d c87fbffffffd
@74e c87fbffffffd
@74f 887fbffffffd
@750 c87fbffffffd
@751 321fed13fbfff22b1
@752 88bf88ad22b9
@753 c87fbffffffd
@754 88bf88affffd
@755 c87f88b0fffd
@756 887fbfff22c5
@757 c87fbffffffd
@758 88bfbffffffd
@759 c87fbffffffd
@75a c87fbfff22c9
@75b 3fff22cd
@75c 8b4fffd
@75d 907fbffffffd
@75e d07fbffffffd
@75f 907fbffffffd
@760 d07fbfff22d5
@761 907f88b6fffd
@762 3fff22dd
@763 3fff22e1
@764 3fff22e5
@765 8ba22ed
@766 3fff22f1
@767 8bd22f9
@768 3fff22fd
@769 8c0fffd
@76a 3fff2305
@76b 8c2fffd
@76c 3fff230d
@76d 3fff2311
@76e 3fff2315
@76f 8c6fffd
@770 907fbfff231d
@771 3fff2321
@772 88cf08c9fffd
@773 8ca232d
@774 93bf88ccfffd
@775 8cdfffd
@776 3fff2339
@777 d0bfbfff233d
@778 d07fbffffffd
@779 3fff2341
@77a d04f3ffffffd
@77b 8d1fffd
@77c d07f88d2fffd
@77d 907fbfff234d
@77e 8d42355
@77f 89bf88d6235d
@780 3fff2361
@781 8d92369
@782 8dbfffd
@783 8dc2375
@784 897f88de237d
@785 8e02385
@786 8e2238d
@787 d0ff88e42395
@788 3fff2399
@789 8e723a1
@78a 90bfbffffffd
@78b 89ffbfff23a5
@78c d14f08ea23ad
@78d 90bfbfff23b1
@78e d17f88ed23b9
@78f 3fff23bd
@790 8f0fffd
@791 8f1fffd
@792 8f2fffd
@793 8f323d1
@794 d07f88f523d9
@795 907fbfff23dd
@796 3fff23e1
@797 8f9fffd
@798 8fafffd
@799 917f88fbfffd
@79a d0ffbfff23f1
@79b 3fff23f5
@79c 8fefffd
@79d 8ff2401
@79e 901fffd
@79f 90bfbffffffd
@7a0 3fff2409
@7a1 9032411
@7a2 905fffd
@7a3 3fff2419
@7a4 3fff241d
@7a5 3fff2421
@7a6 3fff2425
@7a7 3fff2429
@7a8 d0437ffffffd
@7a9 3fff242d
@7aa d07fbffffffd
@7ab 90cfffd
@7ac d07fbffffffd
@7ad 90dfffd
@7ae 907fbffffffd
@7af 907f890efffd
@7b0 90ff890ffffd
@7b1 910fffd
@7b2 89ff89112449
@7b3 c8ff89132451
@7b4 915fffd
@7b5 3fff2459
@7b6 917fffd
@7b7 907fbffffffd
@7b8 90ff8918fffd
@7b9 3fff2465
@7ba d13fbfff2469
@7bb 3fff246d
@7bc 91cfffd
@7bd 3fff2475
@7be 907fbffffffd
@7bf 907fbffffffd
@7c0 91efffd
@7c1 907f891ffffd
@7c2 242fe90ff8920fffd
@7c3 921fffd
@7c4 922fffd
@7c5 907fbffffffd
@7c6 3fff248d
@7c7 924fffd
@7c8 925fffd
@7c9 d07fbfff2499
@7ca d07f8927fffd
@7cb d04f3ffffffd
@7cc d07fbffffffd
@7cd 928fffd
@7ce 929fffd
@7cf 3fff24a9
@7d0 92bfffd
@7d1 907fbffffffd
@7d2 d042bfff24b1
@7d3 914f092dfffd
@7d4 3fff24b9
@7d5 d07fbffffffd
@7d6 241fe90ff892ffffd
@7d7 3fff24c1
@7d8 d0bfbfff24c5
@7d9 3fff24c9
@7da d0463ffffffd
@7db 3fff24cd
@7dc 934fffd
@7dd 935fffd
@7de 241fe90bf8936fffd
@7df 321fec8bf893724e1
@7e0 88bf8939ffff
@7e1 231fe88bf893a24ed
@7e2 321fec8bf893c24f5
@7e3 230fe887f893e24fd
@7e4 223fe893f8940ffff
@7e5 941fffd
@7e6 942fffd
@7e7 943fffd
@7e8 d17f89442515
@7e9 3fff2519
@7ea 3fff251d
@7eb 342fed13f89482525
@7ec 90bf894a252d
@7ed 94cfffd
@7ee 94dfffd
@7ef 3fff2539
@7f0 3fff253d
@7f1 907fbffffffd
@7f2 950fffd
@7f3 d07fbfff2545
@7f4 952254d
@7f5 90bf89542555
@7f6 956fffd
@7f7 3fff255d
@7f8 d0bfbfff2561
@7f9 d07fbffffffd
@7fa 907fbffffffd
@7fb d07fbffffffd
@7fc 3fff2565
@7fd 95afffd
@7fe d07fbffffffd
@7ff 90bf895bfffd
@800 95cfffd
@801 d0bfbfff2575
@802 95e257d
@803 3fff2581
@804 9612589
@805 d14349632591
@806 9652599
@807 d04fbffffffd
@808 967fffd
@809 3fff25a1
@80a d0ffbfff25a5
@80b 96a25ad
@80c 96cfffd
@80d 913f896d25b9
@80e d07fbfff25bd
@80f 970fffd
@810 3fff25c5
@811 972fffd
@812 973fffd
@813 341fed17fbfff25d1
@814 975fffd
@815 90bf897625dd
@816 90bf897825e5
@817 97afffd
@818 97bfffd
@819 88bf897cfffd
@81a 3fff25f5
@81b 3fff25f9
@81c 97ffffd
@81d c9ff89802605
@81e 3fff2609
@81f 983fffd
@820 984fffd
@821 9852619
@822 987fffd
@823 3fff2621
@824 9892629
@825 98bfffd
@826 3fff2631
@827 c87fbfff2635
@828 887fbfff2639
@829 c87fbffffffd
@82a 887f898ffffd
@82b 9902645
@82c 992264d
@82d 994fffd
@82e 3fff2655
@82f 3fff2659
@830 997fffd
@831 998fffd
@832 999fffd
@833 3fff2669
@834 c8ffbfff266d
@835 3fff2671
@836 99dfffd
@837 3fff2679
@838 3fff267d
@839 3fff2681
@83a c8bf7fff2685
@83b c8e63ffffffd
@83c 9a2268d
@83d 3fff2691
@83e c87fbffffffd
@83f 887fbffffffd
@840 c87fbffffffd
@841 887fbffffffd
@842 9a5fffd
@843 9a6fffd
@844 3fff269d
@845 9a8fffd
@846 3fff26a5
@847 9aafffd
@848 9abfffd
@849 9acfffd
@84a 9adfffd
@84b 3fff26b9
@84c 3fff26bd
@84d c8bf89b026c5
@84e c8ffbfff26c9
@84f 907f89b3fffd
@850 3fff26d1
@851 c9bf89b526d9
@852 9b7fffd
@853 9b8fffd
@854 c87fbffffffd
@855 88ff89b9fffd
@856 88bfbffffffd
@857 3fff26e9
@858 9bbfffd
@859 9bc26f5
@85a 9be26fd
@85b 3fff2701
@85c 9c12709
@85d c8bf89c32711
@85e 88bfbfff2715
@85f 9c6fffd
@860 c87fbfff271d
@861 9c82725
@862 3fff2729
@863 3fff272d
@864 9cc2735
@865 3fff2739
@866 3fff273d
@867 321fec8bf89d02745
@868 3fff2749
@869 d0bfbffffffd
@86a 3fff274d
@86b 9d42755
@86c 9d6fffd
@86d 893f89d72761
@86e 9d9fffd
@86f 9dafffd
@870 321fec97f89db2771
@871 3fff2775
@872 9de277d
@873 3fff2781
@874 c97fbfff2785
@875 88bf89e2fffd
@876 c93fbfff278d
@877 222fe88ff89e4fffd
@878 9e5fffd
@879 c93f89e6279d
@87a 9e827a5
@87b 9ea27ad
@87c 9ec27b5
@87d 9eefffd
@87e 9ef27c1
@87f 9f1fffd
@880 9f2fffd
@881 897fbfff27cd
@882 9f427d5
@883 9f627dd
@884 3fff27e1
@885 3fff27e5
@886 9fa27ed
@887 88ff89fcfffd
@888 9fdfffd
@889 887f89fefffd
@88a 3fff27fd
@88b 893f8a002805
@88c a02fffd
@88d a032811
@88e a05fffd
@88f 222fe90660a06281d
@890 a082825
@891 a0afffd
@892 3fff282d
@893 a0c2835
@894 88bf8a0e283d
@895 a10fffd
@896 3fff2845
@897 a12fffd
@898 3fff284d
@899 c93fbfff2851
@89a a152859
@89b c87fbffffffd
@89c 3fff285d
@89d c8bf8a182865
@89e a1a286d
@89f d07f8a1c2875
@8a0 907f8a1efffd
@8a1 a1ffffd
@8a2 a20fffd
@8a3 3fff2885
@8a4 3fff2889
@8a5 93bf8a23fffd
@8a6 3fff2891
@8a7 a25fffd
@8a8 3fff2899
@8a9 a2728a1
@8aa a2928a9
@8ab 3fff28ad
@8ac 3fff28b1
@8ad a2dfffd
@8ae 342fed13fbfff28b9
@8af 88ff8a2ffffd
@8b0 3fff28c1
@8b1 c9083fff28c5
@8b2 d13fbffffffd
@8b3 907fbffffffd
@8b4 3fff28c9
@8b5 d0bfbffffffd
@8b6 d0ffbfff28cd
@8b7 90bfbffffffd
@8b8 90bfbffffffd
@8b9 c9ffbfff28d1
@8ba a35fffd
@8bb 3fff28d9
@8bc a37fffd
@8bd 3fff28e1
@8be a3928e9
@8bf a3bfffd
@8c0 241fe90ffbffffffd
@8c1 3fff28f1
@8c2 3fff28f5
@8c3 a3efffd
@8c4 3fff28fd
@8c5 d0663fff2901
@8c6 3fff2905
@8c7 3fff2909
@8c8 3fff290d
@8c9 3fff2911
@8ca 3fff2915
@8cb a46fffd
@8cc 3fff291d
@8cd 88ff8a482925
@8ce 3fff2929
@8cf 88ffbfff292d
@8d0 a4c2935
@8d1 a4e293d
@8d2 2235a90bfbfff2941
@8d3 a512949
@8d4 a532951
@8d5 c93f8a552959
@8d6 a572961
@8d7 a592969
@8d8 93bf8a5bffff
@8d9 d17f8a5cffff
@8da 893f8a5d2979
@8db a5f2981
@8dc 3fff2985
@8dd d08f3fff2989
@8de d08f3ffffffd
@8df a63fffd
@8e0 d0bf8a64fffd
@8e1 3fff2995
@8e2 d0bfbffffffd
@8e3 3fff2999
@8e4 d0bf8a67fffd
@8e5 3fff29a1
@8e6 90bf8a69fffd
@8e7 3fff29a9
@8e8 3fff29ad
@8e9 a6cfffd
@8ea d07fbffffffd
@8eb 90bf8a6dfffd
@8ec d0bfbfff29b9
@8ed 90834a6f29c1
@8ee a7129c9
@8ef 90bfbffffffd
@8f0 a73fffd
@8f1 3fff29d1
@8f2 3fff29d5
@8f3 d13fbfff29d9
@8f4 90bf8a77fffd
@8f5 d0bfbfff29e1
@8f6 3fff29e5
@8f7 907f8a7a29ed
@8f8 342fed0ff8a7c29f5
@8f9 a7efffd
@8fa a7ffffd
@8fb d0bf8a80fffd
@8fc a812a09
@8fd d0bf8a832a11
@8fe d0bfbffffffd
@8ff a852a19
@900 a87fffd
@901 a882a25
@902 938f0a8afffd
@903 3fff2a2d
@904 3fff2a31
@905 a8dfffd
@906 917f8a8efffd
@907 c93f8a8f2a41
@908 a912a49
@909 3fff2a4d
@90a a942a55
@90b a96fffd
@90c a97fffd
@90d 90bfbffffffd
@90e 90bf8a98fffd
@90f 893f8a99fffd
@910 c87fbfff2a69
@911 89ff8a9bfffd
@912 c8bfbfff2a71
@913 3fff2a75
@914 c87fbffffffd
@915 3fff2a79
@916 893f8a9ffffd
@917 aa02a85
@918 aa22a8d
@919 321fec93f8aa42a95
@91a 221fe893f8aa62a9d
@91b c9bf8aa82aa5
@91c aaa2aad
@91d c8bf8aac2ab5
@91e 88bf8aae2abd
@91f c8bf8ab02ac5
@920 88bf8ab22acd
@921 3fff2ad1
@922 c8bfbffffffd
@923 893f8ab52ad9
@924 d0bf8ab7fffd
@925 907fbfff2ae1
@926 ab9fffd
@927 893fbffffffd
@928 3fff2ae9
@929 c8ffbfff2aed
@92a 887fbfff2af1
@92b 907f8abdfffd
@92c d0bf8abe2afd
@92d ac0fffd
@92e d07fbffffffd
@92f c87f8ac1fffd
@930 ac2fffd
@931 ac3fffd
@932 ac4fffd
@933 d0bfbfff2b15
@934 3fff2b19
@935 3fff2b1d
@936 3fff2b21
@937 3fff2b25
@938 907fbffffffd
@939 acafffd
@93a d0ffbffffffd
@93b acbfffd
@93c accfffd
@93d acdfffd
@93e 3fff2b39
@93f 3fff2b3d
@940 3fff2b41
@941 ad1fffd
@942 3fff2b49
@943 ad3fffd
@944 d0bfbffffffd
@945 ad42b55
@946 d0bfbffffffd
@947 ad62b5d
@948 3fff2b61
@949 d0bf8ad92b69
@94a 887fbfff2b6d
@94b adcfffd
@94c add2b79
@94d 90bfbfff2b7d
@94e ae02b85
@94f 887fbffffffd
@950 c8bfbfff2b89
@951 c8bfbffffffd
@952 ae32b91
@953 ae52b99
@954 3fff2b9d
@955 ae8fffd
@956 3fff2ba5
@957 aea2bad
@958 aec2bb5
@959 aeefffd
@95a 88bfbffffffd
@95b 3fff2bbd
@95c 3fff2bc1
@95d af1fffd
@95e af22bcd
@95f 893f8af42bd5
@960 af62bdd
@961 af82be5
@962 afafffd
@963 3fff2bed
@964 afcfffd
@965 afd2bf9
@966 aff2c01
@967 c93f8b012c09
@968 b03fffd
@969 b042c15
@96a b062c1d
@96b b082c25
@96c 3fff2c29
@96d d17fbfff2c2d
@96e 90bfbfff2c31
@96f d0ff8b0d2c39
@970 3fff2c3d
@971 3fff2c41
@972 90bf8b112c49
@973 b132c51
@974 3fff2c55
@975 b162c5d
@976 b18fffd
@977 3fff2c65
@978 b1afffd
@979 d0bfbffffffd
@97a d08f3ffffffd
@97b b1bfffd
@97c 90bfbffffffd
@97d b1c2c75
@97e 223fe893f8b1e2c7d
@97f d0bf8b202c85
@980 c8ff8b222c8d
@981 3fff2c91
@982 d08f0b252c99
@983 b272ca1
@984 b292ca9
@985 b2b2cb1
@986 b2d2cb9
@987 893f8b2f2cc1
@988 c93f8b312cc9
@989 893f8b332cd1
@98a 3fff2cd5
@98b b362cdd
@98c 221fe89ff8b38fffd
@98d b39fffd
@98e c87fbffffffd
@98f 3fff2ce9
@990 c93f8b3b2cf1
@991 893f8b3d2cf9
@992 b3f2d01
@993 b41fffd
@994 b42fffd
@995 d0bfbfff2d0d
@996 b44fffd
@997 90bf8b45fffd
@998 b462d1d
@999 b48fffd
@99a 3fff2d25
@99b d0ffbfff2d29
@99c b4b2d31
@99d b4dfffd
@99e 3fff2d39
@99f b4ffffd
@9a0 b502d45
@9a1 d0bf8b522d4d
@9a2 b542d55
@9a3 b56fffd
@9a4 3fff2d5d
@9a5 d07fbffffffd
@9a6 b58fffd
@9a7 3fff2d65
@9a8 b5a2d6d
@9a9 b5c2d75
@9aa 3fff2d79
@9ab 3fff2d7d
@9ac 3fff2d81
@9ad 3fff2d85
@9ae d0bf8b62fffd
@9af b63fffd
@9b0 b64fffd
@9b1 d0bfbfff2d95
@9b2 3fff2d99
@9b3 b67fffd
@9b4 3fff2da1
@9b5 3fff2da5
@9b6 b6afffd
@9b7 b6bfffd
@9b8 3fff2db1
@9b9 d0bfbfff2db5
@9ba 3fff2db9
@9bb 907fbfff2dbd
@9bc b702dc5
@9bd d04f3ffffffd
@9be 2423c938f0b722dcd
@9bf b74fffd
@9c0 b75fffd
@9c1 b76fffd
@9c2 b772de1
@9c3 b79fffd
@9c4 908f0b7a2ded
@9c5 b7cfffd
@9c6 3fff2df5
@9c7 b7efffd
@9c8 b7f2e01
@9c9 b81fffd
@9ca b82fffd
@9cb d0bfbfff2e0d
@9cc b84fffd
@9cd b85fffd
@9ce b86fffd
@9cf b872e21
@9d0 b892e29
@9d1 b8b2e31
@9d2 b8d2e39
@9d3 3fff2e3d
@9d4 b90fffd
@9d5 b91fffd
@9d6 b922e4d
@9d7 b94fffd
@9d8 b95fffd
@9d9 3fff2e59
@9da b97fffd
@9db 3fff2e61
@9dc b992e69
@9dd b9b2e71
@9de 3fff2e75
@9df 3fff2e79
@9e0 3fff2e7d
@9e1 ba0fffd
@9e2 ba1fffd
@9e3 89ff8ba22e8d
@9e4 c9bf8ba42e95
@9e5 893f8ba62e9d
@9e6 ba82ea5
@9e7 893f8baa2ead
@9e8 c93f8bac2eb5
@9e9 bae2ebd
@9ea c97f8bb02ec5
@9eb 88ff8bb22ecd
@9ec c9bf8bb42ed5
@9ed 893f8bb62edd
@9ee c97f8bb82ee5
@9ef bba2eed
@9f0 89ff8bbc2ef5
@9f1 bbefffd
@9f2 bbffffd
@9f3 230fe887f8bc02f05
@9f4 897f8bc2fffd
@9f5 bc32f11
@9f6 bc52f19
@9f7 bc72f21
@9f8 bc92f29
@9f9 bcbfffd
@9fa c8bf8bcc2f35
@9fb bcefffd
@9fc bcffffd
@9fd bd0fffd
@9fe bd1fffd
@9ff bd2fffd
@a00 c8ff8bd32f51
@a01 88ff8bd52f59
@a02 c8ff8bd72f61
@a03 bd9fffd
@a04 3fff2f69
@a05 bdbfffd
@a06 bdcfffd
@a07 bddfffd
@a08 3fff2f79
@a09 bdffffd
@a0a be02f85
@a0b be22f8d
@a0c be4fffd
@a0d be52f99
@a0e be72fa1
@a0f be9fffd
@a10 beafffd
@a11 88ffbffffffd
@a12 bebfffd
@a13 becfffd
@a14 bed2fb9
@a15 bef2fc1
@a16 3fff2fc5
@a17 3fff2fc9
@a18 bf3fffd
@a19 3fff2fd1
@a1a 3fff2fd5
@a1b 3fff2fd9
@a1c bf72fe1
@a1d bf92fe9
@a1e 3fff2fed
@a1f c8bfbfff2ff1
@a20 887fbffffffd
@a21 c87fbffffffd
@a22 887fbffffffd
@a23 bfd2ff9
@a24 bff3001
@a25 c013009
@a26 897f8c033011
@a27 c9568c053019
@a28 c073021
@a29 c093029
@a2a c0b3031
@a2b c0d3039
@a2c c0f3041
@a2d c113049
@a2e c133051
@a2f c153059
@a30 c173061
@a31 c193069
@a32 c1b3071
@a33 c1d3079
@a34 897f8c1f3081
@a35 c213089
@a36 c233091
@a37 c253099
@a38 c2730a1
@a39 c2930a9
@a3a c2b30b1
@a3b c2d30b9
@a3c 2263c89cf0c2f30c1
@a3d c3130c9
@a3e 897f8c3330d1
@a3f c3530d9
@a40 c3730e1
@a41 c3930e9
@a42 89ff8c3b30f1
@a43 c3d30f9
@a44 c3f3101
@a45 c413109
@a46 c433111
@a47 c453119
@a48 c473121
@a49 c493129
@a4a 89508c4b3131
@a4b c97f8c4d3139
@a4c 89ff8c4f3141
@a4d c513149
@a4e c533151
@a4f c553159
@a50 c573161
@a51 c593169
@a52 c5b3171
@a53 c97f8c5d3179
@a54 c5f3181
@a55 c613189
@a56 c633191
@a57 c653199
@a58 c6731a1
@a59 c6931a9
@a5a c6b31b1
@a5b c6d31b9
@a5c c6f31c1
@a5d c7131c9
@a5e c7331d1
@a5f c9ff8c7531d9
@a60 897f8c7731e1
@a61 c7931e9
@a62 c7b31f1
@a63 c9ff8c7d31f9
@a64 c7f3201
@a65 c813209
@a66 c833211
@a67 c853219
@a68 c873221
@a69 325fec9bf8c893229
@a6a c8b3231
@a6b c8d3239
@a6c c8f3241
@a6d c913249
@a6e c933251
@a6f c953259
@a70 c973261
@a71 c993269
@a72 c9b3271
@a73 c9d3279
@a74 c9f3281
@a75 ca13289
@a76 ca33291
@a77 ca53299
@a78 ca732a1
@a79 ca932a9
@a7a cab32b1
@a7b cad32b9
@a7c caf32c1
@a7d cb132c9
@a7e cb332d1
@a7f 325fec9ff8cb532d9
@a80 cb732e1
@a81 cb932e9
@a82 cbb32f1
@a83 cbd32f9
@a84 897f8cbf3301
@a85 c97f8cc1fffd
@a86 cc2330d
@a87 c9cf0cc43315
@a88 897f8cc6331d
@a89 cc83325
@a8a 89ff8cca332d
@a8b ccc3335
@a8c cce333d
@a8d cd03345
@a8e cd2334d
@a8f cd43355
@a90 cd6335d
@a91 cd83365
@a92 897f8cda336d
@a93 c97f8cdc3375
@a94 cde337d
@a95 ce03385
@a96 ce2338d
@a97 ce43395
@a98 ce6339d
@a99 ce833a5
@a9a cea33ad
@a9b cec33b5
@a9c cee33bd
@a9d cf033c5
@a9e cf233cd
@a9f cf433d5
@aa0 2252089c80cf633dd
@aa1 cf833e5
@aa2 cfa33ed
@aa3 cfc33f5
@aa4 cfe33fd
@aa5 d003405
@aa6 d02340d
@aa7 d043415
@aa8 d06341d
@aa9 c97f8d083425
@aaa d0a342d
@aab d0cfffd
@aac d0d3439
@aad d0f3441
@aae d113449
@aaf d133451
@ab0 d153459
@ab1 d173461
@ab2 3fff3465
@ab3 d1a346d
@ab4 d1c3475
@ab5 d1e347d
@ab6 d203485
@ab7 d22348d
@ab8 d243495
@ab9 d26349d
@aba d2834a5
@abb c97f8d2a34ad
@abc d2c34b5
@abd d2e34bd
@abe 3fff34c1
@abf d3134c9
@ac0 d3334d1
@ac1 c97f8d3534d9
@ac2 d3734e1
@ac3 d3934e9
@ac4 d3b34f1
@ac5 226fe89ff8d3d34f9
@ac6 3fff34fd
@ac7 d403505
@ac8 c97f8d42350d
@ac9 d443515
@aca c8ff8d46351d
@acb d483525
@acc d4a352d
@acd d4c3535
@ace d4e353d
@acf d503545
@ad0 d52354d
@ad1 897f8d543555
@ad2 d56355d
@ad3 3fff3561
@ad4 d593569
@ad5 d5b3571
@ad6 d5d3579
@ad7 d5f3581
@ad8 d613589
@ad9 d633591
@ada d653599
@adb d6735a1
@adc d6935a9
@add d6b35b1
@ade c9ff8d6d35b9
@adf d6f35c1
@ae0 d7135c9
@ae1 d7335d1
@ae2 d7535d9
@ae3 894f0d7735e1
@ae4 d7935e9
@ae5 897f8d7b35f1
@ae6 d7d35f9
@ae7 d7f3601
@ae8 d813609
@ae9 d833611
@aea d853619
@aeb d873621
@aec d893629
@aed d8b3631
@aee d8d3639
@aef 3fff363d
@af0 d903645
@af1 d92364d
@af2 c97f8d943655
@af3 d96365d
@af4 d983665
@af5 226fe89ff8d9a366d
@af6 d9c3675
@af7 d9e367d
@af8 da03685
@af9 da2368d
@afa 3fff3691
@afb da53699
@afc da736a1
@afd 3fff36a5
@afe daa36ad
@aff dac36b5
@b00 dae36bd
@b01 db036c5
@b02 db236cd
@b03 db436d5
@b04 db636dd
@b05 db836e5
@b06 c9bf8dba36ed
@b07 89637fff36f1
@b08 dbd36f9
@b09 dbf3701
@b0a dc13709
@b0b dc33711
@b0c dc53719
@b0d dc73721
@b0e dc93729
@b0f dcb3731
@b10 dcd3739
@b11 dcf3741
@b12 dd13749
@b13 dd33751
@b14 dd53759
@b15 897f8dd73761
@b16 dd93769
@b17 ddb3771
@b18 ddd3779
@b19 897f8ddf3781
@b1a de13789
@b1b de33791
@b1c de53799
@b1d de737a1
@b1e de937a9
@b1f deb37b1
@b20 ded37b9
@b21 def37c1
@b22 df137c9
@b23 3fff37cd
@b24 df437d5
@b25 df637dd
@b26 df837e5
@b27 3fff37e9
@b28 dfb37f1
@b29 dfd37f9
@b2a dff3801
@b2b e013809
@b2c c97f8e033811
@b2d e053819
@b2e e073821
@b2f e093829
@b30 e0b3831
@b31 e0d3839
@b32 e0f3841
@b33 89ff8e113849
@b34 e13fffd
@b35 e143855
@b36 e16385d
@b37 897f8e183865
@b38 e1a386d
@b39 897f8e1c3875
@b3a c97f8e1e387d
@b3b e203885
@b3c e22388d
@b3d e243895
@b3e e26389d
@b3f e2838a5
@b40 e2a38ad
@b41 e2c38b5
@b42 e2e38bd
@b43 e3038c5
@b44 e3238cd
@b45 e3438d5
@b46 e3638dd
@b47 897f8e3838e5
@b48 e3a38ed
@b49 e3c38f5
@b4a e3e38fd
@b4b e403905
@b4c e42390d
@b4d e443915
@b4e e46391d
@b4f e483925
@b50 e4a392d
@b51 e4c3935
@b52 e4e393d
@b53 e50fffd
@b54 e513949
@b55 e533951
@b56 3fff3955
@b57 e56395d
@b58 e583965
@b59 e5a396d
@b5a e5c3975
@b5b e5e397d
@b5c e603985
@b5d e62398d
@b5e e643995
@b5f e66399d
@b60 e6839a5
@b61 e6a39ad
@b62 e6c39b5
@b63 e6e39bd
@b64 c97f8e7039c5
@b65 e7239cd
@b66 e7439d5
@b67 e7639dd
@b68 e7839e5
@b69 89540e7a39ed
@b6a e7cfffd
@b6b e7dfffd
@b6c e7e39fd
@b6d 894f8e803a05
@b6e e823a0d
@b6f e843a15
@b70 e863a1d
@b71 e883a25
@b72 e8a3a2d
@b73 e8c3a35
@b74 e8e3a3d
@b75 e903a45
@b76 e923a4d
@b77 89ff8e943a55
@b78 e963a5d
@b79 e983a65
@b7a e9afffd
@b7b 897f8e9b3a71
@b7c c9ff4e9d3a79
@b7d e9f3a81
@b7e c97f8ea13a89
@b7f ea33a91
@b80 c97f8ea53a99
@b81 ea73aa1
@b82 ea93aa9
@b83 eab3ab1
@b84 ead3ab9
@b85 eaf3ac1
@b86 eb13ac9
@b87 897f8eb33ad1
@b88 eb53ad9
@b89 eb73ae1
@b8a eb93ae9
@b8b ebb3af1
@b8c ebd3af9
@b8d ebf3b01
@b8e ec13b09
@b8f ec33b11
@b90 ec53b19
@b91 ec73b21
@b92 ec93b29
@b93 ecb3b31
@b94 c97f8ecd3b39
@b95 3fff3b3d
@b96 ed03b45
@b97 3fff3b49
@b98 ed33b51
@b99 ed53b59
@b9a ed73b61
@b9b ed9fffd
@b9c eda3b6d
@b9d edcfffd
@b9e edd3b79
@b9f edffffd
@ba0 ee03b85
@ba1 ee23b8d
@ba2 ee4fffd
@ba3 ee53b99
@ba4 ee73ba1
@ba5 ee93ba9
@ba6 897fbffffffd
@ba7 eeb3bb1
@ba8 eedfffd
@ba9 93bf8eee3bbd
@baa ef03bc5
@bab ef23bcd
@bac ef43bd5
@bad ef63bdd
@bae ef83be5
@baf efa3bed
@bb0 efc3bf5
@bb1 3fff3bf9
@bb2 efffffd
@bb3 3fff3c01
@bb4 f01fffd
@bb5 f023c0d
@bb6 f04fffd
@bb7 f053c19
@bb8 c8bfbffffffd
@bb9 c8bfbffffffd
@bba 3fff3c1d
@bbb f08fffd
@bbc f093c29
@bbd c93f8f0b3c31
@bbe 893f8f0d3c39
@bbf f0ffffd
@bc0 f103c45
@bc1 893f8f123c4d
@bc2 c9ffbfff3c51
@bc3 89ff8f15fffd
@bc4 f16fffd
@bc5 f173c61
@bc6 c87f8f193c69
@bc7 887fbffffffd
@bc8 f1b3c71
@bc9 f1d3c79
@bca c97f8f1f3c81
@bcb 893f8f213c89
@bcc c93f4f233c91
@bcd f253c99
@bce f273ca1
@bcf f29fffd
@bd0 221fe88bf8f2a3cad
@bd1 c84f3ffffffd
@bd2 3fff3cb1
@bd3 c8ff8f2dffff
@bd4 f2efffd
@bd5 f2ffffd
@bd6 3fff3cc1
@bd7 322fec9ffbfff3cc5
@bd8 222fe89ff8f323ccd
@bd9 f34fffd
@bda 322fec97f8f353cd9
@bdb 3fff3cdd
@bdc 222fe89bf8f38fffd
@bdd c8bfbffffffd
@bde 3fff3ce5
@bdf 3fff3ce9
@be0 f3b3cf1
@be1 c93f8f3d3cf9
@be2 f3ffffd
@be3 893f4f403d05
@be4 893f8f423d0d
@be5 893f8f443d15
@be6 f46fffd
@be7 f47fffd
@be8 c93f8f483d25
@be9 89ff8f4a3d2d
@bea 3fff3d31
@beb f4d3d39
@bec f4f3d41
@bed 893f8f51fffd
@bee c8ff8f52fffd
@bef f533d51
@bf0 f553d59
@bf1 f573d61
@bf2 c97f8f593d69
@bf3 f5b3d71
@bf4 c8bfbfff3d75
@bf5 3fff3d79
@bf6 f5ffffd
@bf7 f603d85
@bf8 f623d8d
@bf9 f643d95
@bfa f66fffd
@bfb 897f8f673da1
@bfc f693da9
@bfd f6b3db1
@bfe f6d3db9
@bff f6f3dc1
@c00 3fff3dc5
@c01 f723dcd
@c02 3fff3dd1
@c03 f75fffd
@c04 f763ddd
@c05 887fbffffffd
@c06 c8bf8f783de5
@c07 3fff3de9
@c08 c9ff8f7b3df1
@c09 89ff8f7d3df9
@c0a f7ffffd
@c0b 897f8f803e05
@c0c f82fffd
@c0d 3fff3e0d
@c0e d17f8f843e15
@c0f 93ff8f86ffff
@c10 8a3f8f87fffd
@c11 3fff3e21
@c12 3fff3e25
@c13 907fbffffffd
@c14 f8afffd
@c15 f8bfffd
@c16 241fe93bf8f8c3e35
@c17 d17f8f8e3e3d
@c18 917f8f903e45
@c19 d0ff8f923e4d
@c1a 90ff8f943e55
@c1b d13f8f963e5d
@c1c 244fe93bf8f983e65
@c1d f9a3e6d
@c1e 93bf8f9c3e75
@c1f 3fff3e79
@c20 3fff3e7d
@c21 fa0fffd
@c22 3fff3e85
@c23 fa23e8d
@c24 fa4fffd
@c25 93bfbfff3e95
@c26 fa63e9d
@c27 fa8fffd
@c28 fa93ea9
@c29 fab3eb1
@c2a fadfffd
@c2b faefffd
@c2c 3fff3ebd
@c2d c8ffbfff3ec1
@c2e fb1fffd
@c2f fb2fffd
@c30 3fff3ecd
@c31 48e63fff3ed1
@c32 3fff3ed5
@c33 fb6fffd
@c34 787fbffffffd
@c35 787fbffffffd
@c36 387fbfff3edd
@c37 387fbffffffd
@c38 787fbffffffd
@c39 48ffbffffffd
@c3a 87f8fb83ee5
@c3b fba3eed
@c3c 3fff3ef1
@c3d 87f8fbdfffd
@c3e 3fff3ef9
@c3f 3fff3efd
@c40 207fbffffffd
@c41 3fff3f01
@c42 3fff3f05
@c43 3fff3f09
@c44 3fff3f0d
@c45 787fbffffffd
@c46 387fbffffffd
@c47 387fbffffffd
@c48 787fbffffffd
@c49 fc4fffd
@c4a 48bfbfff3f15
@c4b 387fbfff3f19
@c4c fc7fffd
@c4d 3fff3f21
@c4e 3fff3f25
@c4f 3fff3f29
@c50 fcbfffd
@c51 87f8fccfffd
@c52 fcdfffd
@c53 49ff4fce3f3d
@c54 20660fd03f45
@c55 60663ffffffd
@c56 787fbfff3f49
@c57 fd33f51
@c58 787f8fd5fffd
@c59 fd6fffd
@c5a fd7fffd
@c5b fd8fffd
@c5c 213f8fd9fffd
@c5d fdafffd
@c5e 3fff3f6d
@c5f fdcfffd
@c60 3fff3f75
@c61 fdefffd
@c62 70bfbffffffd
@c63 3fff3f7d
@c64 48ffbffffffd
@c65 fe0fffd
@c66 fe1fffd
@c67 fe2fffd
@c68 3fff3f8d
@c69 fe4fffd
@c6a 87f8fe53f99
@c6b 387fbffffffd
@c6c fe7fffd
@c6d 387fbffffffd
@c6e 787fbffffffd
@c6f 387fbffffffd
@c70 787fbffffffd
@c71 387fbffffffd
@c72 387fbffffffd
@c73 787fbffffffd
@c74 387fbffffffd
@c75 787fbffffffd
@c76 3fff3fa1
@c77 3fff3fa5
@c78 feafffd
@c79 787fbffffffd
@c7a 3fff3fad
@c7b 387fbffffffd
@c7c 493fbfff3fb1
@c7d fedfffd
@c7e feefffd
@c7f 3fff3fbd
@c80 3fff3fc1
@c81 ff13fc9
@c82 ff33fd1
@c83 ff5fffd
@c84 48ff8ff6fffd
@c85 ff7fffd
@c86 493fbfff3fe1
@c87 3fff3fe5
@c88 8bf8ffafffd
@c89 ffbfffd
@c8a 49bfbfff3ff1
@c8b ffdfffd
@c8c ffe3ffd
@c8d 3fff4001
@c8e 3fff4005
@c8f 3fff4009
@c90 3fff400d
@c91 3fff4011
@c92 48bfbfff4015
@c93 87fbfff4019
@c94 487f7fff401d
@c95 3fff4021
@c96 10094029
@c97 100bfffd
@c98 3fff4031
@c99 100dfffd
@c9a 8bf900efffd
@c9b 787fbffffffd
@c9c 387fbffffffd
@c9d 787fbffffffd
@c9e 387fbffffffd
@c9f 100ffffd
@ca0 1010fffd
@ca1 87f5011fffd
@ca2 787fbffffffd
@ca3 387fbffffffd
@ca4 387fbffffffd
@ca5 1012fffd
@ca6 8bfbffffffd
@ca7 787fbffffffd
@ca8 387fbffffffd
@ca9 387fbffffffd
@caa 3fff404d
@cab 1014fffd
@cac 123fe493fbfff4055
@cad 1016fffd
@cae 3fff405d
@caf 1018fffd
@cb0 3fff4065
@cb1 3fff4069
@cb2 3fff406d
@cb3 229809a6101cfffd
@cb4 101dfffd
@cb5 87f7ffffffd
@cb6 101efffd
@cb7 101ffffd
@cb8 1020fffd
@cb9 3fff4085
@cba 49ddbfff4089
@cbb 487fbfff408d
@cbc 3fff4091
@cbd 3fff4095
@cbe 507f9026fffd
@cbf 102740a1
@cc0 102940a9
@cc1 50ff902b40b1
@cc2 10ff902d40b9
@cc3 48bf902f40c1
@cc4 93f903140c9
@cc5 1033fffd
@cc6 3fff40d1
@cc7 103540d9
@cc8 103740e1
@cc9 1039fffd
@cca 103afffd
@ccb 3fff40ed
@ccc 103c40f5
@ccd 103e40fd
@cce 3fff4101
@ccf 1041fffd
@cd0 10ff9042410d
@cd1 50cf3fff4111
@cd2 50c83fff4115
@cd3 3fff4119
@cd4 3fff411d
@cd5 1048fffd
@cd6 1049fffd
@cd7 144fe51bf904a412d
@cd8 3fff4131
@cd9 104d4139
@cda 104ffffd
@cdb 487f90504145
@cdc 1052fffd
@cdd 10534151
@cde 107fbffffffd
@cdf 10bf90554159
@ce0 1057fffd
@ce1 107fbffffffd
@ce2 507fbffffffd
@ce3 107fbffffffd
@ce4 50ff90584165
@ce5 105afffd
@ce6 105bfffd
@ce7 113f905cfffd
@ce8 3fff4175
@ce9 3fff4179
@cea 507fbffffffd
@ceb 107fbfff417d
@cec 1060fffd
@ced 10614189
@cee 3fff418d
@cef 1064fffd
@cf0 1065fffd
@cf1 50bfbfff4199
@cf2 107fbfff419d
@cf3 3fff41a1
@cf4 1069fffd
@cf5 3fff41a9
@cf6 3fff41ad
@cf7 106c41b5
@cf8 106efffd
@cf9 513f906f41c1
@cfa 10ff907141c9
@cfb 3fff41cd
@cfc 3fff41d1
@cfd 3fff41d5
@cfe 49e6107641dd
@cff 9e6107841e5
@d00 3fff41e9
@d01 3fff41ed
@d02 107c41f5
@d03 10ff907e41fd
@d04 3fff4201
@d05 1081fffd
@d06 1082fffd
@d07 10834211
@d08 10854219
@d09 1087fffd
@d0a 1088fffd
@d0b 107f90894229
@d0c 507f908bfffd
@d0d 108c4235
@d0e 108efffd
@d0f 3fff423d
@d10 3fff4241
@d11 9bf9091fffd
@d12 432011881092424d
@d13 1094fffd
@d14 10954259
@d15 507fbffffffd
@d16 107fbfff425d
@d17 1098fffd
@d18 1099fffd
@d19 11bf909a426d
@d1a 113f909cfffd
@d1b 3fff4275
@d1c 109efffd
@d1d 109ffffd
@d1e 44fe11bf90a04285
@d1f 10a2428d
@d20 3fff4291
@d21 508f3ffffffd
@d22 3fff4295
@d23 3fff4299
@d24 10a742a1
@d25 107f90a942a9
@d26 50bf90ab42b1
@d27 41fe10ff90ad42b9
@d28 10af42c1
@d29 42fe113f90b142c9
@d2a 141fe50ff90b342d1
@d2b 10ff90b542d9
@d2c 3fff42dd
@d2d 51bfbfff42e1
@d2e 10b942e9
@d2f 50bfbfff42ed
@d30 10bc42f5
@d31 10be42fd
@d32 10c04305
@d33 50ff90c2430d
@d34 507f90c44315
@d35 3fff4319
@d36 10c7fffd
@d37 48ff90c84325
@d38 44fe08ff90ca432d
@d39 10ff90cc4335
@d3a 10cefffd
@d3b 10ffbfff433d
@d3c 10d04345
@d3d 107fbffffffd
@d3e 3fff4349
@d3f 3fff434d
@d40 11bfbfff4351
@d41 507fbffffffd
@d42 107fbffffffd
@d43 507fbffffffd
@d44 107fbffffffd
@d45 507fbffffffd
@d46 107fbffffffd
@d47 507fbffffffd
@d48 107fbffffffd
@d49 507fbffffffd
@d4a 107fbffffffd
@d4b 507fbffffffd
@d4c 507fbffffffd
@d4d 3fff4355
@d4e 50bfbfff4359
@d4f 113f90d7fffd
@d50 10d84365
@d51 51bfbfff4369
@d52 10ff90dbfffd
@d53 11bf90dc4375
@d54 508f3ffffffd
@d55 50bfbfff4379
@d56 3fff437d
@d57 10e04385
@d58 10e2438d
@d59 3fff4391
@d5a 10e5fffd
@d5b 10e6fffd
@d5c 513f90e743a1
@d5d 507f90e9fffd
@d5e 3fff43a9
@d5f 50cf3ffffffd
@d60 10eb43b1
@d61 10edfffd
@d62 10eefffd
@d63 8bfbffffffd
@d64 487fbffffffd
@d65 87fbffffffd
@d66 487fbffffffd
@d67 87fbffffffd
@d68 3fff43bd
@d69 10f0fffd
@d6a 10f143c9
@d6b 493f90f343d1
@d6c 10f543d9
@d6d 10f743e1
@d6e 97f90f9fffd
@d6f 10fa43ed
@d70 10fc43f5
@d71 10fe43fd
@d72 3fff4401
@d73 24fe09ff91014409
@d74 487fbffffffd
@d75 3fff440d
@d76 87f9104fffd
@d77 11054419
@d78 11074421
@d79 487f91094429
@d7a 110b4431
@d7b 3fff4435
@d7c 3fff4439
@d7d 110f4441
@d7e 3fff4445
@d7f 3fff4449
@d80 3fff444d
@d81 3fff4451
@d82 1115fffd
@d83 1116445d
@d84 11184465
@d85 93fbfff4469
@d86 121fe49bfbfff446d
@d87 9ff911cfffd
@d88 493fbfff4475
@d89 487fbffffffd
@d8a 3fff4479
@d8b 87fbffffffd
@d8c 21fe08bf911ffffd
@d8d 3fff4481
@d8e 11214489
@d8f 11234491
@d90 48bf9125fffd
@d91 3fff4499
@d92 1127fffd
@d93 23fe09ff912844a5
@d94 3fff44a9
@d95 112b44b1
@d96 3fff44b5
@d97 3fff44b9
@d98 3fff44bd
@d99 3fff44c1
@d9a 8bfbffffffd
@d9b 3fff44c5
@d9c 22fe097f913244cd
@d9d 113444d5
@d9e 1136fffd
@d9f 113744e1
@da0 3fff44e5
@da1 113a44ed
@da2 8ff513cfffd
@da3 3fff44f5
@da4 113efffd
@da5 48ff913f4501
@da6 387f91414509
@da7 11434511
@da8 8ffbfff4515
@da9 1146451d
@daa 11484525
@dab 114a452d
@dac 114c4535
@dad 93f914e453d
@dae 8bf9150fffd
@daf 121fd49ff7fff4545
@db0 1152fffd
@db1 11534551
@db2 11554559
@db3 11574561
@db4 11594569
@db5 115b4571
@db6 115dfffd
@db7 493f915e457d
@db8 1160fffd
@db9 11614589
@dba 9cf11634591
@dbb 11654599
@dbc 3fff459d
@dbd 3fff45a1
@dbe 3fff45a5
@dbf 116afffd
@dc0 8ffbfff45ad
@dc1 123fe49ff916c45b5
@dc2 3fff45b9
@dc3 48ff916f45c1
@dc4 49ffbfff45c5
@dc5 1172fffd
@dc6 87fbfff45cd
@dc7 3fff45d1
@dc8 87fbffffffd
@dc9 87f9175fffd
@dca 87fbffffffd
@dcb 1176fffd
@dcc 3fff45dd
@dcd 87fbffffffd
@dce 1178fffd
@dcf 3fff45e5
@dd0 117afffd
@dd1 117b45f1
@dd2 117dfffd
@dd3 8bfbfff45f9
@dd4 117ffffd
@dd5 8bfbffffffd
@dd6 48bfbffffffd
@dd7 23fe09ff9180fffd
@dd8 11814609
@dd9 11834611
@dda 11854619
@ddb 93fbfff461d
@ddc 11884625
@ddd 118a462d
@dde 118c4635
@ddf 118efffd
@de0 48bf918ffffd
@de1 8bfbfff4641
@de2 493f91914649
@de3 1193fffd
@de4 11944655
@de5 3fff4659
@de6 87fbfff465d
@de7 11984665
@de8 119a466d
@de9 119c4675
@dea 3fff4679
@deb 119f4681
@dec 11a14689
@ded 497f51a34691
@dee 93f91a54699
@def 11a7fffd
@df0 11a846a5
@df1 11aa46ad
@df2 3fff46b1
@df3 11adfffd
@df4 3fff46b9
@df5 3fff46bd
@df6 11b046c5
@df7 93f91b2fffd
@df8 11b3fffd
@df9 87f91b4fffd
@dfa 3fff46d5
@dfb 113f91b6fffd
@dfc 287fbffffffd
@dfd 68bfbfff46dd
@dfe 287fbfff46e1
@dff 293f91b946e9
@e00 11bb46f1
@e01 293f91bd46f9
@e02 11bffffd
@e03 11c04705
@e04 11c2470d
@e05 11c44715
@e06 11c6471d
@e07 4a3fbfff4721
@e08 11c94729
@e09 493f91cb4731
@e0a 11cdfffd
@e0b 11ce473d
@e0c 11d04745
@e0d 11d2fffd
@e0e 24fe0a3f91d34751
@e0f 493f91d54759
@e10 11d74761
@e11 11d94769
@e12 11db4771
@e13 493f91dd4779
@e14 3fff477d
@e15 11e04785
@e16 3fff4789
@e17 11e34791
@e18 11e54799
@e19 493fbffffffd
@e1a 11e747a1
@e1b 11e947a9
@e1c 24fe09bf91eb47b1
@e1d 11ed47b9
@e1e 11ef47c1
@e1f 493f91f147c9
@e20 11f347d1
@e21 4a3f91f547d9
@e22 11f7fffd
@e23 11f847e5
@e24 11fa47ed
@e25 3fff47f1
@e26 11fdfffd
@e27 11fefffd
@e28 3fff47fd
@e29 3fff4801
@e2a 8437fff4805
@e2b 693f9202480d
@e2c c1fe293f9204fffd
@e2d 1a1fe68bf9205fffd
@e2e 28bf9206fffd
@e2f 707fbffffffd
@e30 30ff9207fffd
@e31 3fff4821
@e32 707fbffffffd
@e33 12094829
@e34 307fbffffffd
@e35 307f920bfffd
@e36 687fbffffffd
@e37 307fbffffffd
@e38 120c4835
@e39 30bf920efffd
@e3a 707fbffffffd
@e3b 307fbffffffd
@e3c c1fe0a3f920f4841
@e3d 307fbffffffd
@e3e 707fbffffffd
@e3f 307fbffffffd
@e40 3fff4845
@e41 707fbffffffd
@e42 1212fffd
@e43 307fbffffffd
@e44 70bfbffffffd
@e45 307fbffffffd
@e46 707fbffffffd
@e47 497fbfff484d
@e48 307fbffffffd
@e49 707fbffffffd
@e4a 1214fffd
@e4b 707fbffffffd
@e4c 707fbffffffd
@e4d 30ff92154859
@e4e 70bf92174861
@e4f 30ff92194869
@e50 121b4871
@e51 93fbfff4875
@e52 707f921e487d
@e53 3fff4881
@e54 12214889
@e55 12234891
@e56 12254899
@e57 707f9227fffd
@e58 307fbfff48a1
@e59 122948a9
@e5a 122b48b1
@e5b 122d48b9
@e5c 122f48c1
@e5d 1231fffd
@e5e 1232fffd
@e5f 48bfbfff48cd
@e60 8835234fffd
@e61 3fff48d5
@e62 4a3f9236ffff
@e63 48bfbffffffd
@e64 1237fffd
@e65 484f3ffffffd
@e66 1238fffd
@e67 123948e9
@e68 24fe0a3f923b48f1
@e69 123d48f9
@e6a 93f923f4901
@e6b 12414909
@e6c 1243fffd
@e6d 12444915
@e6e 1246491d
@e6f 12484925
@e70 124a492d
@e71 124c4935
@e72 124efffd
@e73 124f4941
@e74 12514949
@e75 12534951
@e76 12554959
@e77 3fff495d
@e78 12584965
@e79 125afffd
@e7a 493fbfff496d
@e7b 125c4975
@e7c 497f925e497d
@e7d 8ffbffffffd
@e7e 12604985
@e7f 1262498d
@e80 687fbffffffd
@e81 3fff4991
@e82 1265fffd
@e83 28bf9266fffd
@e84 1267fffd
@e85 126849a5
@e86 126a49ad
@e87 9ff926c49b5
@e88 87fbffffffd
@e89 8ff926efffd
@e8a 126ffffd
@e8b 3fff49c1
@e8c 87fbffffffd
@e8d 127149c9
@e8e 127349d1
@e8f 1275fffd
@e90 3fff49d9
@e91 1277fffd
@e92 1278fffd
@e93 493f927949e9
@e94 127b49f1
@e95 87fbffffffd
@e96 127d49f9
@e97 48463ffffffd
@e98 127ffffd
@e99 50bf92804a05
@e9a 3fff4a09
@e9b 3fff4a0d
@e9c 1284fffd
@e9d 1285fffd
@e9e 3fff4a19
@e9f 3fff4a1d
@ea0 293fbffffffd
@ea1 687fbffffffd
@ea2 12884a25
@ea3 3fff4a29
@ea4 58ff928b4a31
@ea5 3fff4a35
@ea6 693f928e4a3d
@ea7 293f92904a45
@ea8 687fbffffffd
@ea9 58bf92924a4d
@eaa 3fff4a51
@eab 22fe08ff92954a59
@eac 1297fffd
@ead 3fff4a61
@eae 8bfbffffffd
@eaf 88f1299fffd
@eb0 129afffd
@eb1 129b4a71
@eb2 8ffbffffffd
@eb3 517f929d4a79
@eb4 a3f929ffffd
@eb5 12a0fffd
@eb6 12a14a89
@eb7 497fbfff4a8d
@eb8 12a4fffd
@eb9 507f92a5fffd
@eba 117f92a64a9d
@ebb 507f7ffffffd
@ebc 87fbffffffd
@ebd 487fbffffffd
@ebe 48bfbffffffd
@ebf 12a8fffd
@ec0 12a9fffd
@ec1 12aafffd
@ec2 48bfbffffffd
@ec3 142fe513f92ab4ab1
@ec4 10bfbfff4ab5
@ec5 12ae4abd
@ec6 12b0fffd
@ec7 50ffbfff4ac5
@ec8 8ff92b2fffd
@ec9 50ff92b34ad1
@eca 12b54ad9
@ecb 51cf12b74ae1
@ecc 3fff4ae5
@ecd 51cf12ba4aed
@ece 12bc4af5
@ecf 12be4afd
@ed0 12c04b05
@ed1 12c24b0d
@ed2 12c44b15
@ed3 8ff92c64b1d
@ed4 10bf92c84b25
@ed5 10bfbffffffd
@ed6 12ca4b2d
@ed7 12ccfffd
@ed8 93f92cd4b39
@ed9 687fbffffffd
@eda 287fbffffffd
@edb 12cffffd
@edc 3fff4b41
@edd a2fe297f92d14b49
@ede 12d3fffd
@edf 12d44b55
@ee0 12d6fffd
@ee1 12d7fffd
@ee2 487f92d84b65
@ee3 28bfbffffffd
@ee4 48bfbffffffd
@ee5 693fbfff4b69
@ee6 3fff4b6d
@ee7 8bfbfff4b71
@ee8 3fff4b75
@ee9 12defffd
@eea 12dffffd
@eeb 48463ffffffd
@eec 12e0fffd
@eed 12e14b89
@eee 3fff4b8d
@eef 12e4fffd
@ef0 12e5fffd
@ef1 12e64b9d
@ef2 12e84ba5
@ef3 12eafffd
@ef4 691c3ffffffd
@ef5 291c12ebfffd
@ef6 12ecfffd
@ef7 291c3fff4bb5
@ef8 12eefffd
@ef9 12ef4bc1
@efa 12f14bc9
@efb 12f34bd1
@efc 3fff4bd5
@efd 12f64bdd
@efe 12f84be5
@eff 12fa4bed
@f00 12fcfffd
@f01 3fff4bf5
@f02 12fefffd
@f03 12ff4c01
@f04 13014c09
@f05 3fff4c0d
@f06 13044c15
@f07 23fe09ff93064c1d
@f08 1308fffd
@f09 687fbffffffd
@f0a 687fbffffffd
@f0b 1309fffd
@f0c 97f930afffd
@f0d 3fff4c2d
@f0e 87fbffffffd
@f0f 21fe093f930cfffd
@f10 50ff930dfffd
@f11 10bf930e4c3d
@f12 143fe51bf93104c45
@f13 10ff93124c4d
@f14 13144c55
@f15 13164c5d
@f16 3fff4c61
@f17 690f3fff4c65
@f18 3fff4c69
@f19 131bfffd
@f1a 687f931c4c75
@f1b 131e4c7d
@f1c 1320fffd
@f1d 3fff4c85
@f1e 3fff4c89
@f1f 13234c91
@f20 13254c99
@f21 1a1fe693fbfff4c9d
@f22 1328fffd
@f23 1329fffd
@f24 93f932a4cad
@f25 1a2fe50ffbfff4cb1
@f26 132d4cb9
@f27 132f4cc1
@f28 50bf93314cc9
@f29 3fff4ccd
@f2a 42fe10ff93344cd5
@f2b 50bfbffffffd
@f2c 687f93364cdd
@f2d 3fff4ce1
@f2e 1339fffd
@f2f 133a4ced
@f30 41fe093f933c4cf5
@f31 51bf933e4cfd
@f32 1340fffd
@f33 113f93414d09
@f34 1343fffd
@f35 1344fffd
@f36 13454d19
@f37 517fbfff4d1d
@f38 13484d25
@f39 134a4d2d
@f3a 687fbffffffd
@f3b 287fbffffffd
@f3c 1a1fe507fbffffffd
@f3d 287fbffffffd
@f3e 687f934cfffd
@f3f 287f934d4d39
@f40 687f934f4d41
@f41 287fbffffffd
@f42 687f93514d49
@f43 287f93534d51
@f44 1a1fe517f93554d59
@f45 287f93574d61
@f46 13594d69
@f47 3fff4d6d
@f48 287fbfff4d71
@f49 1a1fe693fbfff4d75
@f4a 135e4d7d
@f4b 3fff4d81
@f4c 3fff4d85
@f4d 13624d8d
@f4e a3f93644d95
@f4f 687f9366fffd
@f50 1367fffd
@f51 1368fffd
@f52 1a1fe693f93694da9
@f53 136bfffd
@f54 68bf936cfffd
@f55 87fbffffffd
@f56 68bfbffffffd
@f57 28ffbfff4db5
@f58 68ff936e4dbd
@f59 293f93704dc5
@f5a 3fff4dc9
@f5b 3fff4dcd
@f5c 48ff9374fffd
@f5d 1375fffd
@f5e 1376fffd
@f5f 48ffbffffffd
@f60 13774de1
@f61 13794de9
@f62 137bfffd
@f63 137cfffd
@f64 137d4df9
@f65 137ffffd
@f66 87fbfff4e01
@f67 3fff4e05
@f68 1382fffd
@f69 13834e11
@f6a 3fff4e15
@f6b 13864e1d
@f6c 3fff4e21
@f6d 1389fffd
@f6e 3fff4e29
@f6f 68ff938b4e31
@f70 28bf938d4e39
@f71 68bf938f4e41
@f72 1391fffd
@f73 287fbffffffd
@f74 687fbffffffd
@f75 287fbffffffd
@f76 687fbffffffd
@f77 287f93924e4d
@f78 687fbffffffd
@f79 287fbffffffd
@f7a 28bf9394fffd
@f7b 50ff93954e59
@f7c 10ff93974e61
@f7d 50ff93994e69
@f7e 10ff939b4e71
@f7f 50ff939d4e79
@f80 10ff939f4e81
@f81 41fe113f93a14e89
@f82 50ff93a34e91
@f83 10ff93a54e99
@f84 50ff93a74ea1
@f85 10ff93a94ea9
@f86 50ff93ab4eb1
@f87 10ff93ad4eb9
@f88 50ff93af4ec1
@f89 10ff93b14ec9
@f8a 48bfbfff4ecd
@f8b 3fff4ed1
@f8c 3fff4ed5
@f8d 13b6fffd
@f8e 13b74ee1
@f8f 13b94ee9
@f90 48bfbffffffd
@f91 3fff4eed
@f92 3fff4ef1
@f93 13bdfffd
@f94 13befffd
@f95 3fff4efd
@f96 48bfbffffffd
@f97 88f13c0fffd
@f98 13c14f09
@f99 13c3fffd
@f9a 122fe4a3f93c44f15
@f9b a3f93c6fffd
@f9c 8cf13c74f21
@f9d 687fbffffffd
@f9e 3fff4f25
@f9f 3fff4f29
@fa0 13cbfffd
@fa1 125fe49bf93cc4f35
@fa2 13ce4f3d
@fa3 3fff4f41
@fa4 3fff4f45
@fa5 3fff4f49
@fa6 13d3fffd
@fa7 23fe093f93d44f55
@fa8 3fff4f59
@fa9 13d7fffd
@faa 13d8fffd
@fab 13d9fffd
@fac 13da4f6d
@fad 97f93dc4f75
@fae 13de4f7d
@faf 13e04f85
@fb0 13e24f8d
@fb1 13e4fffd
@fb2 487f93e5fffd
@fb3 3fff4f99
@fb4 87fbffffffd
@fb5 13e74fa1
@fb6 13e94fa9
@fb7 21fe093f93ebfffd
@fb8 13ec4fb5
@fb9 13ee4fbd
@fba 3fff4fc1
@fbb 9bf93f14fc9
@fbc 3fff4fcd
@fbd 3fff4fd1
@fbe 3fff4fd5
@fbf 13f64fdd
@fc0 88f3ffffffd
@fc1 13f84fe5
@fc2 13fafffd
@fc3 13fb4ff1
@fc4 3fff4ff5
@fc5 493fbffffffd
@fc6 13fefffd
@fc7 13ff5001
@fc8 14015009
@fc9 3fff500d
@fca 48cf3fff5011
@fcb 8cf3ffffffd
@fcc 14055019
@fcd 23fe097f9407fffd
@fce 3fff5021
@fcf 97f9409fffd
@fd0 484f3ffffffd
@fd1 140a502d
@fd2 140cfffd
@fd3 687fbffffffd
@fd4 687fbffffffd
@fd5 693fbfff5035
@fd6 3fff5039
@fd7 3fff503d
@fd8 3fff5041
@fd9 14115049
@fda a3f94135051
@fdb 48ff94155059
@fdc 14175061
@fdd 3fff5065
@fde 141afffd
@fdf 3fff506d
@fe0 141c5075
@fe1 141efffd
@fe2 693fbfff507d
@fe3 a2fe28ff9420fffd
@fe4 687fbffffffd
@fe5 307fbffffffd
@fe6 3fff5085
@fe7 1422fffd
@fe8 14235091
@fe9 14255099
@fea 1427fffd
@feb 142850a5
@fec 142a50ad
@fed 142cfffd
@fee 707f942dfffd
@fef 3fff50b9
@ff0 142ffffd
@ff1 48bfbfff50c1
@ff2 1431fffd
@ff3 4a3f943250cd
@ff4 c1fe09ff943450d5
@ff5 707fbffffffd
@ff6 307fbfff50d9
@ff7 143750e1
@ff8 1439fffd
@ff9 3fff50e9
@ffa 307fbffffffd
@ffb 307fbffffffd
@ffc 143b50f1
@ffd 143dfffd
@ffe 143e50fd
@fff 14405105
@1000 1442510d
@1001 3fff5111
@1002 14455119
@1003 1447fffd
@1004 1448fffd
@1005 3fff5125
@1006 144a512d
@1007 144c5135
@1008 144e513d
@1009 14505145
@100a 1452514d
@100b 14545155
@100c 1456515d
@100d 14585165
@100e 493f945a516d
@100f 145c5175
@1010 497f945e517d
@1011 14605185
@1012 1462fffd
@1013 1463fffd
@1014 3fff5191
@1015 22fe09ffbffffffd
@1016 3fff5195
@1017 3fff5199
@1018 1467fffd
@1019 146851a5
@101a 3fff51a9
@101b 3fff51ad
@101c 3fff51b1
@101d 48bf546dfffd
@101e 8bfbffffffd
@101f 68ffbfff51b9
@1020 146f51c1
@1021 684f3ffffffd
@1022 287fbfff51c5
@1023 68ff947251cd
@1024 3fff51d1
@1025 48bfbffffffd
@1026 1475fffd
@1027 1476fffd
@1028 147751e1
@1029 147951e9
@102a 147b51f1
@102b 147d51f9
@102c 3fff51fd
@102d 14805205
@102e 8ff9482520d
@102f 487fbffffffd
@1030 1484fffd
@1031 14855219
@1032 87f7ffffffd
@1033 121fe48bfbfff521d
@1034 487fbffffffd
@1035 14885225
@1036 148a522d
@1037 687fbffffffd
@1038 28bf948cfffd
@1039 287f7ffffffd
@103a 48bfbfff5235
@103b 8bfbffffffd
@103c 148efffd
@103d 148ffffd
@103e 14905245
@103f 22fe093f9492fffd
@1040 3fff524d
@1041 1494fffd
@1042 1495fffd
@1043 1496fffd
@1044 22fe08ff9497fffd
@1045 14985265
@1046 149a526d
@1047 3fff5271
@1048 149dfffd
@1049 149e527d
@104a 14a0fffd
@104b 14a1fffd
@104c 14a2528d
@104d 14a45295
@104e 14a6529d
@104f 49bf94a852a5
@1050 14aa52ad
@1051 14ac52b5
@1052 14ae52bd
@1053 14b052c5
@1054 14b252cd
@1055 14b452d5
@1056 14b652dd
@1057 14b852e5
@1058 14ba52ed
@1059 3fff52f1
@105a 14bd52f9
@105b 14bf5301
@105c 14c15309
@105d 487f94c3fffd
@105e 14c45315
@105f 14c6531d
@1060 97f94c85325
@1061 14ca532d
@1062 97f94cc5335
@1063 14ce533d
@1064 14d05345
@1065 14d2534d
@1066 14d45355
@1067 14d6535d
@1068 14d85365
@1069 48ff94da536d
@106a 14dc5375
@106b 14de537d
@106c 14e05385
@106d 9dc14e2538d
@106e 14e4fffd
@106f 9dc14e55399
@1070 14e753a1
@1071 14e953a9
@1072 14eb53b1
@1073 14ed53b9
@1074 14ef53c1
@1075 14f153c9
@1076 14f353d1
@1077 14f553d9
@1078 14f753e1
@1079 68d694f953e9
@107a 3fff53ed
@107b 14fc53f5
@107c 14fe53fd
@107d 15005405
@107e 287f9502540d
@107f 15045415
@1080 68c59506541d
@1081 28c595085425
@1082 3fff5429
@1083 287f950b5431
@1084 150dfffd
@1085 150e543d
@1086 15105445
@1087 28bf9512544d
@1088 49ffbfff5451
@1089 1515fffd
@108a 1516545d
@108b 15185465
@108c 151afffd
@108d 3fff546d
@108e 9ff951cffff
@108f 151d5479
@1090 487fbffffffd
@1091 687fbffffffd
@1092 151ffffd
@1093 15205485
@1094 3fff5489
@1095 3fff548d
@1096 1524fffd
@1097 68bfbffffffd
@1098 a1fe09ff95255499
@1099 1527fffd
@109a 3fff54a1
@109b 152954a9
@109c 68bfbffffffd
@109d 152bfffd
@109e 152cfffd
@109f 3fff54b5
@10a0 48bf552e54bd
@10a1 3fff54c1
@10a2 153154c9
@10a3 93f9533fffd
@10a4 22fe08ff953454d5
@10a5 1536fffd
@10a6 3fff54dd
@10a7 3fff54e1
@10a8 1539fffd
@10a9 48bfbffffffd
@10aa 8bf953afffd
@10ab 3fff54ed
@10ac 153c54f5
@10ad 153efffd
@10ae 490f153f5501
@10af 15415509
@10b0 3fff550d
@10b1 487f9544fffd
@10b2 497f95455519
@10b3 15475521
@10b4 1549fffd
@10b5 3fff5529
@10b6 154b5531
@10b7 154dfffd
@10b8 487f954e553d
@10b9 487fbffffffd
@10ba 1550fffd
@10bb 3fff5545
@10bc 28ff9552554d
@10bd 1554fffd
@10be 3fff5555
@10bf 87f9556555d
@10c0 1a2fe68ffbfff5561
@10c1 3fff5565
@10c2 155a556d
@10c3 3fff5571
@10c4 155dfffd
@10c5 155e557d
@10c6 15605585
@10c7 1562558d
@10c8 1564fffd
@10c9 3fff5595
@10ca 28ff9566fffd
@10cb 3fff559d
@10cc 3fff55a1
@10cd 28ff956955a9
@10ce 28ff956b55b1
@10cf 28bfbffffffd
@10d0 68ff956dffff
@10d1 287fbfff55b9
@10d2 3fff55bd
@10d3 157055c5
@10d4 3fff55c9
@10d5 1573fffd
@10d6 1574fffd
@10d7 28ff957555d9
@10d8 28ff957755e1
@10d9 687f9579fffd
@10da 157a55ed
@10db 157c55f5
@10dc 1a1fe68ff957e55fd
@10dd 28ff95805605
@10de 1582560d
@10df 141fe51bfbfff5611
@10e0 3fff5615
@10e1 1586fffd
@10e2 3fff561d
@10e3 1588fffd
@10e4 1589fffd
@10e5 158afffd
@10e6 158bfffd
@10e7 3fff5631
@10e8 10bf958dfffd
@10e9 158efffd
@10ea 3fff563d
@10eb 15905645
@10ec 3fff5649
@10ed 8ff9593fffd
@10ee 1594fffd
@10ef 15955659
@10f0 3fff565d
@10f1 3fff5661
@10f2 48ffbffffffd
@10f3 507f9599fffd
@10f4 107fbfff5669
@10f5 687fbffffffd
@10f6 287fbffffffd
@10f7 687fbffffffd
@10f8 159b5671
@10f9 159dfffd
@10fa 159efffd
@10fb 3fff567d
@10fc 15a0fffd
@10fd 15a1fffd
@10fe 51bfbfff5689
@10ff 15a3fffd
@1100 3fff5691
@1101 15a5fffd
@1102 15a6fffd
@1103 3fff569d
@1104 3fff56a1
@1105 15a9fffd
@1106 15aafffd
@1107 3fff56ad
@1108 15acfffd
@1109 51bfbfff56b5
@110a 3fff56b9
@110b 3fff56bd
@110c 15b056c5
@110d 11bf95b2fffd
@110e 3fff56cd
@110f 15b4fffd
@1110 3fff56d5
@1111 3fff56d9
@1112 3fff56dd
@1113 15b856e5
@1114 15ba56ed
@1115 3fff56f1
@1116 95415bd56f9
@1117 15bf5701
@1118 3fff5705
@1119 87fbfff5709
@111a 3fff570d
@111b 3fff5711
@111c 15c55719
@111d 3fff571d
@111e 490f95c85725
@111f 15ca572d
@1120 121fe497f95cc5735
@1121 484f3ffffffd
@1122 15ce573d
@1123 49bfbffffffd
@1124 15d05745
@1125 15d2574d
@1126 3fff5751
@1127 15d55759
@1128 493fbfff575d
@1129 3fff5761
@112a 487fbffffffd
@112b 9ff95d9fffd
@112c 487fbffffffd
@112d 48ff95da576d
@112e 8ff95dc5775
@112f 51bf95de577d
@1130 48ff95e0ffff
@1131 3fff5785
@1132 15e2578d
@1133 11bf95e45795
@1134 15e6fffd
@1135 15e7fffd
@1136 3fff57a1
@1137 9ff95e9fffd
@1138 15ea57ad
@1139 15ec57b5
@113a 3fff57b9
@113b 15ef57c1
@113c 15f157c9
@113d 15f357d1
@113e 15f557d9
@113f 15f757e1
@1140 3fff57e5
@1141 15fa57ed
@1142 15fc57f5
@1143 15fe57fd
@1144 9bf96005805
@1145 1602580d
@1146 16045815
@1147 1606581d
@1148 16085825
@1149 49ff960a582d
@114a 160c5835
@114b 160e583d
@114c 9ff96105845
@114d 1612584d
@114e 16145855
@114f 1616585d
@1150 3fff5861
@1151 16195869
@1152 161b5871
@1153 497f961d5879
@1154 161f5881
@1155 16215889
@1156 97f96235891
@1157 497f96255899
@1158 28ff962758a1
@1159 162958a9
@115a 162b58b1
@115b 162d58b9
@115c 162f58c1
@115d 163158c9
@115e 163358d1
@115f 49ff963558d9
@1160 9bf963758e1
@1161 497f963958e9
@1162 163b58f1
@1163 163d58f9
@1164 97f963f5901
@1165 16415909
@1166 16435911
@1167 16455919
@1168 16475921
@1169 16495929
@116a 164b5931
@116b 164d5939
@116c 97f964f5941
@116d 16515949
@116e 16535951
@116f 16555959
@1170 9d416575961
@1171 16595969
@1172 97f965b5971
@1173 165d5979
@1174 165f5981
@1175 16615989
@1176 28ff96635991
@1177 16655999
@1178 28ff966759a1
@1179 166959a9
@117a 166b59b1
@117b 166d59b9
@117c 9ff966f59c1
@117d 167159c9
@117e 167359d1
@117f 167559d9
@1180 167759e1
@1181 167959e9
@1182 97f967b59f1
@1183 167d59f9
@1184 167f5a01
@1185 16815a09
@1186 16835a11
@1187 16855a19
@1188 16875a21
@1189 16895a29
@118a 168b5a31
@118b 168d5a39
@118c 97f968f5a41
@118d 16915a49
@118e 16935a51
@118f 16955a59
@1190 16975a61
@1191 16995a69
@1192 169b5a71
@1193 169d5a79
@1194 169f5a81
@1195 16a1fffd
@1196 16a25a8d
@1197 497f96a45a95
@1198 16a65a9d
@1199 16a85aa5
@119a 9bf96aa5aad
@119b 16ac5ab5
@119c 9ff96ae5abd
@119d 497f96b05ac5
@119e 16b25acd
@119f 16b45ad5
@11a0 16b65add
@11a1 16b85ae5
@11a2 3fff5ae9
@11a3 49ffbfff5aed
@11a4 16bc5af5
@11a5 3fff5af9
@11a6 16bf5b01
@11a7 48ff96c15b09
@11a8 16c35b11
@11a9 3fff5b15
@11aa 8ff96c65b1d
@11ab 11bf96c8fffd
@11ac 3fff5b25
@11ad 487fbffffffd
@11ae 87fbffffffd
@11af 3fff5b29
@11b0 50bfbffffffd
@11b1 3fff5b2d
@11b2 16ccfffd
@11b3 50ff96cdfffd
@11b4 10ff96ce5b3d
@11b5 16d05b45
@11b6 3fff5b49
@11b7 3fff5b4d
@11b8 513f96d4fffd
@11b9 16d55b59
@11ba 16d75b61
@11bb 16d95b69
@11bc 1448851a23fff5b6d
@11bd 44fe11ff96dc5b75
@11be 48fe08bf96de5b7d
@11bf 16e05b85
@11c0 10ff96e25b8d
@11c1 50ff96e45b95
@11c2 97f96e65b9d
@11c3 16e85ba5
@11c4 10ff96ea5bad
@11c5 16ec5bb5
@11c6 93f96ee5bbd
@11c7 3fff5bc1
@11c8 16f1fffd
@11c9 16f25bcd
@11ca 24fe097f96f45bd5
@11cb 16f65bdd
@11cc 48bfbffffffd
@11cd 3fff5be1
@11ce 16f95be9
@11cf 113f96fb5bf1
@11d0 513f96fd5bf9
@11d1 11ff96ff5c01
@11d2 17015c09
@11d3 17035c11
@11d4 513f97055c19
@11d5 17075c21
@11d6 17095c29
@11d7 170b5c31
@11d8 145fe48ff970d5c39
@11d9 287f970f5c41
@11da 17115c49
@11db 17135c51
@11dc 284fbfff5c55
@11dd 48bf97165c5d
@11de 3fff5c61
@11df 3fff5c65
@11e0 171afffd
@11e1 687f971bfffd
@11e2 171c5c75
@11e3 171efffd
@11e4 3fff5c7d
@11e5 18bfbfff5c81
@11e6 1721fffd
@11e7 3fff5c89
@11e8 1723fffd
@11e9 3fff5c91
@11ea 3fff5c95
@11eb 1726fffd
@11ec 1727fffd
@11ed 1728fffd
@11ee 1729fffd
@11ef 172afffd
@11f0 172b5cb1
@11f1 172d5cb9
@11f2 3fff5cbd
@11f3 3fff5cc1
@11f4 17315cc9
@11f5 48bfbffffffd
@11f6 1733fffd
@11f7 1734fffd
@11f8 3fff5cd5
@11f9 a3f9736fffd
@11fa 684f3ffffffd
@11fb 593f9737fffd
@11fc 18bf97385ce5
@11fd 173a5ced
@11fe 173c5cf5
@11ff 173e5cfd
@1200 17405d05
@1201 1742fffd
@1202 17435d11
@1203 48bfbfff5d15
@1204 3fff5d19
@1205 107fbffffffd
@1206 58ffbffffffd
@1207 3fff5d1d
@1208 107fbfff5d21
@1209 10bf97495d29
@120a 174bfffd
@120b 174c5d35
@120c 174e5d3d
@120d 3fff5d41
@120e 11bf97515d49
@120f 3fff5d4d
@1210 1754fffd
@1211 1755fffd
@1212 3fff5d59
@1213 1757fffd
@1214 3fff5d61
@1215 3fff5d65
@1216 50bf975afffd
@1217 10bfbffffffd
@1218 175b5d71
@1219 175dfffd
@121a 175e5d7d
@121b 497f97605d85
@121c 43fe113f97625d8d
@121d 517f97645d95
@121e 17665d9d
@121f 593f97685da5
@1220 11bf976a5dad
@1221 176c5db5
@1222 25fe0a3f976e5dbd
@1223 17705dc5
@1224 17725dcd
@1225 17745dd5
@1226 3fff5dd9
@1227 3fff5ddd
@1228 3fff5de1
@1229 10ff97795de9
@122a 177bfffd
@122b 8bfbfff5df1
@122c 161fd49bfbfff5df5
@122d 23fe093f977e5dfd
@122e 141fe513fbfff5e01
@122f 87f97815e09
@1230 17835e11
@1231 17855e19
@1232 17875e21
@1233 3fff5e25
@1234 178a5e2d
@1235 178c5e35
@1236 178e5e3d
@1237 17905e45
@1238 17925e4d
@1239 17945e55
@123a 17965e5d
@123b 297fbfff5e61
@123c 687f97995e69
@123d 287f979b5e71
@123e 179d5e79
@123f 287f979f5e81
@1240 3fff5e85
@1241 17a25e8d
@1242 687fbfff5e91
@1243 43fe117f97a55e99
@1244 17a75ea1
@1245 17a95ea9
@1246 687fbfff5ead
@1247 287fbffffffd
@1248 17acfffd
@1249 1a2fe507fbfff5eb5
@124a 107f97aefffd
@124b 687fbfff5ebd
@124c a2fe117f97b05ec5
@124d 687f97b2fffd
@124e 107fbfff5ecd
@124f 68bfbffffffd
@1250 287fbfff5ed1
@1251 17b5fffd
@1252 113f97b6fffd
@1253 3fff5edd
@1254 297f97b85ee5
@1255 513fbfff5ee9
@1256 287f97bb5ef1
@1257 17bd5ef9
@1258 17bf5f01
@1259 17c1fffd
@125a 17c25f0d
@125b 487fbffffffd
@125c 48bf97c45f15
@125d 17c6fffd
@125e 17c7fffd
@125f 17c8fffd
@1260 3fff5f25
@1261 48ffbfff5f29
@1262 3fff5f2d
@1263 3fff5f31
@1264 17cd5f39
@1265 287fbffffffd
@1266 3fff5f3d
@1267 a3f97d05f45
@1268 17d2fffd
@1269 3fff5f4d
@126a 17d4fffd
@126b 17d5fffd
@126c 3fff5f59
@126d 17d75f61
@126e 17d95f69
@126f 17db5f71
@1270 17dd5f79
@1271 17df5f81
@1272 17e15f89
@1273 17e35f91
@1274 17e55f99
@1275 93f97e75fa1
@1276 17e95fa9
@1277 17eb5fb1
@1278 123fe4a3f97ed5fb9
@1279 17ef5fc1
@127a 3fff5fc5
@127b 97f97f25fcd
@127c 17f4fffd
@127d 17f5fffd
@127e 4a3f97f65fdd
@127f 17f8fffd
@1280 17f95fe9
@1281 9ff97fb5ff1
@1282 3fff5ff5
@1283 17fe5ffd
@1284 93f98006005
@1285 497f9802ffff
@1286 1803fffd
@1287 3fff6011
@1288 3fff6015
@1289 126fe4a3f9806601d
@128a 497f98086025
@128b 180a602d
@128c 3fff6031
@128d 180d6039
@128e 180f6041
@128f 18116049
@1290 18136051
@1291 48bf9815fffd
@1292 1816605d
@1293 48bf9818fffd
@1294 18196069
@1295 181bfffd
@1296 181c6075
@1297 49ffbfff6079
@1298 87fbffffffd
@1299 21fe08bf981ffffd
@129a 3fff6081
@129b 3fff6085
@129c 3fff6089
@129d 58bf98236091
@129e 18bfbffffffd
@129f 3fff6095
@12a0 1826609d
@12a1 1828fffd
@12a2 1829fffd
@12a3 3fff60a9
@12a4 3fff60ad
@12a5 597fbfff60b1
@12a6 3fff60b5
@12a7 162fe49bf982e60bd
@12a8 62fe08ff983060c5
@12a9 587fbffffffd
@12aa 1832fffd
@12ab 3fff60cd
@12ac 183460d5
@12ad 183660dd
@12ae 48ff983860e5
@12af 183a60ed
@12b0 183cfffd
@12b1 87fbffffffd
@12b2 3fff60f5
@12b3 183efffd
@12b4 183ffffd
@12b5 3fff6101
@12b6 1841fffd
@12b7 1842fffd
@12b8 3fff610d
@12b9 18446115
@12ba 1846611d
@12bb 3fff6121
@12bc 3fff6125
@12bd 184afffd
@12be 184b6131
@12bf 3fff6135
@12c0 184e613d
@12c1 3fff6141
@12c2 1851fffd
@12c3 1852fffd
@12c4 1853fffd
@12c5 8bf9854fffd
@12c6 58bf98556159
@12c7 3fff615d
@12c8 3fff6161
@12c9 18596169
@12ca 185bfffd
@12cb 185cfffd
@12cc 185dfffd
@12cd 185efffd
@12ce 185f6181
@12cf 18616189
@12d0 18636191
@12d1 18656199
@12d2 3fff619d
@12d3 497fbfff61a1
@12d4 186961a9
@12d5 186b61b1
@12d6 186d61b9
@12d7 186f61c1
@12d8 187161c9
@12d9 8bfbffffffd
@12da 3fff61cd
@12db 1874fffd
@12dc 87fbfff61d5
@12dd 187661dd
@12de 1878fffd
@12df 1a2fe48ff987961e9
@12e0 287f987b61f1
@12e1 187d61f9
@12e2 3fff61fd
@12e3 48ff98806205
@12e4 3fff6209
@12e5 687f9883fffd
@12e6 58a63ffffffd
@12e7 68bfbfff6211
@12e8 287fbffffffd
@12e9 68bf9885fffd
@12ea 1886621d
@12eb 687f9888fffd
@12ec 28bf9889fffd
@12ed 687fbffffffd
@12ee 28bf988afffd
@12ef 68bfbfff622d
@12f0 28ff988cfffd
@12f1 68bf988d6239
@12f2 28ff988f6241
@12f3 1891fffd
@12f4 1892624d
@12f5 3fff6251
@12f6 18bf98956259
@12f7 287fbffffffd
@12f8 3fff625d
@12f9 3fff6261
@12fa 49bf9899fffd
@12fb 8ffbffffffd
@12fc 3fff6269
@12fd 3fff626d
@12fe 3fff6271
@12ff 189dfffd
@1300 121fe49bfbfff6279
@1301 189ffffd
@1302 48ffbfff6281
@1303 3fff6285
@1304 3fff6289
@1305 3fff628d
@1306 3fff6291
@1307 8bf98a56299
@1308 48bf98a762a1
@1309 18a962a9
@130a 48ff98ab62b1
@130b 18ad62b9
@130c 3fff62bd
@130d 18b0fffd
@130e 18b1fffd
@130f 513f98b262cd
@1310 113f98b462d5
@1311 513f98b662dd
@1312 113f98b862e5
@1313 18ba62ed
@1314 113f98bc62f5
@1315 142fe513f98be62fd
@1316 18c0fffd
@1317 18c1fffd
@1318 107f98c2630d
@1319 18c4fffd
@131a 3fff6315
@131b 507f98c6fffd
@131c 107fbffffffd
@131d 18c7fffd
@131e 18c86325
@131f 18cafffd
@1320 18cbfffd
@1321 123fe493f98ccffff
@1322 18cdfffd
@1323 18ce633d
@1324 18d0fffd
@1325 18d16349
@1326 18d36351
@1327 18d5fffd
@1328 213f98d6fffd
@1329 213f7ffffffd
@132a 3fff635d
@132b 18d8fffd
@132c 18d9fffd
@132d 3fff6369
@132e 18dbfffd
@132f 18dc6375
@1330 25fe09ff98de637d
@1331 125fe49ffbfff6381
@1332 18e16389
@1333 3fff638d
@1334 18e4fffd
@1335 18e5fffd
@1336 18e6fffd
@1337 9ff98e763a1
@1338 18e963a9
@1339 18eb63b1
@133a 3fff63b5
@133b 3fff63b9
@133c 3fff63bd
@133d 18f063c5
@133e 18f263cd
@133f 18f463d5
@1340 3fff63d9
@1341 18f7fffd
@1342 3fff63e1
@1343 3fff63e5
@1344 18fafffd
@1345 18fb63f1
@1346 3fff63f5
@1347 3fff63f9
@1348 18fffffd
@1349 19006405
@134a 3fff6409
@134b 19036411
@134c 19056419
@134d 3fff641d
@134e 1908fffd
@134f 1909fffd
@1350 3fff6429
@1351 3fff642d
@1352 126fe49ffbfff6431
@1353 3fff6435
@1354 190e643d
@1355 497f99106445
@1356 1912644d
@1357 3fff6451
@1358 1915fffd
@1359 497fbfff6459
@135a 3fff645d
@135b 497fbfff6461
@135c 3fff6465
@135d 3fff6469
@135e 191bfffd
@135f 191cfffd
@1360 191dfffd
@1361 49ffbfff6479
@1362 191ffffd
@1363 19206485
@1364 3fff6489
@1365 19236491
@1366 3fff6495
@1367 1926fffd
@1368 192764a1
@1369 3fff64a5
@136a 192a64ad
@136b 3fff64b1
@136c 3fff64b5
@136d 192e64bd
@136e 3fff64c1
@136f 1931fffd
@1370 193264cd
@1371 3fff64d1
@1372 193564d9
@1373 1937fffd
@1374 1938fffd
@1375 193964e9
@1376 193bfffd
@1377 193cfffd
@1378 193dfffd
@1379 193efffd
@137a 3fff64fd
@137b 1940fffd
@137c 1941fffd
@137d 1942fffd
@137e 3fff650d
@137f 3fff6511
@1380 1945fffd
@1381 3fff6519
@1382 3fff651d
@1383 3fff6521
@1384 19496529
@1385 3fff652d
@1386 3fff6531
@1387 3fff6535
@1388 3fff6539
@1389 194ffffd
@138a 19506545
@138b 3fff6549
@138c 1953fffd
@138d 1954fffd
@138e 19556559
@138f 19576561
@1390 1959fffd
@1391 195a656d
@1392 3fff6571
@1393 195d6579
@1394 195f6581
@1395 1961fffd
@1396 1962fffd
@1397 19636591
@1398 1965fffd
@1399 1966fffd
@139a 1967fffd
@139b 9ff9968fffd
@139c 3fff65a5
@139d 196a65ad
@139e 3fff65b1
@139f 9ff996d65b9
@13a0 196f65c1
@13a1 9ff9971fffd
@13a2 197265cd
@13a3 1974fffd
@13a4 49ffbfff65d5
@13a5 1976fffd
@13a6 197765e1
@13a7 197965e9
@13a8 197bfffd
@13a9 3fff65f1
@13aa 3fff65f5
@13ab 197efffd
@13ac 197ffffd
@13ad 1980fffd
@13ae 3fff6605
@13af 3fff6609
@13b0 3fff660d
@13b1 3fff6611
@13b2 3fff6615
@13b3 1986fffd
@13b4 3fff661d
@13b5 3fff6621
@13b6 19896629
@13b7 198b6631
@13b8 198d6639
@13b9 3fff663d
@13ba 19906645
@13bb 3fff6649
@13bc 25fe09ff99936651
@13bd 1995fffd
@13be 1996665d
@13bf 3fff6661
@13c0 3fff6665
@13c1 199afffd
@13c2 3fff666d
@13c3 199cfffd
@13c4 199d6679
@13c5 3fff667d
@13c6 19a0fffd
@13c7 3fff6685
@13c8 19a2fffd
@13c9 3fff668d
@13ca 3fff6691
@13cb 19a5fffd
@13cc 3fff6699
@13cd 19a766a1
@13ce 97f99a9fffd
@13cf 3fff66a9
@13d0 19abfffd
@13d1 19ac66b5
@13d2 19ae66bd
@13d3 49bfbfff66c1
@13d4 19b1fffd
@13d5 19b2fffd
@13d6 19b3fffd
@13d7 19b466d5
@13d8 19b6fffd
@13d9 3fff66dd
@13da 19b866e5
@13db 19bafffd
@13dc 19bbfffd
@13dd 19bc66f5
@13de 19be66fd
@13df 3fff6701
@13e0 3fff6705
@13e1 3fff6709
@13e2 19c3fffd
@13e3 19c46715
@13e4 3fff6719
@13e5 19c7fffd
@13e6 3fff6721
@13e7 3fff6725
@13e8 19ca672d
@13e9 3fff6731
@13ea 49ffbffffffd
@13eb 19cdfffd
@13ec 19cefffd
@13ed 19cffffd
@13ee 3fff6741
@13ef 19d16749
@13f0 19d3fffd
@13f1 3fff6751
@13f2 19d5fffd
@13f3 3fff6759
@13f4 19d76761
@13f5 19d9fffd
@13f6 19da676d
@13f7 9e619dc6775
@13f8 19defffd
@13f9 3fff677d
@13fa 3fff6781
@13fb 19e1fffd
@13fc 3fff6789
@13fd 19e3fffd
@13fe 19e46795
@13ff 3fff6799
@1400 3fff679d
@1401 19e8fffd
@1402 3fff67a5
@1403 3fff67a9
@1404 19ebfffd
@1405 19ecfffd
@1406 19edfffd
@1407 19eefffd
@1408 3fff67bd
@1409 93f99f0fffd
@140a 19f1fffd
@140b 3fff67c9
@140c 19f367d1
@140d 3fff67d5
@140e 19f6fffd
@140f 9ffbffffffd
@1410 19f7fffd
@1411 3fff67e1
@1412 3fff67e5
@1413 19fafffd
@1414 19fbfffd
@1415 19fcfffd
@1416 19fdfffd
@1417 3fff67f9
@1418 8bfbffffffd
@1419 487fbffffffd
@141a 3fff67fd
@141b 3fff6801
@141c 613f5a016809
@141d 213f5a036811
@141e 3fff6815
@141f 213f5a06681d
@1420 1a08fffd
@1421 1a09fffd
@1422 1a0afffd
@1423 1a0bfffd
@1424 1a0cfffd
@1425 1a0d6839
@1426 1a0ffffd
@1427 1a10fffd
@1428 1a11fffd
@1429 1a12fffd
@142a 3fff684d
@142b 3fff6851
@142c 1a15fffd
@142d 1a16fffd
@142e 8bf9a176861
@142f 1a19fffd
@1430 1a1afffd
@1431 1a1bfffd
@1432 1a1cfffd
@1433 1a1d6879
@1434 507fbffffffd
@1435 18bfbffffffd
@1436 58ff9a1f6881
@1437 787fbffffffd
@1438 387fbffffffd
@1439 787fbffffffd
@143a 387fbffffffd
@143b 787fbffffffd
@143c 387fbffffffd
@143d 787fbffffffd
@143e 387fbffffffd
@143f 787fbffffffd
@1440 387fbffffffd
@1441 787fbffffffd
@1442 387fbffffffd
@1443 787fbffffffd
@1444 387fbffffffd
@1445 787fbffffffd
@1446 387fbffffffd
@1447 787fbffffffd
@1448 387fbffffffd
@1449 787fbffffffd
@144a 387fbffffffd
@144b 787fbffffffd
@144c 387fbffffffd
@144d 787fbffffffd
@144e 387fbffffffd
@144f 787fbffffffd
@1450 387fbffffffd
@1451 787fbffffffd
@1452 387fbffffffd
@1453 787fbffffffd
@1454 387fbffffffd
@1455 387fbffffffd
@1456 787fbffffffd
@1457 387fbffffffd
@1458 787fbffffffd
@1459 387fbffffffd
@145a 387fbffffffd
@145b 1a21fffd
@145c 1a22688d
@145d 1a24fffd
@145e 1a256899
@145f 1a2768a1
@1460 9cf1a2968a9
@1461 1a2b68b1
@1462 982da2d68b9
@1463 3fff68bd
@1464 1a3068c5
@1465 1a32fffd
@1466 1a3368d1
@1467 3fff68d5
@1468 3fff68d9
@1469 1a37fffd
@146a 3fff68e1
@146b 1a3968e9
@146c 3fff68ed
@146d 1a3c68f5
@146e 1a3e68fd
@146f 1a40fffd
@1470 1a41fffd
@1471 3fff6909
@1472 23fe09ff9a43fffd
@1473 3fff6911
@1474 1a45fffd
@1475 1a46fffd
@1476 1a47fffd
@1477 1a486925
@1478 1a4afffd
@1479 1a4bfffd
@147a 1a4cfffd
@147b 1a4d6939
@147c 487f9a4ffffd
@147d 1a50fffd
@147e 9ff9a51fffd
@147f 497fbfff6949
@1480 3fff694d
@1481 87fbffffffd
@1482 1a54fffd
@1483 3fff6955
@1484 484f3ffffffd
@1485 513f9a56695d
@1486 1a58fffd
@1487 1a59fffd
@1488 1a5afffd
@1489 1a5b6971
@148a 3fff6975
@148b 48bfbfff6979
@148c 3fff697d
@148d 87fbfff6981
@148e 3fff6985
@148f 493f9a62698d
@1490 3fff6991
@1491 1a65fffd
@1492 3fff6999
@1493 1a6769a1
@1494 1a6969a9
@1495 93f9a6b69b1
@1496 48bf9a6dfffd
@1497 3fff69b9
@1498 9bf9a6f69c1
@1499 49bfbfff69c5
@149a 48ff9a7269cd
@149b 8bfbfff69d1
@149c 1a7569d9
@149d 1a77fffd
@149e 1a7869e5
@149f 513f9a7a69ed
@14a0 1a7cfffd
@14a1 1a7d69f9
@14a2 1a7f6a01
@14a3 1a81fffd
@14a4 1a82fffd
@14a5 9ff9a83ffff
@14a6 50ff9a846a15
@14a7 3fff6a19
@14a8 1a876a21
@14a9 1a89fffd
@14aa 487fbfff6a29
@14ab 1a8b6a31
@14ac 1a8dfffd
@14ad 487fbffffffd
@14ae 3fff6a39
@14af 1a8f6a41
@14b0 497fbfff6a45
@14b1 8bf9a92fffd
@14b2 87fbffffffd
@14b3 1a936a51
@14b4 1a956a59
@14b5 1a97fffd
@14b6 1a986a65
@14b7 1a9a6a6d
@14b8 1a9cfffd
@14b9 1a9d6a79
@14ba 1a9f6a81
@14bb 3fff6a85
@14bc 3fff6a89
@14bd 48ff9aa36a91
@14be 1aa5fffd
@14bf 1aa66a9d
@14c0 1aa86aa5
@14c1 41fe093f9aaa6aad
@14c2 3fff6ab1
@14c3 3fff6ab5
@14c4 1aaefffd
@14c5 1aaf6ac1
@14c6 597fbfff6ac5
@14c7 197f9ab26acd
@14c8 3fff6ad1
@14c9 1ab5fffd
@14ca 3fff6ad9
@14cb 3fff6add
@14cc 3fff6ae1
@14cd 3fff6ae5
@14ce 48ff9aba6aed
@14cf 22fe093f9abcfffd
@14d0 1abdfffd
@14d1 387fbffffffd
@14d2 387fbffffffd
@14d3 787fbffffffd
@14d4 787fbffffffd
@14d5 387fbffffffd
@14d6 1abe6afd
@14d7 1ac06b05
@14d8 121fe48bf9ac26b0d
@14d9 21fe08bf9ac46b15
@14da 787fbffffffd
@14db 387fbffffffd
@14dc 787fbffffffd
@14dd 3fff6b19
@14de 1ac7fffd
@14df 3fff6b21
@14e0 487f5ac9fffd
@14e1 1acafffd
@14e2 1acb6b31
@14e3 1acdfffd
@14e4 3fff6b39
@14e5 3fff6b3d
@14e6 1ad0fffd
@14e7 1ad1fffd
@14e8 3fff6b49
@14e9 3fff6b4d
@14ea 3fff6b51
@14eb 1ad5fffd
@14ec 1ad6fffd
@14ed 48ff9ad76b61
@14ee 8ff9ad96b69
@14ef 3fff6b6d
@14f0 3fff6b71
@14f1 1add6b79
@14f2 497fbfff6b7d
@14f3 3fff6b81
@14f4 1ae1fffd
@14f5 3fff6b89
@14f6 1ae36b91
@14f7 48bfbffffffd
@14f8 3fff6b95
@14f9 3fff6b99
@14fa 3fff6b9d
@14fb 3fff6ba1
@14fc 1ae9fffd
@14fd 21fe08bf9aea6bad
@14fe 3fff6bb1
@14ff 3fff6bb5
@1500 1aeefffd
@1501 1aeffffd
@1502 21fe08bf9af0fffd
@1503 3fff6bc5
@1504 8bf9af2fffd
@1505 121fe49ffbfff6bcd
@1506 487fbffffffd
@1507 87f9af4fffd
@1508 3fff6bd5
@1509 1af6fffd
@150a 1af7fffd
@150b 1af8fffd
@150c 1af9fffd
@150d 3fff6be9
@150e 507fbffffffd
@150f 107fbffffffd
@1510 507fbffffffd
@1511 107fbffffffd
@1512 507fbffffffd
@1513 107fbffffffd
@1514 107fbffffffd
@1515 1afbfffd
@1516 3fff6bf1
@1517 1afdfffd
@1518 3fff6bf9
@1519 1aff6c01
@151a 142fe513f9b016c09
@151b 1b036c11
@151c 1b05fffd
@151d 1b06fffd
@151e 3fff6c1d
@151f 3fff6c21
@1520 507fbffffffd
@1521 513f9b096c29
@1522 113f9b0b6c31
@1523 1b0d6c39
@1524 1b0f6c41
@1525 3fff6c45
@1526 3fff6c49
@1527 10bf9b136c51
@1528 50bf9b156c59
@1529 10bf9b176c61
@152a 50bf9b196c69
@152b 10bf9b1b6c71
@152c 50bf9b1d6c79
@152d 10bf9b1f6c81
@152e 50bf9b216c89
@152f 10bf9b236c91
@1530 3fff6c95
@1531 1b26fffd
@1532 1b27fffd
@1533 48ff9b286ca5
@1534 8ff9b2a6cad
@1535 48ff9b2c6cb5
@1536 8ff9b2e6cbd
@1537 48ff9b306cc5
@1538 8ff9b326ccd
@1539 48ff9b346cd5
@153a 8ff9b366cdd
@153b 1b38fffd
@153c 3fff6ce5
@153d 3fff6ce9
@153e 3fff6ced
@153f 1b3cfffd
@1540 3fff6cf5
@1541 1b3e6cfd
@1542 3fff6d01
@1543 1b41fffd
@1544 49ff9b42fffd
@1545 1b436d11
@1546 497f9b456d19
@1547 93f9b476d21
@1548 1b496d29
@1549 23fe093f9b4b6d31
@154a 1b4d6d39
@154b 1b4f6d41
@154c 3fff6d45
@154d 1b52fffd
@154e 1b53fffd
@154f 1b54fffd
@1550 3fff6d55
@1551 1b56fffd
@1552 3fff6d5d
@1553 1b58fffd
@1554 49ffbfff6d65
@1555 487fbfff6d69
@1556 49ff9b5bffff
@1557 21fe08bf9b5cfffd
@1558 3fff6d75
@1559 1b5e6d7d
@155a 3fff6d81
@155b 122fe49ffbfff6d85
@155c 3fff6d89
@155d 121fe48bf9b636d91
@155e 487fbffffffd
@155f 87fbfff6d95
@1560 125fe49bfbfff6d99
@1561 3fff6d9d
@1562 1b686da5
@1563 1b6afffd
@1564 497f9b6b6db1
@1565 97f9b6d6db9
@1566 1b6ffffd
@1567 1b70fffd
@1568 1b71fffd
@1569 3fff6dc9
@156a 1b73fffd
@156b 3fff6dd1
@156c 1b75fffd
@156d 1b76fffd
@156e 3fff6ddd
@156f 1b78fffd
@1570 1b79fffd
@1571 517fbfff6de9
@1572 513f9b7b6df1
@1573 43fe11ff9b7d6df9
@1574 1b7ffffd
@1575 3fff6e01
@1576 1b81fffd
@1577 50bf9b826e0d
@1578 10ff9b846e15
@1579 3fff6e19
@157a 143fe517f9b876e21
@157b 3fff6e25
@157c 1b8afffd
@157d 1b8bfffd
@157e 3fff6e31
@157f 3fff6e35
@1580 1b8e6e3d
@1581 93f9b906e45
@1582 507fbffffffd
@1583 107f9b926e4d
@1584 141fe51ff9b946e55
@1585 42fe113f9b966e5d
@1586 517f9b986e65
@1587 11ff9b9a6e6d
@1588 1b9cfffd
@1589 3fff6e75
@158a 1b9efffd
@158b 1b9ffffd
@158c 1ba0fffd
@158d 3fff6e85
@158e 1ba2fffd
@158f 1ba36e91
@1590 1ba56e99
@1591 3fff6e9d
@1592 1ba86ea5
@1593 1baafffd
@1594 1babfffd
@1595 1bacfffd
@1596 507fbffffffd
@1597 41fe11bf9badfffd
@1598 1baefffd
@1599 1baf6ec1
@159a 107fbffffffd
@159b 1bb1fffd
@159c 58bfbfff6ec9
@159d 49ff9bb36ed1
@159e 9ff9bb56ed9
@159f 3fff6edd
@15a0 1bb8fffd
@15a1 187fbffffffd
@15a2 3fff6ee5
@15a3 58bf7fff6ee9
@15a4 3fff6eed
@15a5 162fe597f9bbc6ef5
@15a6 3fff6ef9
@15a7 162fe597f9bbf6f01
@15a8 197f9bc16f09
@15a9 1bc36f11
@15aa 1bc56f19
@15ab 1bc7fffd
@15ac 1bc8fffd
@15ad 197f9bc9fffd
@15ae 3fff6f29
@15af 1bcb6f31
@15b0 58bf9bcd6f39
@15b1 587fbffffffd
@15b2 50bfbffffffd
@15b3 10ff9bcffffd
@15b4 3fff6f41
@15b5 1bd1fffd
@15b6 3fff6f49
@15b7 1bd36f51
@15b8 1bd5fffd
@15b9 18bfbfff6f59
@15ba 3fff6f5d
@15bb 3fff6f61
@15bc 1bd96f69
@15bd 162fe597fbfff6f6d
@15be 18ff9bdcfffd
@15bf 3fff6f75
@15c0 18bf9bdefffd
@15c1 1bdffffd
@15c2 197f9be0ffff
@15c3 1be1fffd
@15c4 1be2fffd
@15c5 18bf9be36f91
@15c6 587fbffffffd
@15c7 187fbfff6f95
@15c8 1be66f9d
@15c9 487fbffffffd
@15ca 87fbfff6fa1
@15cb 487f9be9fffd
@15cc 87fbffffffd
@15cd 48bf9bea6fad
@15ce 1becfffd
@15cf 1bed6fb9
@15d0 113f9beffffd
@15d1 597f9bf06fc5
@15d2 507fbffffffd
@15d3 1bf2fffd
@15d4 1bf36fd1
@15d5 1bf5fffd
@15d6 1bf66fdd
@15d7 1bf8fffd
@15d8 3fff6fe5
@15d9 3fff6fe9
@15da 1bfb6ff1
@15db 1bfd6ff9
@15dc 1bff7001
@15dd 1c01fffd
@15de 3fff7009
@15df 1c03fffd
@15e0 585c3ffffffd
@15e1 3fff7011
@15e2 1c057019
@15e3 43fe11bf9c077021
@15e4 1c097029
@15e5 1c0b7031
@15e6 3fff7035
@15e7 595c3fff7039
@15e8 195c1c0f7041
@15e9 1c117049
@15ea 1c137051
@15eb 1c15fffd
@15ec 1c16fffd
@15ed 3fff705d
@15ee 1c18fffd
@15ef 1c19fffd
@15f0 18ffbffffffd
@15f1 1c1afffd
@15f2 1c1bfffd
@15f3 58bfbffffffd
@15f4 18bfbffffffd
@15f5 1c1cfffd
@15f6 18bfbfff7075
@15f7 507fbffffffd
@15f8 187fbfff7079
@15f9 1c1ffffd
@15fa 587fbffffffd
@15fb 58bfbfff7081
@15fc 594f3fff7085
@15fd 11bf9c22708d
@15fe 104f1c247095
@15ff 1c26709d
@1600 161fe59bfbfff70a1
@1601 3fff70a5
@1602 3fff70a9
@1603 1c2bfffd
@1604 1c2cfffd
@1605 1c2dfffd
@1606 3fff70b9
@1607 1c2ffffd
@1608 1c30fffd
@1609 507fbffffffd
@160a 3fff70c5
@160b 3fff70c9
@160c 3fff70cd
@160d 587fbffffffd
@160e 187fbffffffd
@160f 587fbffffffd
@1610 3fff70d1
@1611 1c35fffd
@1612 587fbffffffd
@1613 187fbffffffd
@1614 587fbffffffd
@1615 187fbffffffd
@1616 587fbffffffd
@1617 187fbffffffd
@1618 1c3670dd
@1619 1c3870e5
@161a 10ff9c3afffd
@161b 3fff70ed
@161c 3fff70f1
@161d 507fbffffffd
@161e 50463ffffffd
@161f 1c3dfffd
@1620 113f9c3e70fd
@1621 1c40fffd
@1622 1c417109
@1623 1c437111
@1624 1c457119
@1625 3fff711d
@1626 3fff7121
@1627 3fff7125
@1628 3fff7129
@1629 1c4bfffd
@162a 107fbffffffd
@162b 1c4cfffd
@162c 3fff7135
@162d 3fff7139
@162e 1c4ffffd
@162f 142fe513fbfff7141
@1630 517f9c51ffff
@1631 513f9c52714d
@1632 10ffbffffffd
@1633 3fff7151
@1634 10ffbfff7155
@1635 3fff7159
@1636 507fbffffffd
@1637 50bfbfff715d
@1638 507f9c58fffd
@1639 3fff7165
@163a 3fff7169
@163b 41fe10bf9c5bfffd
@163c 1c5cfffd
@163d 141fe50bfbfff7175
@163e 107fbffffffd
@163f 507fbffffffd
@1640 3fff7179
@1641 141fe51bfbfff717d
@1642 11bf9c607185
@1643 504f3ffffffd
@1644 3fff7189
@1645 1c637191
@1646 1c65fffd
@1647 1c66fffd
@1648 141fe50ffbfff719d
@1649 107fbfff71a1
@164a 1c69fffd
@164b 507fbffffffd
@164c 1c6afffd
@164d 10463ffffffd
@164e 507fbffffffd
@164f 1c6b71b1
@1650 507fbffffffd
@1651 1c6dfffd
@1652 193f9c6e71bd
@1653 1c70fffd
@1654 1c71fffd
@1655 1c72fffd
@1656 3fff71cd
@1657 3fff71d1
@1658 1c75fffd
@1659 197f9c7671dd
@165a 587fbffffffd
@165b 187fbfff71e1
@165c 58ff9c7971e9
@165d 1c7bfffd
@165e 587fbffffffd
@165f 587fbfff71f1
@1660 187fbffffffd
@1661 1c7dfffd
@1662 193f9c7e71fd
@1663 597f9c807205
@1664 3fff7209
@1665 187fbfff720d
@1666 1c847215
@1667 18bf9c86721d
@1668 1c887225
@1669 18bf9c8afffd
@166a 597f9c8b7231
@166b 3fff7235
@166c 1c8e723d
@166d 193f9c90fffd
@166e 1c91fffd
@166f 1c92724d
@1670 18bf9c94fffd
@1671 18bf9c95fffd
@1672 1c96fffd
@1673 3fff725d
@1674 1c987265
@1675 1c9a726d
@1676 1c9cfffd
@1677 1c9d7279
@1678 197f9c9f7281
@1679 593fbfff7285
@167a 3fff7289
@167b 195adca3fffd
@167c 1ca4fffd
@167d 3fff7295
@167e 18bfbffffffd
@167f 162fe58ff9ca6729d
@1680 1ca8fffd
@1681 1ca972a9
@1682 1cab72b1
@1683 1cadfffd
@1684 1caefffd
@1685 3fff72bd
@1686 18bfbffffffd
@1687 18bf9cb0fffd
@1688 58ff9cb1fffd
@1689 587fbffffffd
@168a 187fbffffffd
@168b 1cb2fffd
@168c 1cb372d1
@168d 3fff72d5
@168e 3fff72d9
@168f 1cb772e1
@1690 587fbfff72e5
@1691 3fff72e9
@1692 1cbbfffd
@1693 1cbcfffd
@1694 61fe193f9cbd72f9
@1695 58ffbfff72fd
@1696 188f3ffffffd
@1697 58cf3fff7301
@1698 1cc1fffd
@1699 1cc2fffd
@169a 1cc3fffd
@169b 1cc4fffd
@169c 597fbffffffd
@169d 62fe18ff9cc5fffd
@169e 587fbffffffd
@169f 1cc6fffd
@16a0 3fff731d
@16a1 193f9cc87325
@16a2 588f1cca732d
@16a3 1cccfffd
@16a4 1ccd7339
@16a5 1ccffffd
@16a6 1cd0fffd
@16a7 18ff9cd17349
@16a8 1cd3fffd
@16a9 587fbffffffd
@16aa 18ff9cd47355
@16ab 1cd6fffd
@16ac 1cd7fffd
@16ad 107f9cd8fffd
