@0 5
@1 259fe040d
@2 815
@3 c1d
@4 1025
@5 142d
@6 1835
@7 1c3d
@8 2045
@9 244d
@a 2855
@b 2c5d
@c 3065
@d 346d
@e 3875
@f 230fe3c7d
@10 4085
@11 448d
@12 4895
@13 30bf8c3fe4c9d
@14 70bf9c6fe50a5
@15 1a6fe54ad
@16 28fe59ff
@17 5ab9
@18 5ec1
@19 62c9
@1a 66d1
@1b 6ad9
@1c 6ee1
@1d 72e9
@1e 76f1
