@0 ffe001
@1 248fdfffffd
@2 248fdfffffd
@3 248fdfffffd
@4 248fdfffffd
@5 248fefffffd
@6 248fefffffd
@7 248fefffffd
@8 248fefffffd
@9 ffe005
@a ffe009
@b 249fefffffd
@c ffe00d
@d ffe011
@e 248fefffffd
@f 248fefffffd
@10 248fefffffd
@11 248fefffffd
@12 248fefffffd
@13 248fefffffd
@14 248fefffffd
@15 248fefffffd
@16 248fefffffd
@17 248fefffffd
@18 248fefffffd
@19 248fefffffd
@1a 248fefffffd
@1b 248fefffffd
@1c 248fefffffd
@1d 248fefffffd
@1e 248fefffffd
@1f 248fefffffd
@20 248fefffffd
@21 ffe015
@22 c01d
@23 10025
@24 24afe01402d
@25 18035
@26 24afe01c03d
@27 20045
@28 24afe02404d
@29 28055
@2a 24bfe02c05d
@2b 30065
@2c 24bfe03406d
@2d ffe071
@2e 249feffe075
@2f 248fefffffd
@30 248fefffffd
@31 248fefffffd
@32 248fefffffd
@33 248fefffffd
@34 248fefffffd
@35 248fefffffd
@36 248fefffffd
@37 248fefffffd
@38 248fefffffd
@39 248fefffffd
@3a 248fefffffd
@3b 248fefffffd
@3c 248fefffffd
@3d 248fefffffd
@3e 221fefffffd
@3f 248fefffffd
@40 248fefffffd
@41 248fefffffd
@42 248fefffffd
@43 ffe079
@44 249feffe07d
@45 ffe081
@46 249feffe085
@47 248fefffffd
@48 248fefffffd
@49 248fefffffd
@4a 248fefffffd
@4b 248fefffffd
@4c 321fefffffd
@4d 221fefffffd
@4e 321fefffffd
@4f 221fefffffd
@50 321fefffffd
@51 221fefffffd
@52 ffe089
@53 249fefffffd
@54 249feffe08d
@55 ffe091
@56 ffe095
@57 ffe099
@58 249fefffffd
@59 ffe09d
@5a 249fefffffd
@5b 249feffe0a1
@5c ffe0a5
@5d 249feffe0a9
@5e 249feffe0ad
@5f ffe0b1
@60 249feffe0b5
@61 ffe0b9
@62 249feffe0bd
@63 249feffe0c1
@64 249feffe0c5
@65 ffe0c9
@66 248fefffffd
@67 248fefffffd
@68 248fefffffd
@69 248fefffffd
@6a 248fefffffd
@6b 248fefffffd
@6c 248fefffffd
@6d 248fefffffd
@6e 248fefffffd
@6f 248fefffffd
@70 248fefffffd
@71 248fefffffd
@72 248fefffffd
@73 248fefffffd
@74 248fefffffd
@75 248fefffffd
@76 248fefffffd
@77 248fefffffd
@78 248fefffffd
@79 248fefffffd
@7a 248fefffffd
@7b 248fefffffd
@7c 248fefffffd
@7d 248fefffffd
@7e 248fefffffd
@7f 248fefffffd
@80 248fefffffd
@81 248fefffffd
@82 248fefffffd
@83 248fefffffd
@84 ffe0cd
@85 ffe0d1
@86 ffe0d5
@87 ffe0d9
@88 ffe0dd
@89 ffe0e1
@8a 249feffe0e5
@8b ffe0e9
@8c 249feffe0ed
@8d ffe0f1
@8e 249feffe0f5
@8f ffe0f9
@90 ffe0fd
@91 ffe101
@92 249fefffffd
@93 ffe105
@94 249fefffffd
@95 ffe109
@96 ffe10d
@97 ffe111
@98 ffe115
@99 ffe119
@9a ffe11d
@9b 249feffe121
@9c ffe125
@9d 249fefffffd
@9e ffe129
@9f ffe12d
@a0 ffe131
@a1 249feffe135
@a2 ffe139
@a3 ffe13d
@a4 249fefffffd
@a5 ffe141
@a6 ffe145
@a7 ffe149
@a8 249fefffffd
@a9 249fefffffd
@aa 249feffe14d
@ab ffe151
@ac 249fefffffd
@ad 249fefffffd
@ae ffe155
@af 249fefffffd
@b0 ffe159
@b1 249feffe15d
@b2 ffe161
@b3 ffe165
@b4 249fefffffd
@b5 ffe169
@b6 249feffe16d
@b7 ffe171
@b8 249fefffffd
@b9 ba179
@ba 24afe0be181
@bb ffe185
@bc c418d
@bd 24afe0c8195
@be cc19d
@bf 24afe0d01a5
@c0 d41ad
@c1 24afe0d81b5
@c2 dc1bd
@c3 24afe0e01c5
@c4 e41cd
@c5 24afe0e81d5
@c6 ec1dd
@c7 24afefffffd
@c8 f01e5
@c9 24afe0f41ed
@ca f81f5
@cb 24afe0fc1fd
@cc 241fefffffd
@cd 241fefffffd
@ce 341fefffffd
@cf 907fa4afe101ffd
@d0 102209
@d1 24afe106211
@d2 10a219
@d3 24afe10e221
@d4 112229
@d5 24afe116231
@d6 11a239
@d7 24afe11e241
@d8 123ffd
@d9 321fefffffd
@da 221fefffffd
@db 321fefffffd
@dc 221fefffffd
@dd ffe249
@de ffe24d
@df c87fb22fe128255
@e0 887fa22fe12c25d
@e1 c87fb22fe130265
@e2 887fa22fe13426d
@e3 ffe271
@e4 321fefffffd
@e5 221fefffffd
@e6 248fefffffd
@e7 248fefffffd
@e8 321fefffffd
@e9 221fefffffd
@ea 221fefffffd
@eb 248fefffffd
@ec 248fefffffd
@ed 248fefffffd
@ee 248fefffffd
@ef 248fefffffd
@f0 248fefffffd
@f1 248fefffffd
@f2 248fefffffd
@f3 248fefffffd
@f4 248fefffffd
@f5 248fefffffd
@f6 248fefffffd
@f7 248fefffffd
@f8 2486bfffffd
@f9 248fefffffd
@fa 2483cfffffd
@fb 248fefffffd
@fc 248fefffffd
@fd 248fefffffd
@fe 248fefffffd
@ff 248fefffffd
@100 248fefffffd
@101 248fefffffd
@102 248fefffffd
@103 248fefffffd
@104 248fefffffd
@105 248fefffffd
@106 248fefffffd
@107 248fefffffd
@108 248fefffffd
@109 248fefffffd
@10a 248fefffffd
@10b 248fefffffd
@10c 248fefffffd
@10d 248fefffffd
@10e 248fefffffd
@10f 248fefffffd
@110 248fefffffd
@111 248fefffffd
@112 248fefffffd
@113 248fefffffd
@114 321fefffffd
@115 221fefffffd
@116 321fefffffd
@117 221fefffffd
@118 248fefffffd
@119 13bffd
@11a 221fefffffd
@11b 221fefffffd
@11c 321fefffffd
@11d 221fefffffd
@11e 321fefffffd
@11f 221fefffffd
@120 321fefffffd
@121 221fefffffd
@122 221fefffffd
@123 321fefffffd
@124 323fe13c27d
@125 323feffe281
@126 223fe142289
@127 147ffd
@128 321fefffffd
@129 221fefffffd
@12a 321fefffffd
@12b 321fefffffd
@12c 321fefffffd
@12d 221fefffffd
@12e 248fefffffd
@12f 248fefffffd
@130 248fdfffffd
@131 321fefffffd
@132 221fefffffd
@133 321fefffffd
@134 221fefffffd
@135 321fefffffd
@136 221fefffffd
@137 321fefffffd
@138 221feffe291
@139 248fefffffd
@13a 248fefffffd
@13b 248fefffffd
@13c 248fefffffd
@13d 248fefffffd
@13e 248fefffffd
@13f 248fefffffd
@140 248fefffffd
@141 248fefffffd
@142 248fefffffd
@143 248fefffffd
@144 248fefffffd
@145 248fefffffd
@146 248fefffffd
@147 248fefffffd
@148 248fefffffd
@149 248fefffffd
@14a 248fefffffd
@14b 248fefffffd
@14c 248fefffffd
@14d 248fefffffd
@14e 248fdfffffd
@14f 248fefffffd
@150 248fefffffd
@151 248fefffffd
@152 248fefffffd
@153 248fefffffd
@154 248fefffffd
@155 248fefffffd
@156 248fefffffd
@157 248fefffffd
@158 248fefffffd
@159 248fefffffd
@15a 248fefffffd
@15b 248fefffffd
@15c 221fefffffd
@15d 221fefffffd
@15e 321fefffffd
@15f 221fefffffd
@160 248fefffffd
@161 248fefffffd
@162 248fefffffd
@163 248fefffffd
@164 248fefffffd
@165 248fefffffd
@166 248fefffffd
@167 248fefffffd
@168 221fefffffd
@169 321fefffffd
@16a 248fefffffd
@16b 248fefffffd
@16c 248fefffffd
@16d 248fefffffd
@16e 248fefffffd
@16f 248fefffffd
@170 248fefffffd
@171 248fefffffd
@172 321fefffffd
@173 321fefffffd
@174 221fefffffd
@175 248fefffffd
@176 248fefffffd
@177 248fefffffd
@178 248fefffffd
@179 248fefffffd
@17a 248fefffffd
@17b 248fefffffd
@17c 248fefffffd
@17d 221fefffffd
@17e 221fefffffd
@17f 14bffd
@180 321fefffffd
@181 221fefffffd
@182 321fefffffd
@183 221fefffffd
@184 321fefffffd
@185 887fa48fefffffd
@186 321fefffffd
@187 221fefffffd
@188 3213cfffffd
@189 22120fffffd
@18a 14dffd
@18b 321fefffffd
@18c 321fefffffd
@18d 221fefffffd
@18e 321fefffffd
@18f 221fefffffd
@190 321fefffffd
@191 221fefffffd
@192 321fefffffd
@193 221fefffffd
@194 321fefffffd
@195 221fefffffd
@196 321fefffffd
@197 221fefffffd
@198 321fefffffd
@199 221fefffffd
@19a 221fefffffd
@19b 321fefffffd
@19c 221fefffffd
@19d 321fefffffd
@19e 221fefffffd
@19f 321fefffffd
@1a0 221fefffffd
@1a1 321fefffffd
@1a2 221fefffffd
@1a3 321fefffffd
@1a4 221fefffffd
@1a5 321fefffffd
@1a6 221fefffffd
@1a7 321fefffffd
@1a8 221fefffffd
@1a9 221fefffffd
@1aa 321fefffffd
@1ab 221fefffffd
@1ac 321fefffffd
@1ad 221fefffffd
@1ae 221fefffffd
@1af 321fefffffd
@1b0 321fefffffd
@1b1 221fefffffd
@1b2 321fefffffd
@1b3 221fefffffd
@1b4 321fefffffd
@1b5 221fefffffd
@1b6 321fefffffd
@1b7 221fefffffd
@1b8 321fefffffd
@1b9 321fefffffd
@1ba 221fefffffd
@1bb 321fefffffd
@1bc 221fefffffd
@1bd 321fefffffd
@1be 14fffd
@1bf 248fefffffd
@1c0 248fefffffd
@1c1 248fefffffd
@1c2 248fefffffd
@1c3 ffe2a1
@1c4 249feffe2a5
@1c5 ffe2a9
@1c6 249feffe2ad
@1c7 248fefffffd
@1c8 248fefffffd
@1c9 248fefffffd
@1ca 248fefffffd
@1cb 248fefffffd
@1cc 248fefffffd
@1cd ffe2b1
@1ce 249fefffffd
@1cf ffe2b5
@1d0 249feffe2b9
@1d1 341fe15e2c1
@1d2 24afe163ffd
@1d3 ffe2c9
@1d4 249fefffffd
@1d5 ffe2cd
@1d6 ffe2d1
@1d7 341feffe2d5
@1d8 16c2dd
@1d9 ffe2e1
@1da 249fefffffd
@1db 249feffe2e5
@1dc 1742ed
@1dd 907fa4afe1782f5
@1de ffe2f9
@1df 249feffe2fd
@1e0 ffe301
@1e1 249feffe305
@1e2 ffe309
@1e3 249fefffffd
@1e4 ffe30d
@1e5 ffe311
@1e6 249fefffffd
@1e7 ffe315
@1e8 249feffe319
@1e9 ffe31d
@1ea 249feffe321
@1eb ffe325
@1ec ffe329
@1ed ffe32d
@1ee 249feffe331
@1ef 19a339
@1f0 24afeffe33d
@1f1 ffe341
@1f2 1a2349
@1f3 907fa4afe1a6351
@1f4 321fefffffd
@1f5 221fefffffd
@1f6 321fefffffd
@1f7 221fefffffd
@1f8 321fefffffd
@1f9 221fefffffd
@1fa 321fefffffd
@1fb 221fefffffd
@1fc 121fefffffd
@1fd 121fefffffd
@1fe 141fefffffd
@1ff 41fefffffd
@200 141fefffffd
@201 41fefffffd
@202 141fefffffd
@203 1abffd
@204 1adffd
@205 122fe1ae361
@206 22fefffffd
@207 ffe365
@208 1b5ffd
@209 1b7ffd
@20a 121fefffffd
@20b 21fefffffd
@20c 21fefffffd
@20d 12145fffffd
@20e 121fefffffd
@20f 21fefffffd
@210 121fefffffd
@211 121fefffffd
@212 121fefffffd
@213 121fefffffd
@214 121fefffffd
@215 21fefffffd
@216 121fefffffd
@217 121fefffffd
@218 21fefffffd
@219 121fefffffd
@21a 21fefffffd
@21b 121fefffffd
@21c 21fefffffd
@21d 121fefffffd
@21e 21fefffffd
@21f 21fefffffd
@220 21fefffffd
@221 121fefffffd
@222 21fefffffd
@223 121fefffffd
@224 21fefffffd
@225 121fefffffd
@226 21fefffffd
@227 121fefffffd
@228 121fefffffd
@229 21fefffffd
@22a 121fefffffd
@22b 21fefffffd
@22c 121fefffffd
@22d 21fefffffd
@22e 21fefffffd
@22f 121fefffffd
@230 21fefffffd
@231 122feffe371
@232 22fe1ba379
@233 122fe1be381
@234 22fe1c2389
@235 122fe1c6391
@236 22fe1ca399
@237 122fe1ce3a1
@238 22fe1d23a9
@239 122feffe3ad
@23a 21feffe3b1
@23b 122fe1da3b9
@23c 22fe1de3c1
@23d 121fefffffd
@23e 21fefffffd
@23f 121fefffffd
@240 21fefffffd
@241 121fefffffd
@242 21fefffffd
@243 21fefffffd
@244 121fefffffd
@245 121fefffffd
@246 21fefffffd
@247 121fefffffd
@248 21fefffffd
@249 121fefffffd
@24a 21fefffffd
@24b 121fefffffd
@24c 121fefffffd
@24d 121fefffffd
@24e 21fefffffd
@24f 21fefffffd
@250 21fefffffd
@251 121fefffffd
@252 21fefffffd
@253 21fefffffd
@254 121fefffffd
@255 21fefffffd
@256 121fefffffd
@257 21fefffffd
@258 121fefffffd
@259 121fefffffd
@25a 21fefffffd
@25b 121fefffffd
@25c 21fefffffd
@25d 121fefffffd
@25e 21fefffffd
@25f 121fefffffd
@260 1213cfffffd
@261 121fefffffd
@262 21fefffffd
@263 121fefffffd
@264 21fefffffd
@265 121fefffffd
@266 21fefffffd
@267 121fefffffd
@268 21fefffffd
@269 121fefffffd
@26a 121fefffffd
@26b 21fefffffd
@26c 121fefffffd
@26d 121fefffffd
@26e 121fefffffd
@26f 121fefffffd
@270 121fefffffd
@271 21fefffffd
@272 121fefffffd
@273 121fefffffd
@274 121fefffffd
@275 210dfffffd
@276 213cfffffd
@277 213cfffffd
@278 1213cfffffd
@279 1210dfffffd
@27a 121fefffffd
@27b 21fefffffd
@27c 21fefffffd
@27d 121fefffffd
@27e 21fefffffd
@27f 21fefffffd
@280 121fefffffd
@281 21fefffffd
@282 121fefffffd
@283 121fefffffd
@284 21fefffffd
@285 21fefffffd
@286 121fefffffd
@287 121fefffffd
@288 21fefffffd
@289 121fefffffd
@28a 21fefffffd
@28b 121fefffffd
@28c 21fefffffd
@28d 121fefffffd
@28e 213cfffffd
@28f 121fefffffd
@290 21fefffffd
@291 121fefffffd
@292 21fefffffd
@293 21fefffffd
@294 21fefffffd
@295 21fefffffd
@296 121fefffffd
@297 21fefffffd
@298 121fefffffd
@299 121fefffffd
@29a 22feffe3c5
@29b 22fe1e5ffd
@29c 1e7ffd
@29d 121fe1e9ffd
@29e ffe3d5
@29f 121fefffffd
@2a0 21fefffffd
@2a1 21fefffffd
@2a2 21fefffffd
@2a3 213cfffffd
@2a4 1213cfffffd
@2a5 121fefffffd
@2a6 21fefffffd
@2a7 121fefffffd
@2a8 21fefffffd
@2a9 121fefffffd
@2aa 21fefffffd
@2ab 21fefffffd
@2ac 21fefffffd
@2ad 121fefffffd
@2ae 21fefffffd
@2af 21fefffffd
@2b0 121fefffffd
@2b1 21fefffffd
@2b2 121fefffffd
@2b3 21fefffffd
@2b4 121fefffffd
@2b5 21fefffffd
@2b6 121fefffffd
@2b7 21fefffffd
@2b8 121fefffffd
@2b9 21fefffffd
@2ba 121fefffffd
@2bb 21fefffffd
@2bc 121fefffffd
@2bd 121fefffffd
@2be 21fefffffd
@2bf 1ec3dd
@2c0 22fe1f1ffd
@2c1 487f922fe1f23e9
@2c2 22fe1f63f1
@2c3 121fe1fa3f9
@2c4 22fe1fe401
@2c5 122fe202409
@2c6 22feffe40d
@2c7 121fe208415
@2c8 22fe20c41d
@2c9 21fefffffd
@2ca 121fefffffd
@2cb 21fefffffd
@2cc 121fefffffd
@2cd 21fefffffd
@2ce 121fefffffd
@2cf 21fefffffd
@2d0 121fefffffd
@2d1 21fefffffd
@2d2 21fefffffd
@2d3 121fefffffd
@2d4 21fefffffd
@2d5 121fefffffd
@2d6 21fefffffd
@2d7 121fefffffd
@2d8 21fefffffd
@2d9 121fefffffd
@2da 121fefffffd
@2db 121fefffffd
@2dc 21fefffffd
@2dd 121fefffffd
@2de 21fefffffd
@2df 1213cfffffd
@2e0 213cfffffd
@2e1 121fefffffd
@2e2 21fefffffd
@2e3 21fefffffd
@2e4 121fefffffd
@2e5 21fefffffd
@2e6 21fefffffd
@2e7 21fefffffd
@2e8 121fefffffd
@2e9 21fefffffd
@2ea 121fefffffd
@2eb 21fefffffd
@2ec 121fefffffd
@2ed 21fefffffd
@2ee 121fefffffd
@2ef 21fefffffd
@2f0 121fefffffd
@2f1 21fefffffd
@2f2 121fefffffd
@2f3 21fefffffd
@2f4 21fefffffd
@2f5 121fefffffd
@2f6 21fefffffd
@2f7 121fefffffd
@2f8 21fefffffd
@2f9 21fefffffd
@2fa 121fefffffd
@2fb 121fefffffd
@2fc 21fefffffd
@2fd 121fefffffd
@2fe 21fefffffd
@2ff 121fefffffd
@300 21fefffffd
@301 21fefffffd
@302 121fefffffd
@303 121fefffffd
@304 121fefffffd
@305 121fefffffd
@306 1210dfffffd
@307 210dfffffd
@308 121fefffffd
@309 21fefffffd
@30a 121fefffffd
@30b 21fefffffd
@30c 121fefffffd
@30d 21fefffffd
@30e 21fefffffd
@30f 121fefffffd
@310 21fefffffd
@311 21fefffffd
@312 2120fffffd
@313 121fefffffd
@314 121fefffffd
@315 21fefffffd
@316 21fefffffd
@317 121fefffffd
@318 121fefffffd
@319 21fefffffd
@31a 121fefffffd
@31b 121fefffffd
@31c 121fefffffd
@31d 121fefffffd
@31e 21fefffffd
@31f 21fefffffd
@320 487f922fe210425
@321 ffe429
@322 122fefffffd
@323 217ffd
@324 121fefffffd
@325 21fefffffd
@326 121fefffffd
@327 21fefffffd
@328 21fefffffd
@329 121fefffffd
@32a 21fefffffd
@32b 121fefffffd
@32c 21fefffffd
@32d 121fefffffd
@32e 21fefffffd
@32f 121fefffffd
@330 21fefffffd
@331 121fefffffd
@332 21fefffffd
@333 121fefffffd
@334 21fefffffd
@335 121fefffffd
@336 21fefffffd
@337 121fefffffd
@338 21fefffffd
@339 121fefffffd
@33a 121fefffffd
@33b 121fefffffd
@33c 21fefffffd
@33d 143fe219fff
@33e 43fe21bfff
@33f 141fefffffd
@340 1413cfffffd
@341 413cfffffd
@342 413cfffffd
@343 141fefffffd
@344 41fefffffd
@345 12120fffffd
@346 121fefffffd
@347 1213cfffffd
@348 213cfffffd
@349 213cfffffd
@34a 123fe21c43d
@34b 23fe220445
@34c 123fe22444d
@34d 23fe228455
@34e 1215dfffffd
@34f 215dfffffd
@350 12112fffffd
@351 21fdfffffd
@352 1216bfffffd
@353 216bfffffd
@354 213cfffffd
@355 121fefffffd
@356 121fefffffd
@357 121fefffffd
@358 21fefffffd
@359 121fefffffd
@35a 121fefffffd
@35b 21fefffffd
@35c 121fefffffd
@35d 121fefffffd
@35e 121fefffffd
@35f 21fefffffd
@360 121fefffffd
@361 21fefffffd
@362 121fefffffd
@363 21fefffffd
@364 21fefffffd
@365 121fefffffd
@366 121fefffffd
@367 21fefffffd
@368 121fefffffd
@369 21fefffffd
@36a 121fefffffd
@36b 21fdfffffd
@36c 121fefffffd
@36d 21fefffffd
@36e 121fefffffd
@36f 21fefffffd
@370 121fefffffd
@371 21fefffffd
@372 121fefffffd
@373 21fefffffd
@374 121fefffffd
@375 21fefffffd
@376 121fefffffd
@377 21fefffffd
@378 121fefffffd
@379 21fefffffd
@37a 21fefffffd
@37b 21fefffffd
@37c 141fefffffd
@37d 213cfffffd
@37e 1213cfffffd
@37f 213cfffffd
@380 213cfffffd
@381 213cfffffd
@382 21fefffffd
@383 121fefffffd
@384 21fefffffd
@385 121fefffffd
@386 21fefffffd
@387 121fefffffd
@388 121fefffffd
@389 21fefffffd
@38a 21fefffffd
@38b 21fefffffd
@38c 121fefffffd
@38d 21fefffffd
@38e 121fefffffd
@38f 121fefffffd
@390 121fefffffd
@391 121fefffffd
@392 21fefffffd
@393 121fefffffd
@394 21fefffffd
@395 121fefffffd
@396 507f944fe22c45d
@397 107f844fe230465
@398 507f944fe23446d
@399 107f844fe238475
@39a 42fe23dffd
@39b 142fe23e481
@39c 42fe242489
@39d 141fefffffd
@39e 42fe246491
@39f 142feffe495
@3a0 24dffd
@3a1 24fffd
@3a2 42fe2504a5
@3a3 41fefffffd
@3a4 41fefffffd
@3a5 507f942fe2544ad
@3a6 43fe259fff
@3a7 507f942fe25a4b9
@3a8 42fe25e4c1
@3a9 263ffd
@3aa 42fe2644cd
@3ab ffe4d1
@3ac 26bffd
@3ad 42feffe4d9
@3ae 141fefffffd
@3af 41fefffffd
@3b0 121fefffffd
@3b1 121fefffffd
@3b2 21fefffffd
@3b3 121fefffffd
@3b4 21fefffffd
@3b5 121fefffffd
@3b6 21fefffffd
@3b7 121fefffffd
@3b8 21fefffffd
@3b9 121fefffffd
@3ba 21fefffffd
@3bb 121fefffffd
@3bc 121fefffffd
@3bd 21fefffffd
@3be 21fefffffd
@3bf 121fefffffd
@3c0 21fefffffd
@3c1 121fefffffd
@3c2 142fe26e4e1
@3c3 42fe2724e9
@3c4 142fe2764f1
@3c5 42fe27a4f9
@3c6 142fe27e501
@3c7 42fe282509
@3c8 286511
@3c9 28a519
@3ca 41fefffffd
@3cb 41fefffffd
@3cc 121fefffffd
@3cd 507f942fe28e521
@3ce 107f842fe292529
@3cf 21fefffffd
@3d0 121fefffffd
@3d1 21fefffffd
@3d2 121fefffffd
@3d3 121fefffffd
@3d4 121fefffffd
@3d5 121fefffffd
@3d6 21fefffffd
@3d7 121fefffffd
@3d8 121fefffffd
@3d9 21fefffffd
@3da 121fefffffd
@3db 21fefffffd
@3dc 121fefffffd
@3dd 21fefffffd
@3de 121fefffffd
@3df 121fefffffd
@3e0 21fefffffd
@3e1 121fefffffd
@3e2 21fefffffd
@3e3 141fefffffd
@3e4 41fefffffd
@3e5 122fefffffd
@3e6 141fefffffd
@3e7 22fe296531
@3e8 141fefffffd
@3e9 141fefffffd
@3ea 41fefffffd
@3eb 41fefffffd
@3ec 141fefffffd
@3ed 41fefffffd
@3ee 41fefffffd
@3ef 141fefffffd
@3f0 141fefffffd
@3f1 121fefffffd
@3f2 21fefffffd
@3f3 121fefffffd
@3f4 21fefffffd
@3f5 ffe535
@3f6 121fefffffd
@3f7 21fefffffd
@3f8 121fefffffd
@3f9 121fefffffd
@3fa 121fefffffd
@3fb 121fefffffd
@3fc 121fefffffd
@3fd 121fefffffd
@3fe 121fefffffd
@3ff 21fefffffd
@400 121fefffffd
@401 21fefffffd
@402 121fefffffd
@403 21fefffffd
@404 121fefffffd
@405 21fefffffd
@406 121fefffffd
@407 21fefffffd
@408 121fefffffd
@409 21fefffffd
@40a 121fefffffd
@40b 21fefffffd
@40c 121fefffffd
@40d 21fefffffd
@40e 121fefffffd
@40f 21fefffffd
@410 121fefffffd
@411 21fefffffd
@412 121fefffffd
@413 21fefffffd
@414 121fefffffd
@415 21fefffffd
@416 121fefffffd
@417 21fefffffd
@418 121fefffffd
@419 21fefffffd
@41a 121fefffffd
@41b 21fefffffd
@41c 21fefffffd
@41d 121fefffffd
@41e 21fefffffd
@41f 121fefffffd
@420 21fefffffd
@421 121fefffffd
@422 21fefffffd
@423 21fefffffd
@424 121fefffffd
@425 121fefffffd
@426 21fefffffd
@427 21fefffffd
@428 21fefffffd
@429 121fefffffd
@42a 121fefffffd
@42b 121fefffffd
@42c 21fefffffd
@42d 121fdfffffd
@42e 21fefffffd
@42f 121fefffffd
@430 121fefffffd
@431 21fefffffd
@432 121fefffffd
@433 121fefffffd
@434 21fefffffd
@435 121fefffffd
@436 21fefffffd
@437 121fefffffd
@438 21fefffffd
@439 121fefffffd
@43a 21fefffffd
@43b 121fefffffd
@43c 21fefffffd
@43d 121fefffffd
@43e 21fefffffd
@43f 121fefffffd
@440 21fefffffd
@441 121fefffffd
@442 21fefffffd
@443 121fefffffd
@444 21fefffffd
@445 121fefffffd
@446 21fefffffd
@447 121fefffffd
@448 21fefffffd
@449 121fefffffd
@44a 21fefffffd
@44b 121fefffffd
@44c 21fefffffd
@44d 121fefffffd
@44e 21fefffffd
@44f 121fefffffd
@450 21fefffffd
@451 121fefffffd
@452 21fefffffd
@453 1213cfffffd
@454 21fefffffd
@455 121fefffffd
@456 21fefffffd
@457 21fefffffd
@458 121fefffffd
@459 21fefffffd
@45a 21fefffffd
@45b 121fefffffd
@45c 21fefffffd
@45d 21fefffffd
@45e 121fefffffd
@45f 21fefffffd
@460 121fefffffd
@461 121fefffffd
@462 121fefffffd
@463 21fefffffd
@464 213cfffffd
@465 213cfffffd
@466 213cfffffd
@467 121fefffffd
@468 21fefffffd
@469 121fefffffd
@46a 1213cfffffd
@46b 2188fffffd
@46c 121fefffffd
@46d 21fefffffd
@46e 21fefffffd
@46f 121fefffffd
@470 121fefffffd
@471 21fefffffd
@472 21fefffffd
@473 121fefffffd
@474 2120fffffd
@475 2120fffffd
@476 121fefffffd
@477 21fefffffd
@478 121fefffffd
@479 21fefffffd
@47a 121fefffffd
@47b 21fefffffd
@47c 121fefffffd
@47d 21fefffffd
@47e 121fefffffd
@47f 21fefffffd
@480 121fefffffd
@481 21fefffffd
@482 121fefffffd
@483 21fefffffd
@484 121fefffffd
@485 21fefffffd
@486 121fefffffd
@487 21fefffffd
@488 121fefffffd
@489 21fefffffd
@48a 121fefffffd
@48b 21fefffffd
@48c 21fefffffd
@48d 121fefffffd
@48e 21fefffffd
@48f 21fefffffd
@490 121fefffffd
@491 121fefffffd
@492 121fefffffd
@493 21fefffffd
@494 121fefffffd
@495 121fefffffd
@496 21fefffffd
@497 21fefffffd
@498 121fefffffd
@499 21fefffffd
@49a 21fefffffd
@49b 21fefffffd
@49c 21fefffffd
@49d 21fefffffd
@49e 121fefffffd
@49f 21fefffffd
@4a0 121fefffffd
@4a1 21fefffffd
@4a2 121fefffffd
@4a3 21fefffffd
@4a4 121fefffffd
@4a5 21fefffffd
@4a6 121fefffffd
@4a7 21fefffffd
@4a8 121fefffffd
@4a9 21fefffffd
@4aa 121fefffffd
@4ab 21fefffffd
@4ac 121fefffffd
@4ad 21fefffffd
@4ae 121fefffffd
@4af 121fefffffd
@4b0 21fefffffd
@4b1 121fefffffd
@4b2 21fefffffd
@4b3 121fefffffd
@4b4 21fefffffd
@4b5 121fefffffd
@4b6 121fefffffd
@4b7 21fefffffd
@4b8 121fefffffd
@4b9 21fefffffd
@4ba 121fefffffd
@4bb 21fefffffd
@4bc 121fefffffd
@4bd 21fefffffd
@4be 121fefffffd
@4bf 21fefffffd
@4c0 121fefffffd
@4c1 21fefffffd
@4c2 121fefffffd
@4c3 21fefffffd
@4c4 121fefffffd
@4c5 121fefffffd
@4c6 21fefffffd
@4c7 121fefffffd
@4c8 21fefffffd
@4c9 121fefffffd
@4ca 121fefffffd
@4cb 21fefffffd
@4cc 121fefffffd
@4cd 21fefffffd
@4ce 121fefffffd
@4cf 21fefffffd
@4d0 121fefffffd
@4d1 21fefffffd
@4d2 121fefffffd
@4d3 121fefffffd
@4d4 121fefffffd
@4d5 21fefffffd
@4d6 21fefffffd
@4d7 121fefffffd
@4d8 22fe29c53d
@4d9 121fefffffd
@4da 21fefffffd
@4db 121fefffffd
@4dc 21fefffffd
@4dd 121fefffffd
@4de 21fefffffd
@4df 21fefffffd
@4e0 121fefffffd
@4e1 21fefffffd
@4e2 21fefffffd
@4e3 21fefffffd
@4e4 121fefffffd
@4e5 121fefffffd
@4e6 121fefffffd
@4e7 21fefffffd
@4e8 121fefffffd
@4e9 21fefffffd
@4ea 121fefffffd
@4eb 21fefffffd
@4ec 121fefffffd
@4ed 21fefffffd
@4ee 121fefffffd
@4ef 121fefffffd
@4f0 21fefffffd
@4f1 121fefffffd
@4f2 21fefffffd
@4f3 121fefffffd
@4f4 21fefffffd
@4f5 121fefffffd
@4f6 21fefffffd
@4f7 121fefffffd
@4f8 121fefffffd
@4f9 121fefffffd
@4fa 21fefffffd
@4fb 121fefffffd
@4fc 21fefffffd
@4fd 121fefffffd
@4fe 21fefffffd
@4ff 21fefffffd
@500 121fefffffd
@501 121fefffffd
@502 21fefffffd
@503 121fefffffd
@504 21fefffffd
@505 121fefffffd
@506 121fefffffd
@507 21fefffffd
@508 121fefffffd
@509 21fefffffd
@50a 21fefffffd
@50b 121fefffffd
@50c 21fefffffd
@50d 121fefffffd
@50e 21fefffffd
@50f 121fefffffd
@510 21fefffffd
@511 121fefffffd
@512 21fefffffd
@513 121fefffffd
@514 21fefffffd
@515 121fefffffd
@516 21fefffffd
@517 121fefffffd
@518 21fefffffd
@519 21fefffffd
@51a 121fefffffd
@51b 21fefffffd
@51c 121fefffffd
@51d 21fefffffd
@51e 121fefffffd
@51f 21fefffffd
@520 121fefffffd
@521 21fefffffd
@522 121fefffffd
@523 21fefffffd
@524 121fefffffd
@525 21fefffffd
@526 121fefffffd
@527 21fefffffd
@528 21fefffffd
@529 121fefffffd
@52a 121fefffffd
@52b 21fefffffd
@52c 121fefffffd
@52d 21fefffffd
@52e 21fefffffd
@52f 121fefffffd
@530 21fefffffd
@531 121fefffffd
@532 21fefffffd
@533 121fefffffd
@534 21fefffffd
@535 121fefffffd
@536 21fefffffd
@537 121fefffffd
@538 21fefffffd
@539 121fefffffd
@53a 121fefffffd
@53b 21fefffffd
@53c 121fefffffd
@53d 21fefffffd
@53e 121fefffffd
@53f 21fefffffd
@540 21fefffffd
@541 121fefffffd
@542 21fefffffd
@543 121fefffffd
@544 21fefffffd
@545 21fefffffd
@546 21fefffffd
@547 121fefffffd
@548 121fefffffd
@549 121fefffffd
@54a 121fefffffd
@54b 121fefffffd
@54c 121fefffffd
@54d 21fefffffd
@54e 121fefffffd
@54f 21fefffffd
@550 1210dfffffd
@551 1210dfffffd
@552 21fefffffd
@553 21fefffffd
@554 21fefffffd
@555 21fefffffd
@556 121fefffffd
@557 21fefffffd
@558 21fefffffd
@559 121fefffffd
@55a 21fefffffd
@55b 121fefffffd
@55c 21fefffffd
@55d 21fefffffd
@55e 121fefffffd
@55f 21fefffffd
@560 121fefffffd
@561 213efffffd
@562 121fefffffd
@563 121fefffffd
@564 21fefffffd
@565 121fefffffd
@566 21fefffffd
@567 121fefffffd
@568 121fefffffd
@569 121fefffffd
@56a 121fefffffd
@56b 21fefffffd
@56c 21fefffffd
@56d 21fefffffd
@56e 121fefffffd
@56f 121fefffffd
@570 121fefffffd
@571 1213efffffd
@572 213efffffd
@573 121fefffffd
@574 21fefffffd
@575 21fefffffd
@576 487f922fe2a0545
@577 87f822fe2a5ffd
@578 121fefffffd
@579 22fe2a7ffd
@57a 121feffe551
@57b 21fefffffd
@57c 12170fffffd
@57d 2170fffffd
@57e 12170fffffd
@57f 2170fffffd
@580 12170fffffd
@581 12170fffffd
@582 2170fffffd
@583 12170fffffd
@584 2170fffffd
@585 12170fffffd
@586 12170fffffd
@587 2170fffffd
@588 12170fffffd
@589 2170fffffd
@58a 2170fffffd
@58b 12170fffffd
@58c 2170fffffd
@58d 12170fffffd
@58e 2170fffffd
@58f 2170fffffd
@590 2170fffffd
@591 12170fffffd
@592 12170fffffd
@593 12170fffffd
@594 2170fffffd
@595 12170fffffd
@596 121fefffffd
@597 121fefffffd
@598 21fefffffd
@599 121fefffffd
@59a 21fefffffd
@59b 121fefffffd
@59c 21fefffffd
@59d 121fefffffd
@59e 21fefffffd
@59f 121fefffffd
@5a0 21fefffffd
@5a1 121fefffffd
@5a2 21fefffffd
@5a3 121fefffffd
@5a4 121fefffffd
@5a5 121fefffffd
@5a6 121fefffffd
@5a7 21fefffffd
@5a8 21fefffffd
@5a9 21fefffffd
@5aa 121fefffffd
@5ab 21fefffffd
@5ac 121fefffffd
@5ad 121fefffffd
@5ae 21fefffffd
@5af 121fefffffd
@5b0 21fefffffd
@5b1 121fefffffd
@5b2 21fefffffd
@5b3 121fefffffd
@5b4 21fefffffd
@5b5 87f822fe2aa559
@5b6 121fefffffd
@5b7 21fefffffd
@5b8 121fefffffd
@5b9 121fefffffd
@5ba 121fefffffd
@5bb 21fefffffd
@5bc 121fefffffd
@5bd 21fefffffd
@5be 121fefffffd
@5bf 21fefffffd
@5c0 21fefffffd
@5c1 121fefffffd
@5c2 21fefffffd
@5c3 121fefffffd
@5c4 21fefffffd
@5c5 121fefffffd
@5c6 121fefffffd
@5c7 121fefffffd
@5c8 21fefffffd
@5c9 121fefffffd
@5ca 21fefffffd
@5cb 21fefffffd
@5cc 121fefffffd
@5cd 21fefffffd
@5ce 21fefffffd
@5cf 121fefffffd
@5d0 21fefffffd
@5d1 121fefffffd
@5d2 21fefffffd
@5d3 21fefffffd
@5d4 121fefffffd
@5d5 121fefffffd
@5d6 21fefffffd
@5d7 121fefffffd
@5d8 121fefffffd
@5d9 21fefffffd
@5da 121fefffffd
@5db 121fefffffd
@5dc 121fefffffd
@5dd 121fefffffd
@5de 21fefffffd
@5df 121fefffffd
@5e0 21fefffffd
@5e1 121fefffffd
@5e2 21fefffffd
@5e3 121fefffffd
@5e4 21fefffffd
@5e5 141fefffffd
@5e6 141fefffffd
@5e7 141fefffffd
@5e8 41fefffffd
@5e9 141fefffffd
@5ea 41fefffffd
@5eb 141fefffffd
@5ec 41fefffffd
@5ed 41fefffffd
@5ee 141fefffffd
@5ef 141fefffffd
@5f0 141fefffffd
@5f1 41fefffffd
@5f2 41fefffffd
@5f3 141fefffffd
@5f4 41fefffffd
@5f5 141fefffffd
@5f6 41fefffffd
@5f7 141fefffffd
@5f8 41fefffffd
@5f9 41fefffffd
@5fa 141fefffffd
@5fb 41fefffffd
@5fc 141fefffffd
@5fd 41fefffffd
@5fe 141fefffffd
@5ff 41fefffffd
@600 141fefffffd
@601 41fefffffd
@602 141fefffffd
@603 41fefffffd
@604 41fefffffd
@605 122fefffffd
@606 2ae561
@607 122fefffffd
@608 22fefffffd
@609 ffe565
@60a 121fe2b5ffd
@60b 141fefffffd
@60c 41fefffffd
@60d 41fefffffd
@60e 141fefffffd
@60f 141fefffffd
@610 41fefffffd
@611 141fefffffd
@612 41fefffffd
@613 122fe2b6571
@614 22fe2ba579
@615 2bfffd
@616 ffe581
@617 122fefffffd
@618 122fe2c2589
@619 22fe2c6591
@61a ffe595
@61b 22fefffffd
@61c 41fefffffd
@61d 22fefffffd
@61e 122fe2cc59d
@61f 22fe2d1ffd
@620 121fefffffd
@621 141fefffffd
@622 41fefffffd
@623 87f823fe2d25a9
@624 1223cfffffd
@625 121fefffffd
@626 41fefffffd
@627 2d7ffd
@628 121fefffffd
@629 141fefffffd
@62a 41fefffffd
@62b 41fefffffd
@62c 213cfffffd
@62d ffe5b1
@62e 2dbffd
@62f 1223cfffffd
@630 ffe5b9
@631 121fefffffd
@632 22fefffffd
@633 141fefffffd
@634 41fefffffd
@635 141fefffffd
@636 41fefffffd
@637 122fefffffd
@638 ffe5bd
@639 2e1ffd
@63a 141fefffffd
@63b 41fefffffd
@63c 122fefffffd
@63d 2e3ffd
@63e 21feffe5c9
@63f 121fe2e7ffd
@640 21fefffffd
@641 2e85d5
@642 2ec5dd
@643 122fefffffd
@644 22feffe5e1
@645 2f25e9
@646 22feffe5ed
@647 141fefffffd
@648 41fefffffd
@649 2f9ffd
@64a 2fbffd
@64b 22fefffffd
@64c 122fe2fc5fd
@64d 22fe300605
@64e 122fe30460d
@64f 22fe309ffd
@650 122feffe615
@651 22feffe619
@652 122fe30e621
@653 22fe312629
@654 ffe62d
@655 ffe631
@656 ffe635
@657 ffe639
@658 22feffe63d
@659 321ffd
@65a 487f922feffe645
@65b 87f822fefffffd
@65c 121fefffffd
@65d 21feffe649
@65e 121fe326651
@65f 21fefffffd
@660 121fefffffd
@661 21fefffffd
@662 141fefffffd
@663 487f922feffe655
@664 ffe659
@665 121fe32fffd
@666 141fefffffd
@667 22fefffffd
@668 21fefffffd
@669 21fefffffd
@66a 121fefffffd
@66b 121fefffffd
@66c 21fefffffd
@66d 121fefffffd
@66e 121fefffffd
@66f 121fefffffd
@670 21fefffffd
@671 21fefffffd
@672 121fefffffd
@673 21fefffffd
@674 21fefffffd
@675 121fefffffd
@676 121fefffffd
@677 21fefffffd
@678 21fefffffd
@679 121fefffffd
@67a 21fefffffd
@67b 21fefffffd
@67c 21fefffffd
@67d 121fefffffd
@67e 21fefffffd
@67f 21fefffffd
@680 121fefffffd
@681 21fefffffd
@682 21fefffffd
@683 121fefffffd
@684 21fefffffd
@685 121fefffffd
@686 21fefffffd
@687 1210bfffffd
@688 210bfffffd
@689 1210bfffffd
@68a 1213cfffffd
@68b 213cfffffd
@68c 121fefffffd
@68d 21fefffffd
@68e 331ffd
@68f 141feffe665
@690 141fefffffd
@691 335ffd
@692 ffe66d
@693 141fefffffd
@694 41fefffffd
@695 122fe338675
@696 33dffd
@697 141fefffffd
@698 41fefffffd
@699 141fefffffd
@69a 122fe33e681
@69b 22fe342689
@69c 141fefffffd
@69d 41fefffffd
@69e 41fefffffd
@69f 141fefffffd
@6a0 41fefffffd
@6a1 141fefffffd
@6a2 41fefffffd
@6a3 121fefffffd
@6a4 21fefffffd
@6a5 121fefffffd
@6a6 21fefffffd
@6a7 21fefffffd
@6a8 121fefffffd
@6a9 21fefffffd
@6aa 1227e346691
@6ab 227e34a699
@6ac 21fefffffd
@6ad 121fefffffd
@6ae 21fefffffd
@6af 21fefffffd
@6b0 121fefffffd
@6b1 21fefffffd
@6b2 121fefffffd
@6b3 121fefffffd
@6b4 21fefffffd
@6b5 121fefffffd
@6b6 121fefffffd
@6b7 21fefffffd
@6b8 121fefffffd
@6b9 21fefffffd
@6ba 21fefffffd
@6bb 122feffe69d
@6bc 22fefffffd
@6bd ffe6a1
@6be 122fefffffd
@6bf 22feffe6a5
@6c0 21fefffffd
@6c1 21fefffffd
@6c2 121fefffffd
@6c3 21fefffffd
@6c4 121fefffffd
@6c5 21fefffffd
@6c6 121fefffffd
@6c7 21fefffffd
@6c8 21fefffffd
@6c9 121fefffffd
@6ca 121fefffffd
@6cb 121fefffffd
@6cc 21fefffffd
@6cd 121fefffffd
@6ce 21fefffffd
@6cf 21fefffffd
@6d0 21fefffffd
@6d1 21fefffffd
@6d2 121fefffffd
@6d3 21fefffffd
@6d4 21fefffffd
@6d5 121fefffffd
@6d6 121fefffffd
@6d7 21fefffffd
@6d8 121fefffffd
@6d9 21fefffffd
@6da 121fefffffd
@6db 21fefffffd
@6dc 121fefffffd
@6dd 21fefffffd
@6de 121fefffffd
@6df 121fefffffd
@6e0 21fefffffd
@6e1 21fefffffd
@6e2 143fe3546ad
@6e3 3586b5
@6e4 143fe35c6bd
@6e5 43fe3606c5
@6e6 143fe3646cd
@6e7 43fe3686d5
@6e8 143fe36c6dd
@6e9 43fe3706e5
@6ea 143fe3746ed
@6eb 43fe379ffd
@6ec 143fe37a6f9
@6ed 43fe37e701
@6ee 143fe382709
@6ef ffe70d
@6f0 43fe389ffd
@6f1 ffe715
@6f2 143fefffffd
@6f3 38dffd
@6f4 38e721
@6f5 41feffe725
@6f6 41fefffffd
@6f7 143fe39472d
@6f8 43fe398735
@6f9 ffe739
@6fa 39fffd
@6fb 124feffe741
@6fc ffe745
@6fd 141fefffffd
@6fe 41feffe749
@6ff 143fe3a6751
@700 43fe3aa759
@701 142fe3ae761
@702 41fefffffd
@703 3b3ffd
@704 141fe3b5ffd
@705 41fefffffd
@706 141fefffffd
@707 41fe3b7ffd
@708 3b8775
@709 42fe3bc77d
@70a ffe781
@70b 3c3ffd
@70c 41fefffffd
@70d 3c5ffd
@70e 41feffe78d
@70f 3c9ffd
@710 141fefffffd
@711 ffe795
@712 41fefffffd
@713 ffe799
@714 107f842feffe79d
@715 ffe7a1
@716 42fefffffd
@717 42feffe7a5
@718 141fefffffd
@719 42fefffffd
@71a 142feffe7a9
@71b 142fe3d67b1
@71c 42fe3da7b9
@71d 142fe3de7c1
@71e 42fe3e27c9
@71f 142fe3e67d1
@720 42fe3ea7d9
@721 42fefffffd
@722 42fe3ee7e1
@723 3f3ffd
@724 3f5ffd
@725 122feffe7ed
@726 3f9ffd
@727 21fefffffd
@728 121fefffffd
@729 21fefffffd
@72a 21fefffffd
@72b 121fefffffd
@72c 21fefffffd
@72d 121fefffffd
@72e 21fefffffd
@72f 121fefffffd
@730 21fefffffd
@731 21fefffffd
@732 121fefffffd
@733 21fefffffd
@734 21fefffffd
@735 21fefffffd
@736 121fefffffd
@737 21fefffffd
@738 21fefffffd
@739 21fefffffd
@73a 21fefffffd
@73b 21fefffffd
@73c 121fefffffd
@73d 21fefffffd
@73e 3fa7f9
@73f 121fefffffd
@740 121fefffffd
@741 21fefffffd
@742 3ffffd
@743 122fe400805
@744 22fe40480d
@745 122fe408815
@746 22fe40dffd
@747 22fe40e821
@748 122fe412829
@749 21fefffffd
@74a 487f922fe416831
@74b ffe835
@74c 487f922feffe839
@74d 122fefffffd
@74e 1233e41e841
@74f 213effe845
@750 1232c42484d
@751 233e428855
@752 487f523fdffe859
@753 22fdfffffd
@754 42fffd
@755 21fdffe861
@756 ffe865
@757 435ffd
@758 122fefffffd
@759 ffe86d
@75a 122fefffffd
@75b ffe871
@75c 1220dfffffd
@75d 141fefffffd
@75e 41fefffffd
@75f 141fefffffd
@760 141fefffffd
@761 41fefffffd
@762 41fefffffd
@763 141fefffffd
@764 141fefffffd
@765 41fefffffd
@766 141fefffffd
@767 41fefffffd
@768 141fefffffd
@769 41fefffffd
@76a 141fefffffd
@76b 41fefffffd
@76c 141fefffffd
@76d 122feffe875
@76e 43c87d
@76f 122feffe881
@770 ffe885
@771 21feffe889
@772 121fefffffd
@773 21fefffffd
@774 ffe88d
@775 122fe449ffd
@776 121fefffffd
@777 21fefffffd
@778 122fe44a899
@779 22fefffffd
@77a 44fffd
@77b 22fe4508a5
@77c 121fefffffd
@77d 21fefffffd
@77e 455ffd
@77f 223c457ffd
@780 4588b5
@781 1223c45c8bd
@782 141fefffffd
@783 41fefffffd
@784 141fefffffd
@785 41fefffffd
@786 461ffd
@787 223cfffffd
@788 141fefffffd
@789 141fefffffd
@78a 141fefffffd
@78b 41fefffffd
@78c 141fefffffd
@78d 41fefffffd
@78e 141fefffffd
@78f 41fefffffd
@790 141fefffffd
@791 41fefffffd
@792 22fe463ffd
@793 122fefffffd
@794 22fe465ffd
@795 122fe4668d1
@796 22fe46a8d9
@797 46fffd
@798 141fefffffd
@799 41fefffffd
@79a 141fefffffd
@79b 141fefffffd
@79c 41fefffffd
@79d 121fefffffd
@79e 121fe471ffd
@79f ffe8e5
@7a0 21fefffffd
@7a1 121fefffffd
@7a2 475ffd
@7a3 121fefffffd
@7a4 21fefffffd
@7a5 122fefffffd
@7a6 21feffe8ed
@7a7 122feffe8f1
@7a8 47bffd
@7a9 122fefffffd
@7aa 22fefffffd
@7ab 122fe47c8fd
@7ac 22fe480905
@7ad 122fefffffd
@7ae 122fefffffd
@7af 21fefffffd
@7b0 ffe909
@7b1 21fefffffd
@7b2 122fe486911
@7b3 22fe48a919
@7b4 22feffe91d
@7b5 22fefffffd
@7b6 122feffe921
@7b7 22fe493ffd
@7b8 ffe929
@7b9 497ffd
@7ba 21fefffffd
@7bb 121fdfffffd
@7bc 499ffd
@7bd 22fefffffd
@7be 21fefffffd
@7bf 122fe49a939
@7c0 49fffd
@7c1 22fe4a1ffd
@7c2 122fefffffd
@7c3 ffe945
@7c4 22fe4a494d
@7c5 ffe951
@7c6 ffe955
@7c7 ffe959
@7c8 22fefffffd
@7c9 ffe95d
@7ca 122feffe961
@7cb 123fe4b2969
@7cc 123fe4b6971
@7cd 23fe4ba979
@7ce 123feffe97d
@7cf 123fe4c0985
@7d0 23fe4c498d
@7d1 123feffe991
@7d2 123feffe995
@7d3 87f823fe4cc99d
@7d4 123fe4d09a5
@7d5 87f823fe4d49ad
@7d6 122feffe9b1
@7d7 22fe4da9b9
@7d8 122fe4de9c1
@7d9 22fe4e29c9
@7da 4e7ffd
@7db 122fefffffd
@7dc 122feffe9d1
@7dd 22fe4ea9d9
@7de ffe9dd
@7df 22fe4f1ffd
@7e0 122fe4f3ffd
@7e1 4f5ffd
@7e2 4f7ffd
@7e3 ffe9f1
@7e4 122fe4fa9f9
@7e5 22fe4ffffd
@7e6 22fe500a05
@7e7 122fefffffd
@7e8 22fe504a0d
@7e9 122fe508a15
@7ea 22fefffffd
@7eb 122feffea19
@7ec 22fe50ea21
@7ed 512a29
@7ee 22fe516a31
@7ef ffea35
@7f0 141fefffffd
@7f1 41fefffffd
@7f2 41fefffffd
@7f3 141fefffffd
@7f4 41fefffffd
@7f5 141fefffffd
@7f6 41fefffffd
@7f7 141fefffffd
@7f8 41fefffffd
@7f9 141fefffffd
@7fa 41fefffffd
@7fb 141fefffffd
@7fc 41fefffffd
@7fd 141fefffffd
@7fe 141fefffffd
@7ff 141fefffffd
@800 41fefffffd
@801 121fefffffd
@802 121fefffffd
@803 122fe51ca3d
@804 22fefffffd
@805 22fefffffd
@806 ffea41
@807 523ffd
@808 122feffea49
@809 ffea4d
@80a 529ffd
@80b 52bffd
@80c 121fefffffd
@80d 121fefffffd
@80e 21fefffffd
@80f 21fefffffd
@810 507f942fefffffd
@811 507f942fefffffd
@812 52dffd
@813 52fffd
@814 531ffd
@815 141fefffffd
@816 142fefffffd
@817 533ffd
@818 142feffea69
@819 41fefffffd
@81a 537ffd
@81b 141fefffffd
@81c ffea71
@81d ffea75
@81e 42fe53ca7d
@81f 142fefffffd
@820 540a85
@821 ffea89
@822 546a91
@823 43fe54bffd
@824 54dffd
@825 42fefffffd
@826 ffea9d
@827 ffeaa1
@828 122fe553ffd
@829 122fe554aad
@82a 22fe558ab5
@82b 22fe55dffd
@82c ffeabd
@82d 122feffeac1
@82e 22feffeac5
@82f 122fefffffd
@830 22fe564acd
@831 487f922feffead1
@832 121fe56bffd
@833 22fe56cadd
@834 571ffd
@835 21fefffffd
@836 121fe573ffd
@837 22fefffffd
@838 22fe574aed
@839 21feffeaf1
@83a 122fe57aaf9
@83b 57fffd
@83c 581ffd
@83d 22fefffffd
@83e ffeb05
@83f 22fe584b0d
@840 121fe588b15
@841 22fe58dffd
@842 22fefffffd
@843 58eb21
@844 ffeb25
@845 141fefffffd
@846 141fefffffd
@847 41fefffffd
@848 141fefffffd
@849 141fefffffd
@84a 122fe594b2d
@84b 22fe598b35
@84c 59dffd
@84d 122fe59eb41
@84e 22fefffffd
@84f 122fe5a2b49
@850 5a7ffd
@851 5a9ffd
@852 ffeb55
@853 5acb5d
@854 22fefffffd
@855 5b1ffd
@856 122fe5b2b69
@857 22fe5b6b71
@858 122fe5bab79
@859 22fe5beb81
@85a 122fe5c2b89
@85b 22fe5c6b91
@85c 122fe5cab99
@85d 22fe5ceba1
@85e 122fe5d2ba9
@85f 22fe5d6bb1
@860 122fe5dabb9
@861 22fe5debc1
@862 ffebc5
@863 122fefffffd
@864 5e4bcd
@865 121fefffffd
@866 21fefffffd
@867 122feffebd1
@868 22fe5ebffd
@869 22fefffffd
@86a 22fefffffd
@86b ffebd9
@86c 122feffebdd
@86d 22fefffffd
@86e 122fefffffd
@86f 5f1ffd
@870 122195f2be9
@871 22195f6bf1
@872 22fe5fabf9
@873 5ffffd
@874 ffec01
@875 141fefffffd
@876 507f9420b602c09
@877 420b606c11
@878 141fefffffd
@879 41fefffffd
@87a 41fefffffd
@87b 141fefffffd
@87c 41fefffffd
@87d 41fefffffd
@87e 41fefffffd
@87f 141fefffffd
@880 41fefffffd
@881 1416bfffffd
@882 4120fffffd
@883 4120fffffd
@884 141fefffffd
@885 141fdfffffd
@886 141fefffffd
@887 413cfffffd
@888 141fefffffd
@889 41fefffffd
@88a 141fefffffd
@88b 41fefffffd
@88c 141fefffffd
@88d 41fefffffd
@88e 41fefffffd
@88f 141fefffffd
@890 41fefffffd
@891 141fefffffd
@892 41fefffffd
@893 141fefffffd
@894 141fefffffd
@895 41fefffffd
@896 141fefffffd
@897 41fefffffd
@898 41fefffffd
@899 141fefffffd
@89a 41fefffffd
@89b 141fefffffd
@89c 141fefffffd
@89d 41fefffffd
@89e 41fefffffd
@89f 41fefffffd
@8a0 141fefffffd
@8a1 41fefffffd
@8a2 41fefffffd
@8a3 141fefffffd
@8a4 41fefffffd
@8a5 141fefffffd
@8a6 141fefffffd
@8a7 141fefffffd
@8a8 41fefffffd
@8a9 141fefffffd
@8aa 14120fffffd
@8ab 4120fffffd
@8ac 14120fffffd
@8ad 141fefffffd
@8ae 21fefffffd
@8af 121fefffffd
@8b0 21fefffffd
@8b1 121fefffffd
@8b2 121fefffffd
@8b3 121fefffffd
@8b4 21fefffffd
@8b5 121fefffffd
@8b6 21fefffffd
@8b7 121fefffffd
@8b8 21fefffffd
@8b9 121fefffffd
@8ba 21fefffffd
@8bb 121fefffffd
@8bc 21fefffffd
@8bd 21fefffffd
@8be 121fefffffd
@8bf 21fefffffd
@8c0 121fefffffd
@8c1 21fefffffd
@8c2 121fefffffd
@8c3 21fefffffd
@8c4 121fefffffd
@8c5 121fefffffd
@8c6 21fefffffd
@8c7 121fefffffd
@8c8 21fefffffd
@8c9 121fefffffd
@8ca 21fefffffd
@8cb 121fefffffd
@8cc 21fefffffd
@8cd 121fefffffd
@8ce 21fefffffd
@8cf 21fefffffd
@8d0 121fefffffd
@8d1 21fefffffd
@8d2 121fefffffd
@8d3 21fefffffd
@8d4 121fefffffd
@8d5 21fefffffd
@8d6 21fefffffd
@8d7 121fefffffd
@8d8 21fefffffd
@8d9 121fefffffd
@8da 21fefffffd
@8db 121fefffffd
@8dc 21fefffffd
@8dd 121fefffffd
@8de 21fefffffd
@8df 121fefffffd
@8e0 21fefffffd
@8e1 121fefffffd
@8e2 21fefffffd
@8e3 121fefffffd
@8e4 21fefffffd
@8e5 121fefffffd
@8e6 121fefffffd
@8e7 21fefffffd
@8e8 121fefffffd
@8e9 21fefffffd
@8ea 121fefffffd
@8eb 21fefffffd
@8ec 121fefffffd
@8ed 21fefffffd
@8ee 121fefffffd
@8ef 21fefffffd
@8f0 121fefffffd
@8f1 21fefffffd
@8f2 121fefffffd
@8f3 21fefffffd
@8f4 121fefffffd
@8f5 21fefffffd
@8f6 121fefffffd
@8f7 21fefffffd
@8f8 21fefffffd
@8f9 121fefffffd
@8fa 121fefffffd
@8fb 21fefffffd
@8fc 121fefffffd
@8fd 21fefffffd
@8fe 121fefffffd
@8ff 21fefffffd
@900 121fefffffd
@901 21fefffffd
@902 121fefffffd
@903 21fefffffd
@904 121fefffffd
@905 21fefffffd
@906 121fefffffd
@907 21fefffffd
@908 121fefffffd
@909 21fefffffd
@90a 121fefffffd
@90b 21fefffffd
@90c 121fefffffd
@90d 21fefffffd
@90e 121fefffffd
@90f 21fefffffd
@910 121fefffffd
@911 21fefffffd
@912 121fefffffd
@913 121fefffffd
@914 21fefffffd
@915 121fefffffd
@916 21fefffffd
@917 121fefffffd
@918 21fefffffd
@919 121fefffffd
@91a 21fefffffd
@91b 121fefffffd
@91c 21fefffffd
@91d 21fefffffd
@91e 121fefffffd
@91f 21fefffffd
@920 121fefffffd
@921 21fefffffd
@922 121fefffffd
@923 121fefffffd
@924 21fefffffd
@925 121fefffffd
@926 21fefffffd
@927 121fefffffd
@928 121fefffffd
@929 21fefffffd
@92a 121fefffffd
@92b 21fefffffd
@92c 121fefffffd
@92d 121fefffffd
@92e 21fefffffd
@92f 121fefffffd
@930 21fefffffd
@931 121fefffffd
@932 121fefffffd
@933 21fefffffd
@934 121fefffffd
@935 121fefffffd
@936 21fefffffd
@937 21fefffffd
@938 21fefffffd
@939 121fefffffd
@93a 21fefffffd
@93b 121fefffffd
@93c 21fefffffd
@93d 121fefffffd
@93e 121fefffffd
@93f 21fefffffd
@940 21fefffffd
@941 121fefffffd
@942 121fefffffd
@943 21fefffffd
@944 121fefffffd
@945 21fefffffd
@946 121fefffffd
@947 21fefffffd
@948 121fefffffd
@949 21fefffffd
@94a 121fefffffd
@94b 21fefffffd
@94c 121fefffffd
@94d 21fefffffd
@94e 121fefffffd
@94f 21fefffffd
@950 87f822fe60ac19
@951 487f922fe60ec21
@952 121fefffffd
@953 21fefffffd
@954 121fefffffd
@955 21fefffffd
@956 121fefffffd
@957 21fefffffd
@958 487f922feffec25
@959 87f822fe615ffd
@95a 121fefffffd
@95b 21fefffffd
@95c 121fefffffd
@95d 87f822fe616c31
@95e 487f922feffec35
@95f 21fefffffd
@960 121fefffffd
@961 21fefffffd
@962 687f921fe61cc3d
@963 621ffd
@964 123feffec45
@965 23fe625ffd
@966 ffec4d
@967 22feffec51
@968 62bffd
@969 21fefffffd
@96a 21fefffffd
@96b 122feffec59
@96c 22feffec5d
@96d 631ffd
@96e ffec65
@96f ffec69
@970 21fefffffd
@971 122feffec6d
@972 ffec71
@973 122fefffffd
@974 121fefffffd
@975 63bffd
@976 121fe63dffd
@977 63fffd
@978 22fefffffd
@979 21feffec81
@97a 121fefffffd
@97b 21fefffffd
@97c 21fefffffd
@97d 121fefffffd
@97e 21fefffffd
@97f 121fefffffd
@980 21fefffffd
@981 121fefffffd
@982 21fefffffd
@983 121fefffffd
@984 21fefffffd
@985 121fefffffd
@986 21fefffffd
@987 121fefffffd
@988 21fefffffd
@989 121fefffffd
@98a 21fefffffd
@98b 121fefffffd
@98c 21fefffffd
@98d 121fefffffd
@98e 21fefffffd
@98f 121fefffffd
@990 21fefffffd
@991 121fefffffd
@992 21fefffffd
@993 121fefffffd
@994 121fefffffd
@995 21fefffffd
@996 121fefffffd
@997 21fefffffd
@998 121fefffffd
@999 21fefffffd
@99a 643ffd
@99b 122feffec89
@99c 646c91
@99d 121fefffffd
@99e 21fefffffd
@99f 121fefffffd
@9a0 21fefffffd
@9a1 121fefffffd
@9a2 21fefffffd
@9a3 121fefffffd
@9a4 21fefffffd
@9a5 1213cfffffd
@9a6 213cfffffd
@9a7 1213cfffffd
@9a8 213cfffffd
@9a9 121fefffffd
@9aa 21fefffffd
@9ab 21fefffffd
@9ac 121fefffffd
@9ad 87f822fe64bffd
@9ae 21fefffffd
@9af 121fefffffd
@9b0 21fefffffd
@9b1 121fefffffd
@9b2 21fefffffd
@9b3 21fefffffd
@9b4 121fdfffffd
@9b5 121fefffffd
@9b6 121fefffffd
@9b7 21fefffffd
@9b8 121fefffffd
@9b9 121fefffffd
@9ba 21fefffffd
@9bb 213cfffffd
@9bc 121fefffffd
@9bd 21fefffffd
@9be 121fefffffd
@9bf 21fefffffd
@9c0 1213cfffffd
@9c1 121fefffffd
@9c2 121fefffffd
@9c3 121fefffffd
@9c4 21fefffffd
@9c5 121fefffffd
@9c6 12120fffffd
@9c7 21fefffffd
@9c8 1213cfffffd
@9c9 213cfffffd
@9ca 1213cfffffd
@9cb 213cfffffd
@9cc 121fefffffd
@9cd 21fefffffd
@9ce 121fefffffd
@9cf 21fefffffd
@9d0 121fdfffffd
@9d1 21fdfffffd
@9d2 121fdfffffd
@9d3 21fdfffffd
@9d4 21fefffffd
@9d5 121fefffffd
@9d6 21fefffffd
@9d7 121fefffffd
@9d8 21fefffffd
@9d9 121fefffffd
@9da 121fefffffd
@9db 21fefffffd
@9dc 21fefffffd
@9dd 121fefffffd
@9de 21fefffffd
@9df 121fefffffd
@9e0 21fefffffd
@9e1 21fefffffd
@9e2 121fefffffd
@9e3 21fefffffd
@9e4 121fefffffd
@9e5 21fefffffd
@9e6 121fefffffd
@9e7 121fefffffd
@9e8 21fefffffd
@9e9 121fefffffd
@9ea 21fefffffd
@9eb 21fefffffd
@9ec 121fefffffd
@9ed 21fefffffd
@9ee 121fefffffd
@9ef 21fefffffd
@9f0 121fefffffd
@9f1 21fefffffd
@9f2 121fefffffd
@9f3 21fefffffd
@9f4 121fefffffd
@9f5 21fefffffd
@9f6 121fefffffd
@9f7 21fefffffd
@9f8 121fefffffd
@9f9 121fefffffd
@9fa 21fefffffd
@9fb 21fefffffd
@9fc 121fefffffd
@9fd 121fefffffd
@9fe 121fefffffd
@9ff 21fefffffd
@a00 21fefffffd
@a01 21fefffffd
@a02 121fefffffd
@a03 21fefffffd
@a04 121fefffffd
@a05 21fefffffd
@a06 121fefffffd
@a07 121fefffffd
@a08 21fefffffd
@a09 21fefffffd
@a0a 121fefffffd
@a0b 121fefffffd
@a0c 121fefffffd
@a0d 21fefffffd
@a0e 21fefffffd
@a0f 21fefffffd
@a10 21fefffffd
@a11 21fefffffd
@a12 121fefffffd
@a13 121fefffffd
@a14 21fefffffd
@a15 22fe64dffd
@a16 122feffec9d
@a17 651ffd
@a18 653ffd
@a19 121fefffffd
@a1a 121fefffffd
@a1b 21fefffffd
@a1c 121fdfffffd
@a1d 487f922feffeca9
@a1e 21fefffffd
@a1f 121fefffffd
@a20 21fefffffd
@a21 121fefffffd
@a22 21fefffffd
@a23 121fefffffd
@a24 21fefffffd
@a25 21fefffffd
@a26 21fefffffd
@a27 121fefffffd
@a28 21fefffffd
@a29 121fefffffd
@a2a 21fefffffd
@a2b 121fefffffd
@a2c 21fefffffd
@a2d 21fefffffd
@a2e 121fefffffd
@a2f 21fefffffd
@a30 121fefffffd
@a31 21fefffffd
@a32 121fefffffd
@a33 21fefffffd
@a34 121fefffffd
@a35 21fefffffd
@a36 121fefffffd
@a37 21fefffffd
@a38 1213cfffffd
@a39 213cfffffd
@a3a 1213cfffffd
@a3b 213cfffffd
@a3c 21fefffffd
@a3d 21fefffffd
@a3e 21fefffffd
@a3f 121fefffffd
@a40 121fefffffd
@a41 121fefffffd
@a42 21fefffffd
@a43 21fefffffd
@a44 121fefffffd
@a45 21fefffffd
@a46 121fefffffd
@a47 121fefffffd
@a48 21fefffffd
@a49 121fefffffd
@a4a 21fefffffd
@a4b 21fefffffd
@a4c 121fefffffd
@a4d 21fefffffd
@a4e 121fefffffd
@a4f 121fefffffd
@a50 121fefffffd
@a51 121fefffffd
@a52 21fefffffd
@a53 121fefffffd
@a54 121fefffffd
@a55 21fefffffd
@a56 121fefffffd
@a57 21fefffffd
@a58 121fefffffd
@a59 121fefffffd
@a5a 21fefffffd
@a5b 21fefffffd
@a5c 21fefffffd
@a5d 21fefffffd
@a5e 121fefffffd
@a5f 21fefffffd
@a60 21fefffffd
@a61 21fefffffd
@a62 21fefffffd
@a63 21fefffffd
@a64 121fefffffd
@a65 21fefffffd
@a66 21fefffffd
@a67 121fefffffd
@a68 21fefffffd
@a69 21fefffffd
@a6a 121fefffffd
@a6b 121fefffffd
@a6c 21fefffffd
@a6d 121fefffffd
@a6e 121fefffffd
@a6f 21fefffffd
@a70 21fefffffd
@a71 21fefffffd
@a72 21fefffffd
@a73 21fefffffd
@a74 121fefffffd
@a75 21fefffffd
@a76 121fefffffd
@a77 21fefffffd
@a78 21fefffffd
@a79 21fefffffd
@a7a 21fefffffd
@a7b 21fefffffd
@a7c 21fefffffd
@a7d 121fefffffd
@a7e 21fefffffd
@a7f 121fefffffd
@a80 21fefffffd
@a81 121fefffffd
@a82 121fefffffd
@a83 121fefffffd
@a84 121fefffffd
@a85 121fefffffd
@a86 121fefffffd
@a87 21fefffffd
@a88 121fefffffd
@a89 21fefffffd
@a8a 121fefffffd
@a8b 21fefffffd
@a8c 121fefffffd
@a8d 21fefffffd
@a8e 121fefffffd
@a8f 21fefffffd
@a90 121fefffffd
@a91 21fefffffd
@a92 121fefffffd
@a93 21fefffffd
@a94 21fefffffd
@a95 121fefffffd
@a96 21fefffffd
@a97 121fefffffd
@a98 21fefffffd
@a99 121fefffffd
@a9a 21fefffffd
@a9b 121fefffffd
@a9c 121fefffffd
@a9d 21fefffffd
@a9e 121fefffffd
@a9f 121fefffffd
@aa0 21fefffffd
@aa1 121fefffffd
@aa2 21fefffffd
@aa3 121fefffffd
@aa4 21fefffffd
@aa5 121fefffffd
@aa6 21fefffffd
@aa7 121fefffffd
@aa8 21fefffffd
@aa9 21fefffffd
@aaa 121fefffffd
@aab 121fefffffd
@aac 21fefffffd
@aad 121fefffffd
@aae 21fefffffd
@aaf 121fefffffd
@ab0 21fefffffd
@ab1 121fefffffd
@ab2 21fefffffd
@ab3 121fefffffd
@ab4 121fefffffd
@ab5 21fefffffd
@ab6 1213cfffffd
@ab7 121fefffffd
@ab8 21fefffffd
@ab9 121fefffffd
@aba 21fefffffd
@abb 121fefffffd
@abc 21fefffffd
@abd 121fefffffd
@abe 21fefffffd
@abf 121fefffffd
@ac0 21fefffffd
@ac1 121fefffffd
@ac2 213cfffffd
@ac3 121fefffffd
@ac4 21fefffffd
@ac5 21fefffffd
@ac6 121fefffffd
@ac7 21fefffffd
@ac8 121fefffffd
@ac9 21fefffffd
@aca 121fefffffd
@acb 21fefffffd
@acc 1213cfffffd
@acd 121fefffffd
@ace 21fefffffd
@acf 21fefffffd
@ad0 121fefffffd
@ad1 21fefffffd
@ad2 121fefffffd
@ad3 21fefffffd
@ad4 121fefffffd
@ad5 21fefffffd
@ad6 21fefffffd
@ad7 121fefffffd
@ad8 21fefffffd
@ad9 121fefffffd
@ada 21fefffffd
@adb 121fefffffd
@adc 21fefffffd
@add 21fefffffd
@ade 121fefffffd
@adf 21fefffffd
@ae0 121fefffffd
@ae1 21fefffffd
@ae2 121fefffffd
@ae3 21fefffffd
@ae4 121fefffffd
@ae5 21fefffffd
@ae6 121fefffffd
@ae7 21fefffffd
@ae8 121fefffffd
@ae9 21fefffffd
@aea 121fefffffd
@aeb 21fefffffd
@aec 121fefffffd
@aed 21fefffffd
@aee 121fefffffd
@aef 121fefffffd
@af0 21fefffffd
@af1 121fefffffd
@af2 121fefffffd
@af3 121fefffffd
@af4 21fefffffd
@af5 121fefffffd
@af6 21fefffffd
@af7 121fefffffd
@af8 121fefffffd
@af9 21fefffffd
@afa 21fefffffd
@afb 121fefffffd
@afc 21fefffffd
@afd 21fefffffd
@afe 21fefffffd
@aff 21fefffffd
@b00 21fefffffd
@b01 21fefffffd
@b02 121fefffffd
@b03 21fefffffd
@b04 121fefffffd
@b05 21fefffffd
@b06 121fefffffd
@b07 21fefffffd
@b08 121fefffffd
@b09 21fefffffd
@b0a 121fefffffd
@b0b 21fefffffd
@b0c 21fefffffd
@b0d 121fefffffd
@b0e 21fefffffd
@b0f 21fefffffd
@b10 21fefffffd
@b11 121fefffffd
@b12 121fefffffd
@b13 121fefffffd
@b14 21fefffffd
@b15 121fefffffd
@b16 21fefffffd
@b17 121fefffffd
@b18 21fefffffd
@b19 21fefffffd
@b1a 21fefffffd
@b1b 121fefffffd
@b1c 121fefffffd
@b1d 21fefffffd
@b1e 121fefffffd
@b1f 141fefffffd
@b20 141fefffffd
@b21 107f842fe656cb1
@b22 ffecb5
@b23 121fefffffd
@b24 65ccbd
@b25 22fe660cc5
@b26 122feffecc9
@b27 22fe667ffd
@b28 21fefffffd
@b29 121fefffffd
@b2a 21fefffffd
@b2b 121fefffffd
@b2c 21fefffffd
@b2d 121fefffffd
@b2e 21fefffffd
@b2f 21fefffffd
@b30 21fefffffd
@b31 121fefffffd
@b32 21fefffffd
@b33 21fefffffd
@b34 213cfffffd
@b35 121fefffffd
@b36 21fefffffd
@b37 21fefffffd
@b38 121fefffffd
@b39 21fefffffd
@b3a 121fefffffd
@b3b 21fefffffd
@b3c 121fefffffd
@b3d 121fefffffd
@b3e 21fefffffd
@b3f 21fefffffd
@b40 121fefffffd
@b41 21fefffffd
@b42 21fefffffd
@b43 121fefffffd
@b44 121fefffffd
@b45 21fefffffd
@b46 21fefffffd
@b47 121fefffffd
@b48 21fefffffd
@b49 121fefffffd
@b4a 21fefffffd
@b4b 121fefffffd
@b4c 21fefffffd
@b4d 121fefffffd
@b4e 21fefffffd
@b4f 121fefffffd
@b50 21fefffffd
@b51 121fefffffd
@b52 21fefffffd
@b53 121fefffffd
@b54 21fefffffd
@b55 121fefffffd
@b56 21fefffffd
@b57 121fefffffd
@b58 21fefffffd
@b59 121fefffffd
@b5a 21fefffffd
@b5b 121fefffffd
@b5c 21fefffffd
@b5d 121fefffffd
@b5e 21fefffffd
@b5f 121fefffffd
@b60 21fefffffd
@b61 122fe668cd5
@b62 22fe66ccdd
@b63 122fe670ce5
@b64 22fe674ced
@b65 122fe678cf5
@b66 22fe67ccfd
@b67 122fe680d05
@b68 22fe684d0d
@b69 122fe688d15
@b6a 22fe68cd1d
@b6b 122fe690d25
@b6c 22fe694d2d
@b6d 122fe698d35
@b6e 22fe69cd3d
@b6f 122fe6a0d45
@b70 22fe6a4d4d
@b71 121fefffffd
@b72 21fefffffd
@b73 121fefffffd
@b74 21fefffffd
@b75 121fefffffd
@b76 21fefffffd
@b77 121fefffffd
@b78 21fefffffd
@b79 121fefffffd
@b7a 21fefffffd
@b7b 121fefffffd
@b7c 21fefffffd
@b7d 121fefffffd
@b7e 21fefffffd
@b7f 121fefffffd
@b80 121fefffffd
@b81 21fefffffd
@b82 121fefffffd
@b83 21fefffffd
@b84 121fefffffd
@b85 21fefffffd
@b86 121fefffffd
@b87 21fefffffd
@b88 121fefffffd
@b89 21fefffffd
@b8a 121fefffffd
@b8b 21fefffffd
@b8c 121fefffffd
@b8d 21fefffffd
@b8e 121fefffffd
@b8f 21fefffffd
@b90 122fefffffd
@b91 6a8d55
@b92 ffed59
@b93 22fefffffd
@b94 122fefffffd
@b95 6aed61
@b96 ffed65
@b97 22fefffffd
@b98 6b5ffd
@b99 6b7ffd
@b9a 122fefffffd
@b9b 122fe6b9ffd
@b9c 6bbffd
@b9d 6bdffd
@b9e 122feffed7d
@b9f 6c1ffd
@ba0 6c2d89
@ba1 22fefffffd
@ba2 6c7ffd
@ba3 6c9ffd
@ba4 122fefffffd
@ba5 ffed95
@ba6 6cdffd
@ba7 6cfffd
@ba8 6d1ffd
@ba9 22fefffffd
@baa ffeda5
@bab 122fefffffd
@bac 22fefffffd
@bad 122feffeda9
@bae 22feffedad
@baf 6d9ffd
@bb0 121fefffffd
@bb1 21fefffffd
@bb2 21fefffffd
@bb3 121fefffffd
@bb4 121fefffffd
@bb5 21fefffffd
@bb6 121fe6dbffd
@bb7 21fefffffd
@bb8 121fefffffd
@bb9 21fefffffd
@bba 487f923fefffffd
@bbb 87f822fe6ddffd
@bbc 87f822fe6dedc1
@bbd 122fe6e2dc9
@bbe 22fe6e6dd1
@bbf 122fe6eadd9
@bc0 22fe6eede1
@bc1 122fe6f2de9
@bc2 22fe6f6df1
@bc3 122fe6fadf9
@bc4 22fe6fee01
@bc5 122fe702e09
@bc6 22fe706e11
@bc7 122fe70ae19
@bc8 22fe70ee21
@bc9 122fe712e29
@bca 22fe716e31
@bcb 122fe71ae39
@bcc 22fe71ee41
@bcd 723ffd
@bce 724e4d
@bcf 729ffd
@bd0 ffee55
@bd1 23feffee59
@bd2 72ee61
@bd3 21fe732e69
@bd4 123fefffffd
@bd5 737ffd
@bd6 ffee71
@bd7 73ae79
@bd8 73fffd
@bd9 741ffd
@bda 123fe743ffd
@bdb 745ffd
@bdc 23fe746e91
@bdd 123fe74bffd
@bde ffee99
@bdf 123fe74eea1
@be0 ffeea5
@be1 755ffd
@be2 756eb1
@be3 75aeb9
@be4 75eec1
@be5 762ec9
@be6 121fefffffd
@be7 21fefffffd
@be8 121fefffffd
@be9 121fefffffd
@bea 21fefffffd
@beb 21fefffffd
@bec 121fefffffd
@bed 21fefffffd
@bee 121fefffffd
@bef 21fefffffd
@bf0 121fefffffd
@bf1 21fefffffd
@bf2 121fefffffd
@bf3 21fefffffd
@bf4 141fefffffd
@bf5 41fefffffd
@bf6 21fefffffd
@bf7 121fefffffd
@bf8 121fefffffd
@bf9 21fefffffd
@bfa 121fefffffd
@bfb 21fefffffd
@bfc 21fefffffd
@bfd 121fefffffd
@bfe 121fefffffd
@bff 21fefffffd
@c00 121fefffffd
@c01 21fefffffd
@c02 121fefffffd
@c03 121fefffffd
@c04 21fefffffd
@c05 121fefffffd
@c06 21fefffffd
@c07 121fefffffd
@c08 121fefffffd
@c09 21fefffffd
@c0a 21fefffffd
@c0b 121fefffffd
@c0c 21fefffffd
@c0d 121fefffffd
@c0e 21fefffffd
@c0f 21fefffffd
@c10 21fefffffd
