CAI     
Num of Nodes (K) ,       6.0,       5.8,       5.8,       5.8,       5.8,       5.8,       5.8,       5.8,       5.8, 
Memory bits (M)  ,       0.3,       0.4,       0.5,       0.6,       0.7,       1.0,       1.2,       1.7,       2.2, 
Avg Lat/Worst Lat, 25.08/41 , 22.24/32 , 21.44/31 , 21.10/31 , 21.03/31 , 20.85/31 , 20.90/31 , 20.89/31 , 20.91/31 , 
SDB     
Num of Nodes (K) ,      11.6,      11.3,      11.2,      11.2,      11.2,      11.2,      11.2,      11.2,      11.2, 
Memory bits (M)  ,       0.5,       0.7,       0.9,       1.1,       1.3,       1.9,       2.3,       3.3,       4.4, 
Avg Lat/Worst Lat, 23.07/34 , 21.46/30 , 20.92/29 , 20.88/27 , 20.96/29 , 20.96/29 , 20.96/29 , 20.97/29 , 20.96/29 , 
MAN     
Num of Nodes (K) ,      21.0,      20.8,      20.8,      20.8,      20.8,      20.8,      20.8,      20.8,      20.8, 
Memory bits (M)  ,       1.0,       1.4,       1.7,       2.1,       2.5,       3.6,       4.4,       6.2,       8.1, 
Avg Lat/Worst Lat, 21.17/27 , 20.86/24 , 20.85/23 , 20.80/23 , 20.79/23 , 20.82/23 , 20.83/23 , 20.82/23 , 20.83/23 , 
LYS     
Num of Nodes (K) ,      90.3,      88.3,      88.1,      88.0,      88.0,      88.0,      88.0,      88.0,      88.0, 
Memory bits (M)  ,       4.7,       6.2,       7.8,       9.3,      10.9,      15.7,      18.8,      26.8,      34.7, 
Avg Lat/Worst Lat, 23.32/40 , 21.76/31 , 21.46/31 , 21.30/31 , 21.28/31 , 21.27/31 , 21.28/31 , 21.28/31 , 21.28/31 , 
DXB     
Num of Nodes (K) ,     120.3,     116.8,     116.5,     116.4,     116.4,     116.4,     116.4,     116.4,     116.4, 
Memory bits (M)  ,       6.3,       8.2,      10.3,      12.3,      14.4,      20.7,      24.9,      35.4,      45.9, 
Avg Lat/Worst Lat, 23.93/46 , 21.80/30 , 21.39/26 , 21.30/25 , 21.24/24 , 21.21/24 , 21.20/24 , 21.20/24 , 21.21/24 , 
MGM     
Num of Nodes (K) ,     188.4,     183.7,     183.3,     183.3,     183.2,     183.2,     183.2,     183.2,     183.2, 
Memory bits (M)  ,      10.2,      13.2,      16.5,      19.8,      23.1,      33.0,      39.6,      56.1,      72.6, 
Avg Lat/Worst Lat, 23.04/41 , 21.54/30 , 21.29/26 , 21.26/25 , 21.25/24 , 21.25/23 , 21.25/23 , 21.25/23 , 21.24/23 , 
MIA     
Num of Nodes (K) ,     474.1,     452.1,     449.5,     449.0,     448.9,     448.9,     448.9,     448.9,     448.9, 
Memory bits (M)  ,      26.5,      33.5,      41.4,      49.4,      57.5,      81.7,      97.9,     138.3,     178.7, 
Avg Lat/Worst Lat, 30.01/66 , 23.90/41 , 22.42/32 , 21.71/31 , 21.55/30 , 21.35/30 , 21.35/30 , 21.35/30 , 21.35/30 , 
IAD     
Num of Nodes (K) ,     570.0,     540.5,     536.8,     536.1,     535.9,     535.8,     535.8,     535.8,     535.8, 
Memory bits (M)  ,      33.1,      41.1,      50.5,      60.0,      69.7,      98.6,     117.9,     166.1,     214.3, 
Avg Lat/Worst Lat, 34.06/87 , 25.61/52 , 23.35/42 , 22.12/39 , 21.89/36 , 21.44/32 , 21.43/31 , 21.37/31 , 21.37/31 , 
FRA     
Num of Nodes (K) ,     593.1,     561.9,     557.9,     557.1,     557.0,     556.9,     556.9,     556.9,     556.9, 
Memory bits (M)  ,      34.4,      42.7,      52.4,      62.4,      72.4,     102.5,     122.5,     172.6,     222.7, 
Avg Lat/Worst Lat, 36.04/93 , 25.74/56 , 23.75/45 , 22.23/39 , 21.92/36 , 21.48/33 , 21.43/31 , 21.43/31 , 21.42/31 , 
PAO     
Num of Nodes (K) ,     864.2,     808.2,     800.2,     798.5,     798.0,     797.9,     797.9,     797.9,     797.9, 
Memory bits (M)  ,      50.1,      61.4,      75.2,      89.4,     103.7,     146.8,     175.5,     247.3,     319.1, 
Avg Lat/Worst Lat, 51.33/116, 32.42/64 , 27.36/47 , 24.30/38 , 23.12/35 , 21.65/31 , 21.45/31 , 21.41/31 , 21.41/31 , 

